%YAML 1.1
%TAG !u! tag:unity3d.com,2011:
--- !u!74 &7400000
AnimationClip:
  m_ObjectHideFlags: 0
  m_CorrespondingSourceObject: {fileID: 0}
  m_PrefabInstance: {fileID: 0}
  m_PrefabAsset: {fileID: 0}
  m_Name: Torch
  serializedVersion: 6
  m_Legacy: 0
  m_Compressed: 0
  m_UseHighQualityCurve: 1
  m_RotationCurves: []
  m_CompressedRotationCurves: []
  m_EulerCurves: []
  m_PositionCurves: []
  m_ScaleCurves: []
  m_FloatCurves: []
  m_PPtrCurves:
  - curve:
    - time: 0
      value: {fileID: -1984309739417157192, guid: d8bc01e3bc91be347b2b8ee43ff4edc5,
        type: 3}
    - time: 0.1
      value: {fileID: 1556147095440880475, guid: d8bc01e3bc91be347b2b8ee43ff4edc5,
        type: 3}
    - time: 0.2
      value: {fileID: -169925503592390112, guid: d8bc01e3bc91be347b2b8ee43ff4edc5,
        type: 3}
    - time: 0.3
      value: {fileID: -3512463759740214619, guid: d8bc01e3bc91be347b2b8ee43ff4edc5,
        type: 3}
    - time: 0.4
      value: {fileID: -4335429302833282769, guid: d8bc01e3bc91be347b2b8ee43ff4edc5,
        type: 3}
    - time: 0.5
      value: {fileID: 6580287968770902530, guid: d8bc01e3bc91be347b2b8ee43ff4edc5,
        type: 3}
    - time: 0.6
      value: {fileID: -5604070552578915459, guid: d8bc01e3bc91be347b2b8ee43ff4edc5,
        type: 3}
    - time: 0.7
      value: {fileID: 8453250888515049317, guid: d8bc01e3bc91be347b2b8ee43ff4edc5,
        type: 3}
    - time: 0.8
      value: {fileID: -8981416682168843155, guid: d8bc01e3bc91be347b2b8ee43ff4edc5,
        type: 3}
    - time: 0.9
      value: {fileID: -6730121285262680870, guid: d8bc01e3bc91be347b2b8ee43ff4edc5,
        type: 3}
    - time: 1
      value: {fileID: -7803037586745597667, guid: d8bc01e3bc91be347b2b8ee43ff4edc5,
        type: 3}
    - time: 1.1
      value: {fileID: 2331125214236511726, guid: d8bc01e3bc91be347b2b8ee43ff4edc5,
        type: 3}
    - time: 1.2
      value: {fileID: -2319171528396550434, guid: d8bc01e3bc91be347b2b8ee43ff4edc5,
        type: 3}
    attribute: m_Sprite
    path: 
    classID: 212
    script: {fileID: 0}
  m_SampleRate: 10
  m_WrapMode: 0
  m_Bounds:
    m_Center: {x: 0, y: 0, z: 0}
    m_Extent: {x: 0, y: 0, z: 0}
  m_ClipBindingConstant:
    genericBindings:
    - serializedVersion: 2
      path: 0
      attribute: 0
      script: {fileID: 0}
      typeID: 212
      customType: 23
      isPPtrCurve: 1
    pptrCurveMapping:
    - {fileID: -1984309739417157192, guid: d8bc01e3bc91be347b2b8ee43ff4edc5, type: 3}
    - {fileID: 1556147095440880475, guid: d8bc01e3bc91be347b2b8ee43ff4edc5, type: 3}
    - {fileID: -169925503592390112, guid: d8bc01e3bc91be347b2b8ee43ff4edc5, type: 3}
    - {fileID: -3512463759740214619, guid: d8bc01e3bc91be347b2b8ee43ff4edc5, type: 3}
    - {fileID: -4335429302833282769, guid: d8bc01e3bc91be347b2b8ee43ff4edc5, type: 3}
    - {fileID: 6580287968770902530, guid: d8bc01e3bc91be347b2b8ee43ff4edc5, type: 3}
    - {fileID: -5604070552578915459, guid: d8bc01e3bc91be347b2b8ee43ff4edc5, type: 3}
    - {fileID: 8453250888515049317, guid: d8bc01e3bc91be347b2b8ee43ff4edc5, type: 3}
    - {fileID: -8981416682168843155, guid: d8bc01e3bc91be347b2b8ee43ff4edc5, type: 3}
    - {fileID: -6730121285262680870, guid: d8bc01e3bc91be347b2b8ee43ff4edc5, type: 3}
    - {fileID: -7803037586745597667, guid: d8bc01e3bc91be347b2b8ee43ff4edc5, type: 3}
    - {fileID: 2331125214236511726, guid: d8bc01e3bc91be347b2b8ee43ff4edc5, type: 3}
    - {fileID: -2319171528396550434, guid: d8bc01e3bc91be347b2b8ee43ff4edc5, type: 3}
  m_AnimationClipSettings:
    serializedVersion: 2
    m_AdditiveReferencePoseClip: {fileID: 0}
    m_AdditiveReferencePoseTime: 0
    m_StartTime: 0
    m_StopTime: 1.3000001
    m_OrientationOffsetY: 0
    m_Level: 0
    m_CycleOffset: 0
    m_HasAdditiveReferencePose: 0
    m_LoopTime: 1
    m_LoopBlend: 0
    m_LoopBlendOrientation: 0
    m_LoopBlendPositionY: 0
    m_LoopBlendPositionXZ: 0
    m_KeepOriginalOrientation: 0
    m_KeepOriginalPositionY: 1
    m_KeepOriginalPositionXZ: 0
    m_HeightFromFeet: 0
    m_Mirror: 0
  m_EditorCurves: []
  m_EulerEditorCurves: []
  m_HasGenericRootTransform: 0
  m_HasMotionFloatCurves: 0
  m_Events: []
