%YAML 1.1
%TAG !u! tag:unity3d.com,2011:
--- !u!1001 &222052339731493372
PrefabInstance:
  m_ObjectHideFlags: 0
  serializedVersion: 2
  m_Modification:
    m_TransformParent: {fileID: 0}
    m_Modifications:
    - target: {fileID: 6677699643762324729, guid: 6b0c6825fb222934096f8254abf9da34,
        type: 3}
      propertyPath: m_Name
      value: WoodDummy_Long
      objectReference: {fileID: 0}
    - target: {fileID: 6677699643762324730, guid: 6b0c6825fb222934096f8254abf9da34,
        type: 3}
      propertyPath: m_Offset.y
      value: 0
      objectReference: {fileID: 0}
    - target: {fileID: 6677699643762324730, guid: 6b0c6825fb222934096f8254abf9da34,
        type: 3}
      propertyPath: m_Size.y
      value: 2
      objectReference: {fileID: 0}
    - target: {fileID: 6677699643762324732, guid: 6b0c6825fb222934096f8254abf9da34,
        type: 3}
      propertyPath: m_LocalPosition.x
      value: 0
      objectReference: {fileID: 0}
    - target: {fileID: 6677699643762324732, guid: 6b0c6825fb222934096f8254abf9da34,
        type: 3}
      propertyPath: m_LocalPosition.y
      value: 0
      objectReference: {fileID: 0}
    - target: {fileID: 6677699643762324732, guid: 6b0c6825fb222934096f8254abf9da34,
        type: 3}
      propertyPath: m_LocalPosition.z
      value: 0
      objectReference: {fileID: 0}
    - target: {fileID: 6677699643762324732, guid: 6b0c6825fb222934096f8254abf9da34,
        type: 3}
      propertyPath: m_LocalRotation.x
      value: 0
      objectReference: {fileID: 0}
    - target: {fileID: 6677699643762324732, guid: 6b0c6825fb222934096f8254abf9da34,
        type: 3}
      propertyPath: m_LocalRotation.y
      value: 0
      objectReference: {fileID: 0}
    - target: {fileID: 6677699643762324732, guid: 6b0c6825fb222934096f8254abf9da34,
        type: 3}
      propertyPath: m_LocalRotation.z
      value: 0
      objectReference: {fileID: 0}
    - target: {fileID: 6677699643762324732, guid: 6b0c6825fb222934096f8254abf9da34,
        type: 3}
      propertyPath: m_LocalRotation.w
      value: 1
      objectReference: {fileID: 0}
    - target: {fileID: 6677699643762324732, guid: 6b0c6825fb222934096f8254abf9da34,
        type: 3}
      propertyPath: m_RootOrder
      value: 0
      objectReference: {fileID: 0}
    - target: {fileID: 6677699643762324732, guid: 6b0c6825fb222934096f8254abf9da34,
        type: 3}
      propertyPath: m_LocalEulerAnglesHint.x
      value: 0
      objectReference: {fileID: 0}
    - target: {fileID: 6677699643762324732, guid: 6b0c6825fb222934096f8254abf9da34,
        type: 3}
      propertyPath: m_LocalEulerAnglesHint.y
      value: 0
      objectReference: {fileID: 0}
    - target: {fileID: 6677699643762324732, guid: 6b0c6825fb222934096f8254abf9da34,
        type: 3}
      propertyPath: m_LocalEulerAnglesHint.z
      value: 0
      objectReference: {fileID: 0}
    - target: {fileID: 6677699644741037360, guid: 6b0c6825fb222934096f8254abf9da34,
        type: 3}
      propertyPath: m_LocalPosition.y
      value: 0.5
      objectReference: {fileID: 0}
    - target: {fileID: 7348337410416934201, guid: 6b0c6825fb222934096f8254abf9da34,
        type: 3}
      propertyPath: m_Sprite
      value: 
      objectReference: {fileID: 21300000, guid: 264bb8942aa6eaa4abfe8c95deb3f773,
        type: 3}
    m_RemovedComponents: []
  m_SourcePrefab: {fileID: 100100000, guid: 6b0c6825fb222934096f8254abf9da34, type: 3}
