%YAML 1.1
%TAG !u! tag:unity3d.com,2011:
--- !u!1001 &6337284150376298164
PrefabInstance:
  m_ObjectHideFlags: 0
  serializedVersion: 2
  m_Modification:
    m_TransformParent: {fileID: 0}
    m_Modifications:
    - target: {fileID: 183787399122179047, guid: 8cecd70dc503bec408487ea16d91ff94,
        type: 3}
      propertyPath: m_LocalPosition.y
      value: 0
      objectReference: {fileID: 0}
    - target: {fileID: 198128357276129112, guid: 8cecd70dc503bec408487ea16d91ff94,
        type: 3}
      propertyPath: m_Sprite
      value: 
      objectReference: {fileID: 4848036386065599849, guid: d9298ee0a808a1b4f881da13851a92c2,
        type: 3}
    - target: {fileID: 3496241927679793489, guid: 8cecd70dc503bec408487ea16d91ff94,
        type: 3}
      propertyPath: m_LocalScale.x
      value: 1
      objectReference: {fileID: 0}
    - target: {fileID: 3496241927679793489, guid: 8cecd70dc503bec408487ea16d91ff94,
        type: 3}
      propertyPath: m_LocalScale.y
      value: 1
      objectReference: {fileID: 0}
    - target: {fileID: 3496241927679793489, guid: 8cecd70dc503bec408487ea16d91ff94,
        type: 3}
      propertyPath: m_LocalPosition.y
      value: 0
      objectReference: {fileID: 0}
    - target: {fileID: 5447461799551779450, guid: 8cecd70dc503bec408487ea16d91ff94,
        type: 3}
      propertyPath: m_LocalScale.x
      value: 0.9
      objectReference: {fileID: 0}
    - target: {fileID: 5447461799551779450, guid: 8cecd70dc503bec408487ea16d91ff94,
        type: 3}
      propertyPath: m_LocalScale.y
      value: 0.9
      objectReference: {fileID: 0}
    - target: {fileID: 5447461800046196348, guid: 8cecd70dc503bec408487ea16d91ff94,
        type: 3}
      propertyPath: m_Sprite
      value: 
      objectReference: {fileID: 4848036386065599849, guid: d9298ee0a808a1b4f881da13851a92c2,
        type: 3}
    - target: {fileID: 5447461800046196350, guid: 8cecd70dc503bec408487ea16d91ff94,
        type: 3}
      propertyPath: m_IsActive
      value: 0
      objectReference: {fileID: 0}
    - target: {fileID: 5447461800046196351, guid: 8cecd70dc503bec408487ea16d91ff94,
        type: 3}
      propertyPath: m_LocalScale.x
      value: 1.1
      objectReference: {fileID: 0}
    - target: {fileID: 5447461800046196351, guid: 8cecd70dc503bec408487ea16d91ff94,
        type: 3}
      propertyPath: m_LocalScale.y
      value: 1.1
      objectReference: {fileID: 0}
    - target: {fileID: 5447461800046196351, guid: 8cecd70dc503bec408487ea16d91ff94,
        type: 3}
      propertyPath: m_LocalPosition.y
      value: 0
      objectReference: {fileID: 0}
    - target: {fileID: 5447461800958645920, guid: 8cecd70dc503bec408487ea16d91ff94,
        type: 3}
      propertyPath: m_LocalPosition.x
      value: 0
      objectReference: {fileID: 0}
    - target: {fileID: 5447461800958645920, guid: 8cecd70dc503bec408487ea16d91ff94,
        type: 3}
      propertyPath: m_LocalPosition.y
      value: 0
      objectReference: {fileID: 0}
    - target: {fileID: 5447461800958645920, guid: 8cecd70dc503bec408487ea16d91ff94,
        type: 3}
      propertyPath: m_LocalPosition.z
      value: 0
      objectReference: {fileID: 0}
    - target: {fileID: 5447461800958645920, guid: 8cecd70dc503bec408487ea16d91ff94,
        type: 3}
      propertyPath: m_LocalRotation.x
      value: 0
      objectReference: {fileID: 0}
    - target: {fileID: 5447461800958645920, guid: 8cecd70dc503bec408487ea16d91ff94,
        type: 3}
      propertyPath: m_LocalRotation.y
      value: 0
      objectReference: {fileID: 0}
    - target: {fileID: 5447461800958645920, guid: 8cecd70dc503bec408487ea16d91ff94,
        type: 3}
      propertyPath: m_LocalRotation.z
      value: 0
      objectReference: {fileID: 0}
    - target: {fileID: 5447461800958645920, guid: 8cecd70dc503bec408487ea16d91ff94,
        type: 3}
      propertyPath: m_LocalRotation.w
      value: 1
      objectReference: {fileID: 0}
    - target: {fileID: 5447461800958645920, guid: 8cecd70dc503bec408487ea16d91ff94,
        type: 3}
      propertyPath: m_RootOrder
      value: 0
      objectReference: {fileID: 0}
    - target: {fileID: 5447461800958645920, guid: 8cecd70dc503bec408487ea16d91ff94,
        type: 3}
      propertyPath: m_LocalEulerAnglesHint.x
      value: 0
      objectReference: {fileID: 0}
    - target: {fileID: 5447461800958645920, guid: 8cecd70dc503bec408487ea16d91ff94,
        type: 3}
      propertyPath: m_LocalEulerAnglesHint.y
      value: 0
      objectReference: {fileID: 0}
    - target: {fileID: 5447461800958645920, guid: 8cecd70dc503bec408487ea16d91ff94,
        type: 3}
      propertyPath: m_LocalEulerAnglesHint.z
      value: 0
      objectReference: {fileID: 0}
    - target: {fileID: 5447461800958645921, guid: 8cecd70dc503bec408487ea16d91ff94,
        type: 3}
      propertyPath: m_Offset.y
      value: 0
      objectReference: {fileID: 0}
    - target: {fileID: 5447461800958645921, guid: 8cecd70dc503bec408487ea16d91ff94,
        type: 3}
      propertyPath: m_Size.x
      value: 0.5
      objectReference: {fileID: 0}
    - target: {fileID: 5447461800958645921, guid: 8cecd70dc503bec408487ea16d91ff94,
        type: 3}
      propertyPath: m_Size.y
      value: 1
      objectReference: {fileID: 0}
    - target: {fileID: 5447461800958645922, guid: 8cecd70dc503bec408487ea16d91ff94,
        type: 3}
      propertyPath: m_Name
      value: Hide_Spot_Catacumb_WallLeft
      objectReference: {fileID: 0}
    m_RemovedComponents: []
  m_SourcePrefab: {fileID: 100100000, guid: 8cecd70dc503bec408487ea16d91ff94, type: 3}
