%YAML 1.1
%TAG !u! tag:unity3d.com,2011:
--- !u!1001 &2221475645458975335
PrefabInstance:
  m_ObjectHideFlags: 0
  serializedVersion: 2
  m_Modification:
    m_TransformParent: {fileID: 8485626456763342594}
    m_Modifications:
    - target: {fileID: 6662451318479996120, guid: 463381dde7fab98449c67dc2c9598cab,
        type: 3}
      propertyPath: m_Name
      value: SparkleTrail (1)
      objectReference: {fileID: 0}
    - target: {fileID: 2259442885194978396, guid: 463381dde7fab98449c67dc2c9598cab,
        type: 3}
      propertyPath: m_LocalPosition.x
      value: 0
      objectReference: {fileID: 0}
    - target: {fileID: 2259442885194978396, guid: 463381dde7fab98449c67dc2c9598cab,
        type: 3}
      propertyPath: m_LocalPosition.y
      value: 0
      objectReference: {fileID: 0}
    - target: {fileID: 2259442885194978396, guid: 463381dde7fab98449c67dc2c9598cab,
        type: 3}
      propertyPath: m_LocalPosition.z
      value: 0
      objectReference: {fileID: 0}
    - target: {fileID: 2259442885194978396, guid: 463381dde7fab98449c67dc2c9598cab,
        type: 3}
      propertyPath: m_LocalRotation.x
      value: -0
      objectReference: {fileID: 0}
    - target: {fileID: 2259442885194978396, guid: 463381dde7fab98449c67dc2c9598cab,
        type: 3}
      propertyPath: m_LocalRotation.y
      value: -0
      objectReference: {fileID: 0}
    - target: {fileID: 2259442885194978396, guid: 463381dde7fab98449c67dc2c9598cab,
        type: 3}
      propertyPath: m_LocalRotation.z
      value: -0
      objectReference: {fileID: 0}
    - target: {fileID: 2259442885194978396, guid: 463381dde7fab98449c67dc2c9598cab,
        type: 3}
      propertyPath: m_LocalRotation.w
      value: 1
      objectReference: {fileID: 0}
    - target: {fileID: 2259442885194978396, guid: 463381dde7fab98449c67dc2c9598cab,
        type: 3}
      propertyPath: m_RootOrder
      value: 1
      objectReference: {fileID: 0}
    - target: {fileID: 2259442885194978396, guid: 463381dde7fab98449c67dc2c9598cab,
        type: 3}
      propertyPath: m_LocalEulerAnglesHint.x
      value: 0
      objectReference: {fileID: 0}
    - target: {fileID: 2259442885194978396, guid: 463381dde7fab98449c67dc2c9598cab,
        type: 3}
      propertyPath: m_LocalEulerAnglesHint.y
      value: 0
      objectReference: {fileID: 0}
    - target: {fileID: 2259442885194978396, guid: 463381dde7fab98449c67dc2c9598cab,
        type: 3}
      propertyPath: m_LocalEulerAnglesHint.z
      value: 0
      objectReference: {fileID: 0}
    - target: {fileID: 4426767822717539129, guid: 463381dde7fab98449c67dc2c9598cab,
        type: 3}
      propertyPath: InitialModule.startSize.minScalar
      value: 0.2
      objectReference: {fileID: 0}
    - target: {fileID: 4426767822717539129, guid: 463381dde7fab98449c67dc2c9598cab,
        type: 3}
      propertyPath: InitialModule.startColor.minMaxState
      value: 4
      objectReference: {fileID: 0}
    - target: {fileID: 4426767822717539129, guid: 463381dde7fab98449c67dc2c9598cab,
        type: 3}
      propertyPath: InitialModule.startColor.maxGradient.key2.r
      value: 0
      objectReference: {fileID: 0}
    - target: {fileID: 4426767822717539129, guid: 463381dde7fab98449c67dc2c9598cab,
        type: 3}
      propertyPath: InitialModule.startColor.maxGradient.key2.g
      value: 1
      objectReference: {fileID: 0}
    - target: {fileID: 4426767822717539129, guid: 463381dde7fab98449c67dc2c9598cab,
        type: 3}
      propertyPath: InitialModule.startColor.maxGradient.key2.b
      value: 0.8437159
      objectReference: {fileID: 0}
    - target: {fileID: 4426767822717539129, guid: 463381dde7fab98449c67dc2c9598cab,
        type: 3}
      propertyPath: InitialModule.startColor.maxGradient.ctime1
      value: 5783
      objectReference: {fileID: 0}
    - target: {fileID: 4426767822717539129, guid: 463381dde7fab98449c67dc2c9598cab,
        type: 3}
      propertyPath: InitialModule.startColor.maxGradient.ctime2
      value: 22359
      objectReference: {fileID: 0}
    - target: {fileID: 4426767822717539129, guid: 463381dde7fab98449c67dc2c9598cab,
        type: 3}
      propertyPath: InitialModule.startColor.maxGradient.m_NumColorKeys
      value: 6
      objectReference: {fileID: 0}
    - target: {fileID: 4426767822717539129, guid: 463381dde7fab98449c67dc2c9598cab,
        type: 3}
      propertyPath: InitialModule.startColor.maxGradient.key1.r
      value: 1
      objectReference: {fileID: 0}
    - target: {fileID: 4426767822717539129, guid: 463381dde7fab98449c67dc2c9598cab,
        type: 3}
      propertyPath: InitialModule.startColor.maxGradient.key1.g
      value: 0
      objectReference: {fileID: 0}
    - target: {fileID: 4426767822717539129, guid: 463381dde7fab98449c67dc2c9598cab,
        type: 3}
      propertyPath: InitialModule.startColor.maxGradient.key1.b
      value: 0
      objectReference: {fileID: 0}
    - target: {fileID: 4426767822717539129, guid: 463381dde7fab98449c67dc2c9598cab,
        type: 3}
      propertyPath: InitialModule.startColor.maxGradient.key3.r
      value: 0.9576124
      objectReference: {fileID: 0}
    - target: {fileID: 4426767822717539129, guid: 463381dde7fab98449c67dc2c9598cab,
        type: 3}
      propertyPath: InitialModule.startColor.maxGradient.key3.g
      value: 1
      objectReference: {fileID: 0}
    - target: {fileID: 4426767822717539129, guid: 463381dde7fab98449c67dc2c9598cab,
        type: 3}
      propertyPath: InitialModule.startColor.maxGradient.key3.b
      value: 0
      objectReference: {fileID: 0}
    - target: {fileID: 4426767822717539129, guid: 463381dde7fab98449c67dc2c9598cab,
        type: 3}
      propertyPath: InitialModule.startColor.maxGradient.ctime3
      value: 35273
      objectReference: {fileID: 0}
    - target: {fileID: 4426767822717539129, guid: 463381dde7fab98449c67dc2c9598cab,
        type: 3}
      propertyPath: InitialModule.startColor.maxGradient.key4.r
      value: 1
      objectReference: {fileID: 0}
    - target: {fileID: 4426767822717539129, guid: 463381dde7fab98449c67dc2c9598cab,
        type: 3}
      propertyPath: InitialModule.startColor.maxGradient.key4.g
      value: 0.4470588
      objectReference: {fileID: 0}
    - target: {fileID: 4426767822717539129, guid: 463381dde7fab98449c67dc2c9598cab,
        type: 3}
      propertyPath: InitialModule.startColor.maxGradient.key4.b
      value: 0.7484914
      objectReference: {fileID: 0}
    - target: {fileID: 4426767822717539129, guid: 463381dde7fab98449c67dc2c9598cab,
        type: 3}
      propertyPath: InitialModule.startColor.maxGradient.ctime4
      value: 50693
      objectReference: {fileID: 0}
    - target: {fileID: 4426767822717539129, guid: 463381dde7fab98449c67dc2c9598cab,
        type: 3}
      propertyPath: InitialModule.startColor.maxGradient.key5.r
      value: 0.7928543
      objectReference: {fileID: 0}
    - target: {fileID: 4426767822717539129, guid: 463381dde7fab98449c67dc2c9598cab,
        type: 3}
      propertyPath: InitialModule.startColor.maxGradient.key5.g
      value: 0
      objectReference: {fileID: 0}
    - target: {fileID: 4426767822717539129, guid: 463381dde7fab98449c67dc2c9598cab,
        type: 3}
      propertyPath: InitialModule.startColor.maxGradient.key5.b
      value: 1
      objectReference: {fileID: 0}
    - target: {fileID: 4426767822717539129, guid: 463381dde7fab98449c67dc2c9598cab,
        type: 3}
      propertyPath: InitialModule.startColor.maxGradient.ctime5
      value: 65535
      objectReference: {fileID: 0}
    - target: {fileID: 4426767822717539129, guid: 463381dde7fab98449c67dc2c9598cab,
        type: 3}
      propertyPath: InitialModule.startColor.maxGradient.key6.r
      value: 1
      objectReference: {fileID: 0}
    - target: {fileID: 4426767822717539129, guid: 463381dde7fab98449c67dc2c9598cab,
        type: 3}
      propertyPath: InitialModule.startColor.maxGradient.key6.g
      value: 1
      objectReference: {fileID: 0}
    - target: {fileID: 4426767822717539129, guid: 463381dde7fab98449c67dc2c9598cab,
        type: 3}
      propertyPath: InitialModule.startColor.maxGradient.key6.b
      value: 1
      objectReference: {fileID: 0}
    - target: {fileID: 4426767822717539129, guid: 463381dde7fab98449c67dc2c9598cab,
        type: 3}
      propertyPath: InitialModule.startColor.maxGradient.ctime6
      value: 65535
      objectReference: {fileID: 0}
    - target: {fileID: 4426767822717539129, guid: 463381dde7fab98449c67dc2c9598cab,
        type: 3}
      propertyPath: InitialModule.startSize.scalar
      value: 0.5
      objectReference: {fileID: 0}
    - target: {fileID: 4426767822717539129, guid: 463381dde7fab98449c67dc2c9598cab,
        type: 3}
      propertyPath: InitialModule.startLifetime.scalar
      value: 0.8
      objectReference: {fileID: 0}
    - target: {fileID: 4426767822717539129, guid: 463381dde7fab98449c67dc2c9598cab,
        type: 3}
      propertyPath: InitialModule.startLifetime.minScalar
      value: 0.4
      objectReference: {fileID: 0}
    - target: {fileID: 4426767822717539129, guid: 463381dde7fab98449c67dc2c9598cab,
        type: 3}
      propertyPath: useRigidbodyForVelocity
      value: 0
      objectReference: {fileID: 0}
    m_RemovedComponents: []
  m_SourcePrefab: {fileID: 100100000, guid: 463381dde7fab98449c67dc2c9598cab, type: 3}
--- !u!1001 &2751399270534965718
PrefabInstance:
  m_ObjectHideFlags: 0
  serializedVersion: 2
  m_Modification:
    m_TransformParent: {fileID: 8485626456763342594}
    m_Modifications:
    - target: {fileID: 2874720070222816264, guid: b4022ee7e4ee0a1478be8432681eb5d8,
        type: 3}
      propertyPath: m_Name
      value: TrailParticles (1)
      objectReference: {fileID: 0}
    - target: {fileID: 2878179489376982442, guid: b4022ee7e4ee0a1478be8432681eb5d8,
        type: 3}
      propertyPath: m_LocalPosition.x
      value: 0
      objectReference: {fileID: 0}
    - target: {fileID: 2878179489376982442, guid: b4022ee7e4ee0a1478be8432681eb5d8,
        type: 3}
      propertyPath: m_LocalPosition.y
      value: 0
      objectReference: {fileID: 0}
    - target: {fileID: 2878179489376982442, guid: b4022ee7e4ee0a1478be8432681eb5d8,
        type: 3}
      propertyPath: m_LocalPosition.z
      value: 0
      objectReference: {fileID: 0}
    - target: {fileID: 2878179489376982442, guid: b4022ee7e4ee0a1478be8432681eb5d8,
        type: 3}
      propertyPath: m_LocalRotation.x
      value: -0
      objectReference: {fileID: 0}
    - target: {fileID: 2878179489376982442, guid: b4022ee7e4ee0a1478be8432681eb5d8,
        type: 3}
      propertyPath: m_LocalRotation.y
      value: -0
      objectReference: {fileID: 0}
    - target: {fileID: 2878179489376982442, guid: b4022ee7e4ee0a1478be8432681eb5d8,
        type: 3}
      propertyPath: m_LocalRotation.z
      value: -0
      objectReference: {fileID: 0}
    - target: {fileID: 2878179489376982442, guid: b4022ee7e4ee0a1478be8432681eb5d8,
        type: 3}
      propertyPath: m_LocalRotation.w
      value: 1
      objectReference: {fileID: 0}
    - target: {fileID: 2878179489376982442, guid: b4022ee7e4ee0a1478be8432681eb5d8,
        type: 3}
      propertyPath: m_RootOrder
      value: 2
      objectReference: {fileID: 0}
    - target: {fileID: 2878179489376982442, guid: b4022ee7e4ee0a1478be8432681eb5d8,
        type: 3}
      propertyPath: m_LocalEulerAnglesHint.x
      value: 0
      objectReference: {fileID: 0}
    - target: {fileID: 2878179489376982442, guid: b4022ee7e4ee0a1478be8432681eb5d8,
        type: 3}
      propertyPath: m_LocalEulerAnglesHint.y
      value: 0
      objectReference: {fileID: 0}
    - target: {fileID: 2878179489376982442, guid: b4022ee7e4ee0a1478be8432681eb5d8,
        type: 3}
      propertyPath: m_LocalEulerAnglesHint.z
      value: 0
      objectReference: {fileID: 0}
    - target: {fileID: 2676656659807953580, guid: b4022ee7e4ee0a1478be8432681eb5d8,
        type: 3}
      propertyPath: m_Materials.Array.data[1]
      value: 
      objectReference: {fileID: 2100000, guid: 8df9b891d006cc649910b9721fa83412, type: 2}
    - target: {fileID: 2675292279551139432, guid: b4022ee7e4ee0a1478be8432681eb5d8,
        type: 3}
      propertyPath: SizeModule.curve.maxCurve.m_Curve.Array.size
      value: 3
      objectReference: {fileID: 0}
    - target: {fileID: 2675292279551139432, guid: b4022ee7e4ee0a1478be8432681eb5d8,
        type: 3}
      propertyPath: InitialModule.startColor.minMaxState
      value: 1
      objectReference: {fileID: 0}
    - target: {fileID: 2675292279551139432, guid: b4022ee7e4ee0a1478be8432681eb5d8,
        type: 3}
      propertyPath: InitialModule.startColor.maxGradient.ctime0
      value: 0
      objectReference: {fileID: 0}
    - target: {fileID: 2675292279551139432, guid: b4022ee7e4ee0a1478be8432681eb5d8,
        type: 3}
      propertyPath: InitialModule.startColor.maxGradient.key0.r
      value: 1
      objectReference: {fileID: 0}
    - target: {fileID: 2675292279551139432, guid: b4022ee7e4ee0a1478be8432681eb5d8,
        type: 3}
      propertyPath: InitialModule.startColor.maxGradient.key0.g
      value: 0
      objectReference: {fileID: 0}
    - target: {fileID: 2675292279551139432, guid: b4022ee7e4ee0a1478be8432681eb5d8,
        type: 3}
      propertyPath: InitialModule.startColor.maxGradient.key0.b
      value: 0
      objectReference: {fileID: 0}
    - target: {fileID: 2675292279551139432, guid: b4022ee7e4ee0a1478be8432681eb5d8,
        type: 3}
      propertyPath: InitialModule.startColor.maxGradient.key1.g
      value: 0.98492706
      objectReference: {fileID: 0}
    - target: {fileID: 2675292279551139432, guid: b4022ee7e4ee0a1478be8432681eb5d8,
        type: 3}
      propertyPath: InitialModule.startColor.maxGradient.key1.b
      value: 0
      objectReference: {fileID: 0}
    - target: {fileID: 2675292279551139432, guid: b4022ee7e4ee0a1478be8432681eb5d8,
        type: 3}
      propertyPath: InitialModule.startColor.maxGradient.key2.r
      value: 0
      objectReference: {fileID: 0}
    - target: {fileID: 2675292279551139432, guid: b4022ee7e4ee0a1478be8432681eb5d8,
        type: 3}
      propertyPath: InitialModule.startColor.maxGradient.key2.g
      value: 0.8396226
      objectReference: {fileID: 0}
    - target: {fileID: 2675292279551139432, guid: b4022ee7e4ee0a1478be8432681eb5d8,
        type: 3}
      propertyPath: InitialModule.startColor.maxGradient.key2.b
      value: 0.016463138
      objectReference: {fileID: 0}
    - target: {fileID: 2675292279551139432, guid: b4022ee7e4ee0a1478be8432681eb5d8,
        type: 3}
      propertyPath: InitialModule.startColor.maxGradient.ctime1
      value: 11141
      objectReference: {fileID: 0}
    - target: {fileID: 2675292279551139432, guid: b4022ee7e4ee0a1478be8432681eb5d8,
        type: 3}
      propertyPath: InitialModule.startColor.maxGradient.ctime2
      value: 22282
      objectReference: {fileID: 0}
    - target: {fileID: 2675292279551139432, guid: b4022ee7e4ee0a1478be8432681eb5d8,
        type: 3}
      propertyPath: InitialModule.startColor.maxGradient.m_NumColorKeys
      value: 7
      objectReference: {fileID: 0}
    - target: {fileID: 2675292279551139432, guid: b4022ee7e4ee0a1478be8432681eb5d8,
        type: 3}
      propertyPath: InitialModule.startColor.maxGradient.key3.r
      value: 0
      objectReference: {fileID: 0}
    - target: {fileID: 2675292279551139432, guid: b4022ee7e4ee0a1478be8432681eb5d8,
        type: 3}
      propertyPath: InitialModule.startColor.maxGradient.key3.g
      value: 1
      objectReference: {fileID: 0}
    - target: {fileID: 2675292279551139432, guid: b4022ee7e4ee0a1478be8432681eb5d8,
        type: 3}
      propertyPath: InitialModule.startColor.maxGradient.key3.b
      value: 0.9864538
      objectReference: {fileID: 0}
    - target: {fileID: 2675292279551139432, guid: b4022ee7e4ee0a1478be8432681eb5d8,
        type: 3}
      propertyPath: InitialModule.startColor.maxGradient.ctime3
      value: 33423
      objectReference: {fileID: 0}
    - target: {fileID: 2675292279551139432, guid: b4022ee7e4ee0a1478be8432681eb5d8,
        type: 3}
      propertyPath: InitialModule.startColor.maxGradient.key4.r
      value: 0.19157171
      objectReference: {fileID: 0}
    - target: {fileID: 2675292279551139432, guid: b4022ee7e4ee0a1478be8432681eb5d8,
        type: 3}
      propertyPath: InitialModule.startColor.maxGradient.key4.g
      value: 0.41404083
      objectReference: {fileID: 0}
    - target: {fileID: 2675292279551139432, guid: b4022ee7e4ee0a1478be8432681eb5d8,
        type: 3}
      propertyPath: InitialModule.startColor.maxGradient.key4.b
      value: 0.990566
      objectReference: {fileID: 0}
    - target: {fileID: 2675292279551139432, guid: b4022ee7e4ee0a1478be8432681eb5d8,
        type: 3}
      propertyPath: InitialModule.startColor.maxGradient.ctime4
      value: 44564
      objectReference: {fileID: 0}
    - target: {fileID: 2675292279551139432, guid: b4022ee7e4ee0a1478be8432681eb5d8,
        type: 3}
      propertyPath: InitialModule.startColor.maxGradient.key5.r
      value: 0.8185929
      objectReference: {fileID: 0}
    - target: {fileID: 2675292279551139432, guid: b4022ee7e4ee0a1478be8432681eb5d8,
        type: 3}
      propertyPath: InitialModule.startColor.maxGradient.key5.g
      value: 0.36320752
      objectReference: {fileID: 0}
    - target: {fileID: 2675292279551139432, guid: b4022ee7e4ee0a1478be8432681eb5d8,
        type: 3}
      propertyPath: InitialModule.startColor.maxGradient.key5.b
      value: 1
      objectReference: {fileID: 0}
    - target: {fileID: 2675292279551139432, guid: b4022ee7e4ee0a1478be8432681eb5d8,
        type: 3}
      propertyPath: InitialModule.startColor.maxGradient.ctime5
      value: 56360
      objectReference: {fileID: 0}
    - target: {fileID: 2675292279551139432, guid: b4022ee7e4ee0a1478be8432681eb5d8,
        type: 3}
      propertyPath: InitialModule.startColor.maxGradient.key1.a
      value: 1
      objectReference: {fileID: 0}
    - target: {fileID: 2675292279551139432, guid: b4022ee7e4ee0a1478be8432681eb5d8,
        type: 3}
      propertyPath: InitialModule.startColor.maxGradient.atime1
      value: 65535
      objectReference: {fileID: 0}
    - target: {fileID: 2675292279551139432, guid: b4022ee7e4ee0a1478be8432681eb5d8,
        type: 3}
      propertyPath: InitialModule.startColor.maxGradient.atime2
      value: 65535
      objectReference: {fileID: 0}
    - target: {fileID: 2675292279551139432, guid: b4022ee7e4ee0a1478be8432681eb5d8,
        type: 3}
      propertyPath: InitialModule.startColor.maxGradient.m_NumAlphaKeys
      value: 2
      objectReference: {fileID: 0}
    - target: {fileID: 2675292279551139432, guid: b4022ee7e4ee0a1478be8432681eb5d8,
        type: 3}
      propertyPath: InitialModule.size3D
      value: 0
      objectReference: {fileID: 0}
    - target: {fileID: 2675292279551139432, guid: b4022ee7e4ee0a1478be8432681eb5d8,
        type: 3}
      propertyPath: InitialModule.startSize.scalar
      value: 2
      objectReference: {fileID: 0}
    - target: {fileID: 2675292279551139432, guid: b4022ee7e4ee0a1478be8432681eb5d8,
        type: 3}
      propertyPath: InitialModule.startColor.maxGradient.key1.r
      value: 1
      objectReference: {fileID: 0}
    - target: {fileID: 2675292279551139432, guid: b4022ee7e4ee0a1478be8432681eb5d8,
        type: 3}
      propertyPath: InitialModule.startColor.maxGradient.key6.r
      value: 1
      objectReference: {fileID: 0}
    - target: {fileID: 2675292279551139432, guid: b4022ee7e4ee0a1478be8432681eb5d8,
        type: 3}
      propertyPath: InitialModule.startColor.maxGradient.key6.g
      value: 0.07746505
      objectReference: {fileID: 0}
    - target: {fileID: 2675292279551139432, guid: b4022ee7e4ee0a1478be8432681eb5d8,
        type: 3}
      propertyPath: InitialModule.startColor.maxGradient.key6.b
      value: 0
      objectReference: {fileID: 0}
    - target: {fileID: 2675292279551139432, guid: b4022ee7e4ee0a1478be8432681eb5d8,
        type: 3}
      propertyPath: InitialModule.startColor.maxGradient.ctime6
      value: 65535
      objectReference: {fileID: 0}
    - target: {fileID: 2675292279551139432, guid: b4022ee7e4ee0a1478be8432681eb5d8,
        type: 3}
      propertyPath: ColorModule.enabled
      value: 0
      objectReference: {fileID: 0}
    - target: {fileID: 2675292279551139432, guid: b4022ee7e4ee0a1478be8432681eb5d8,
        type: 3}
      propertyPath: ColorModule.gradient.maxGradient.m_Mode
      value: 0
      objectReference: {fileID: 0}
    - target: {fileID: 2675292279551139432, guid: b4022ee7e4ee0a1478be8432681eb5d8,
        type: 3}
      propertyPath: ColorModule.gradient.maxGradient.key0.r
      value: 1
      objectReference: {fileID: 0}
    - target: {fileID: 2675292279551139432, guid: b4022ee7e4ee0a1478be8432681eb5d8,
        type: 3}
      propertyPath: ColorModule.gradient.maxGradient.key0.g
      value: 1
      objectReference: {fileID: 0}
    - target: {fileID: 2675292279551139432, guid: b4022ee7e4ee0a1478be8432681eb5d8,
        type: 3}
      propertyPath: ColorModule.gradient.maxGradient.key0.b
      value: 1
      objectReference: {fileID: 0}
    - target: {fileID: 2675292279551139432, guid: b4022ee7e4ee0a1478be8432681eb5d8,
        type: 3}
      propertyPath: ColorModule.gradient.maxGradient.key1.r
      value: 1
      objectReference: {fileID: 0}
    - target: {fileID: 2675292279551139432, guid: b4022ee7e4ee0a1478be8432681eb5d8,
        type: 3}
      propertyPath: ColorModule.gradient.maxGradient.key1.g
      value: 1
      objectReference: {fileID: 0}
    - target: {fileID: 2675292279551139432, guid: b4022ee7e4ee0a1478be8432681eb5d8,
        type: 3}
      propertyPath: ColorModule.gradient.maxGradient.key1.b
      value: 1
      objectReference: {fileID: 0}
    - target: {fileID: 2675292279551139432, guid: b4022ee7e4ee0a1478be8432681eb5d8,
        type: 3}
      propertyPath: SizeModule.curve.maxCurve.m_Curve.Array.data[1].value
      value: 1
      objectReference: {fileID: 0}
    - target: {fileID: 2675292279551139432, guid: b4022ee7e4ee0a1478be8432681eb5d8,
        type: 3}
      propertyPath: SizeModule.curve.maxCurve.m_Curve.Array.data[1].inSlope
      value: 0
      objectReference: {fileID: 0}
    - target: {fileID: 2675292279551139432, guid: b4022ee7e4ee0a1478be8432681eb5d8,
        type: 3}
      propertyPath: SizeModule.curve.maxCurve.m_Curve.Array.data[1].outSlope
      value: 0
      objectReference: {fileID: 0}
    - target: {fileID: 2675292279551139432, guid: b4022ee7e4ee0a1478be8432681eb5d8,
        type: 3}
      propertyPath: SizeModule.curve.maxCurve.m_Curve.Array.data[1].inWeight
      value: 0.33333334
      objectReference: {fileID: 0}
    - target: {fileID: 2675292279551139432, guid: b4022ee7e4ee0a1478be8432681eb5d8,
        type: 3}
      propertyPath: SizeModule.curve.maxCurve.m_Curve.Array.data[0].inSlope
      value: 17.295795
      objectReference: {fileID: 0}
    - target: {fileID: 2675292279551139432, guid: b4022ee7e4ee0a1478be8432681eb5d8,
        type: 3}
      propertyPath: SizeModule.curve.maxCurve.m_Curve.Array.data[0].outSlope
      value: 17.295795
      objectReference: {fileID: 0}
    - target: {fileID: 2675292279551139432, guid: b4022ee7e4ee0a1478be8432681eb5d8,
        type: 3}
      propertyPath: SizeModule.curve.maxCurve.m_Curve.Array.data[0].tangentMode
      value: 34
      objectReference: {fileID: 0}
    - target: {fileID: 2675292279551139432, guid: b4022ee7e4ee0a1478be8432681eb5d8,
        type: 3}
      propertyPath: SizeModule.curve.maxCurve.m_Curve.Array.data[1].tangentMode
      value: 0
      objectReference: {fileID: 0}
    - target: {fileID: 2675292279551139432, guid: b4022ee7e4ee0a1478be8432681eb5d8,
        type: 3}
      propertyPath: SizeModule.curve.maxCurve.m_Curve.Array.data[0].outWeight
      value: 0.33333334
      objectReference: {fileID: 0}
    - target: {fileID: 2675292279551139432, guid: b4022ee7e4ee0a1478be8432681eb5d8,
        type: 3}
      propertyPath: SizeModule.curve.maxCurve.m_Curve.Array.data[1].time
      value: 0.05781752
      objectReference: {fileID: 0}
    - target: {fileID: 2675292279551139432, guid: b4022ee7e4ee0a1478be8432681eb5d8,
        type: 3}
      propertyPath: SizeModule.curve.maxCurve.m_Curve.Array.data[1].outWeight
      value: 0.33333334
      objectReference: {fileID: 0}
    - target: {fileID: 2675292279551139432, guid: b4022ee7e4ee0a1478be8432681eb5d8,
        type: 3}
      propertyPath: SizeModule.curve.maxCurve.m_Curve.Array.data[2].time
      value: 1
      objectReference: {fileID: 0}
    - target: {fileID: 2675292279551139432, guid: b4022ee7e4ee0a1478be8432681eb5d8,
        type: 3}
      propertyPath: SizeModule.curve.maxCurve.m_Curve.Array.data[2].inSlope
      value: -1.0613655
      objectReference: {fileID: 0}
    - target: {fileID: 2675292279551139432, guid: b4022ee7e4ee0a1478be8432681eb5d8,
        type: 3}
      propertyPath: SizeModule.curve.maxCurve.m_Curve.Array.data[2].outSlope
      value: -1.0613655
      objectReference: {fileID: 0}
    - target: {fileID: 2675292279551139432, guid: b4022ee7e4ee0a1478be8432681eb5d8,
        type: 3}
      propertyPath: SizeModule.curve.maxCurve.m_Curve.Array.data[2].tangentMode
      value: 34
      objectReference: {fileID: 0}
    - target: {fileID: 2675292279551139432, guid: b4022ee7e4ee0a1478be8432681eb5d8,
        type: 3}
      propertyPath: SizeModule.curve.maxCurve.m_Curve.Array.data[2].inWeight
      value: 0.33333334
      objectReference: {fileID: 0}
    - target: {fileID: 2675292279551139432, guid: b4022ee7e4ee0a1478be8432681eb5d8,
        type: 3}
      propertyPath: SizeModule.curve.maxCurve.m_Curve.Array.data[0].value
      value: 0
      objectReference: {fileID: 0}
    - target: {fileID: 2675292279551139432, guid: b4022ee7e4ee0a1478be8432681eb5d8,
        type: 3}
      propertyPath: SizeModule.curve.maxCurve.m_Curve.Array.data[2].value
      value: 0
      objectReference: {fileID: 0}
    - target: {fileID: 2675292279551139432, guid: b4022ee7e4ee0a1478be8432681eb5d8,
        type: 3}
      propertyPath: SizeModule.curve.maxCurve.m_Curve.Array.data[2].outWeight
      value: 0
      objectReference: {fileID: 0}
    - target: {fileID: 2675292279551139432, guid: b4022ee7e4ee0a1478be8432681eb5d8,
        type: 3}
      propertyPath: SizeModule.curve.maxCurve.m_Curve.Array.data[3].time
      value: 1
      objectReference: {fileID: 0}
    - target: {fileID: 2675292279551139432, guid: b4022ee7e4ee0a1478be8432681eb5d8,
        type: 3}
      propertyPath: SizeModule.curve.maxCurve.m_Curve.Array.data[3].inSlope
      value: -1.1239263
      objectReference: {fileID: 0}
    - target: {fileID: 2675292279551139432, guid: b4022ee7e4ee0a1478be8432681eb5d8,
        type: 3}
      propertyPath: SizeModule.curve.maxCurve.m_Curve.Array.data[3].outSlope
      value: -1.1239263
      objectReference: {fileID: 0}
    - target: {fileID: 2675292279551139432, guid: b4022ee7e4ee0a1478be8432681eb5d8,
        type: 3}
      propertyPath: SizeModule.curve.maxCurve.m_Curve.Array.data[3].tangentMode
      value: 34
      objectReference: {fileID: 0}
    - target: {fileID: 2675292279551139432, guid: b4022ee7e4ee0a1478be8432681eb5d8,
        type: 3}
      propertyPath: SizeModule.curve.maxCurve.m_Curve.Array.data[3].inWeight
      value: 0.33333334
      objectReference: {fileID: 0}
    - target: {fileID: 2675292279551139432, guid: b4022ee7e4ee0a1478be8432681eb5d8,
        type: 3}
      propertyPath: InitialModule.startColor.maxGradient.key7.r
      value: 0.8185929
      objectReference: {fileID: 0}
    - target: {fileID: 2675292279551139432, guid: b4022ee7e4ee0a1478be8432681eb5d8,
        type: 3}
      propertyPath: InitialModule.startColor.maxGradient.key7.g
      value: 0.36320752
      objectReference: {fileID: 0}
    - target: {fileID: 2675292279551139432, guid: b4022ee7e4ee0a1478be8432681eb5d8,
        type: 3}
      propertyPath: InitialModule.startColor.maxGradient.key7.b
      value: 1
      objectReference: {fileID: 0}
    - target: {fileID: 2675292279551139432, guid: b4022ee7e4ee0a1478be8432681eb5d8,
        type: 3}
      propertyPath: InitialModule.startColor.maxGradient.ctime7
      value: 63993
      objectReference: {fileID: 0}
    - target: {fileID: 2675292279551139432, guid: b4022ee7e4ee0a1478be8432681eb5d8,
        type: 3}
      propertyPath: InitialModule.startLifetime.scalar
      value: 0.42
      objectReference: {fileID: 0}
    - target: {fileID: 2675292279551139432, guid: b4022ee7e4ee0a1478be8432681eb5d8,
        type: 3}
      propertyPath: useRigidbodyForVelocity
      value: 0
      objectReference: {fileID: 0}
    m_RemovedComponents: []
  m_SourcePrefab: {fileID: 100100000, guid: b4022ee7e4ee0a1478be8432681eb5d8, type: 3}
--- !u!1001 &4162160664036237454
PrefabInstance:
  m_ObjectHideFlags: 0
  serializedVersion: 2
  m_Modification:
    m_TransformParent: {fileID: 0}
    m_Modifications:
    - target: {fileID: 2757954375771916137, guid: eb606da020f66e74b902060eefe58d92,
        type: 3}
      propertyPath: m_Name
      value: Trail_RainBow
      objectReference: {fileID: 0}
    - target: {fileID: 5476930612909768588, guid: eb606da020f66e74b902060eefe58d92,
        type: 3}
      propertyPath: m_LocalPosition.x
      value: 0
      objectReference: {fileID: 0}
    - target: {fileID: 5476930612909768588, guid: eb606da020f66e74b902060eefe58d92,
        type: 3}
      propertyPath: m_LocalPosition.y
      value: 0
      objectReference: {fileID: 0}
    - target: {fileID: 5476930612909768588, guid: eb606da020f66e74b902060eefe58d92,
        type: 3}
      propertyPath: m_LocalPosition.z
      value: 0
      objectReference: {fileID: 0}
    - target: {fileID: 5476930612909768588, guid: eb606da020f66e74b902060eefe58d92,
        type: 3}
      propertyPath: m_LocalRotation.x
      value: -0
      objectReference: {fileID: 0}
    - target: {fileID: 5476930612909768588, guid: eb606da020f66e74b902060eefe58d92,
        type: 3}
      propertyPath: m_LocalRotation.y
      value: -0
      objectReference: {fileID: 0}
    - target: {fileID: 5476930612909768588, guid: eb606da020f66e74b902060eefe58d92,
        type: 3}
      propertyPath: m_LocalRotation.z
      value: -0
      objectReference: {fileID: 0}
    - target: {fileID: 5476930612909768588, guid: eb606da020f66e74b902060eefe58d92,
        type: 3}
      propertyPath: m_LocalRotation.w
      value: 1
      objectReference: {fileID: 0}
    - target: {fileID: 5476930612909768588, guid: eb606da020f66e74b902060eefe58d92,
        type: 3}
      propertyPath: m_RootOrder
      value: 0
      objectReference: {fileID: 0}
    - target: {fileID: 5476930612909768588, guid: eb606da020f66e74b902060eefe58d92,
        type: 3}
      propertyPath: m_LocalEulerAnglesHint.x
      value: 0
      objectReference: {fileID: 0}
    - target: {fileID: 5476930612909768588, guid: eb606da020f66e74b902060eefe58d92,
        type: 3}
      propertyPath: m_LocalEulerAnglesHint.y
      value: 0
      objectReference: {fileID: 0}
    - target: {fileID: 5476930612909768588, guid: eb606da020f66e74b902060eefe58d92,
        type: 3}
      propertyPath: m_LocalEulerAnglesHint.z
      value: 0
      objectReference: {fileID: 0}
    - target: {fileID: 6882212508728701312, guid: eb606da020f66e74b902060eefe58d92,
        type: 3}
      propertyPath: m_IsActive
      value: 0
      objectReference: {fileID: 0}
    - target: {fileID: 7969616227342140701, guid: eb606da020f66e74b902060eefe58d92,
        type: 3}
      propertyPath: TrailModule.colorOverLifetime.maxGradient.key3.a
      value: 0
      objectReference: {fileID: 0}
    - target: {fileID: 7969616227342140701, guid: eb606da020f66e74b902060eefe58d92,
        type: 3}
      propertyPath: TrailModule.colorOverLifetime.maxGradient.atime3
      value: 65535
      objectReference: {fileID: 0}
    - target: {fileID: 7969616227342140701, guid: eb606da020f66e74b902060eefe58d92,
        type: 3}
      propertyPath: TrailModule.colorOverLifetime.maxGradient.m_NumAlphaKeys
      value: 2
      objectReference: {fileID: 0}
    - target: {fileID: 7969616227342140701, guid: eb606da020f66e74b902060eefe58d92,
        type: 3}
      propertyPath: TrailModule.colorOverLifetime.maxGradient.atime1
      value: 23901
      objectReference: {fileID: 0}
    - target: {fileID: 7969616227342140701, guid: eb606da020f66e74b902060eefe58d92,
        type: 3}
      propertyPath: InitialModule.startColor.maxColor.a
      value: 1
      objectReference: {fileID: 0}
    - target: {fileID: 7969616227342140701, guid: eb606da020f66e74b902060eefe58d92,
        type: 3}
      propertyPath: TrailModule.colorOverLifetime.maxGradient.atime0
      value: 3662
      objectReference: {fileID: 0}
    - target: {fileID: 7969616227342140701, guid: eb606da020f66e74b902060eefe58d92,
        type: 3}
      propertyPath: TrailModule.colorOverLifetime.maxGradient.key0.a
      value: 1
      objectReference: {fileID: 0}
    - target: {fileID: 7969616227342140701, guid: eb606da020f66e74b902060eefe58d92,
        type: 3}
      propertyPath: TrailModule.colorOverLifetime.maxGradient.key1.a
      value: 0.9352941
      objectReference: {fileID: 0}
    - target: {fileID: 7969616227342140701, guid: eb606da020f66e74b902060eefe58d92,
        type: 3}
      propertyPath: TrailModule.textureMode
      value: 0
      objectReference: {fileID: 0}
    - target: {fileID: 7969616227342140701, guid: eb606da020f66e74b902060eefe58d92,
        type: 3}
      propertyPath: TrailModule.sizeAffectsWidth
      value: 0
      objectReference: {fileID: 0}
    - target: {fileID: 7969616227342140701, guid: eb606da020f66e74b902060eefe58d92,
        type: 3}
      propertyPath: TrailModule.widthOverTrail.scalar
      value: 1
      objectReference: {fileID: 0}
    - target: {fileID: 7969616227342140701, guid: eb606da020f66e74b902060eefe58d92,
        type: 3}
      propertyPath: TrailModule.inheritParticleColor
      value: 0
      objectReference: {fileID: 0}
    - target: {fileID: 7969616227342140701, guid: eb606da020f66e74b902060eefe58d92,
        type: 3}
      propertyPath: TrailModule.attachRibbonsToTransform
      value: 0
      objectReference: {fileID: 0}
    - target: {fileID: 7969616227342140701, guid: eb606da020f66e74b902060eefe58d92,
        type: 3}
      propertyPath: TrailModule.ribbonCount
      value: 2
      objectReference: {fileID: 0}
    - target: {fileID: 7969616227342140701, guid: eb606da020f66e74b902060eefe58d92,
        type: 3}
      propertyPath: EmissionModule.rateOverDistance.scalar
      value: 10
      objectReference: {fileID: 0}
    - target: {fileID: 7969616227342140701, guid: eb606da020f66e74b902060eefe58d92,
        type: 3}
      propertyPath: TrailModule.mode
      value: 1
      objectReference: {fileID: 0}
    - target: {fileID: 7969616227342140701, guid: eb606da020f66e74b902060eefe58d92,
        type: 3}
      propertyPath: useUnscaledTime
      value: 0
      objectReference: {fileID: 0}
    - target: {fileID: 7969616227342140701, guid: eb606da020f66e74b902060eefe58d92,
        type: 3}
      propertyPath: scalingMode
      value: 1
      objectReference: {fileID: 0}
    - target: {fileID: 7969616227342140701, guid: eb606da020f66e74b902060eefe58d92,
        type: 3}
      propertyPath: ringBufferMode
      value: 0
      objectReference: {fileID: 0}
    - target: {fileID: 7969616227342140701, guid: eb606da020f66e74b902060eefe58d92,
        type: 3}
      propertyPath: cullingMode
      value: 3
      objectReference: {fileID: 0}
    - target: {fileID: 7969616227342140701, guid: eb606da020f66e74b902060eefe58d92,
        type: 3}
      propertyPath: InitialModule.startLifetime.scalar
      value: 0.4
      objectReference: {fileID: 0}
    - target: {fileID: 7969616227342140701, guid: eb606da020f66e74b902060eefe58d92,
        type: 3}
      propertyPath: InitialModule.startSize.scalar
      value: 2.2
      objectReference: {fileID: 0}
    m_RemovedComponents: []
  m_SourcePrefab: {fileID: 100100000, guid: eb606da020f66e74b902060eefe58d92, type: 3}
--- !u!4 &8485626456763342594 stripped
Transform:
  m_CorrespondingSourceObject: {fileID: 5476930612909768588, guid: eb606da020f66e74b902060eefe58d92,
    type: 3}
  m_PrefabInstance: {fileID: 4162160664036237454}
  m_PrefabAsset: {fileID: 0}
--- !u!1001 &6538547217435065036
PrefabInstance:
  m_ObjectHideFlags: 0
  serializedVersion: 2
  m_Modification:
    m_TransformParent: {fileID: 8485626456763342594}
    m_Modifications:
    - target: {fileID: 6662451318479996120, guid: 463381dde7fab98449c67dc2c9598cab,
        type: 3}
      propertyPath: m_Name
      value: SparkleTrail
      objectReference: {fileID: 0}
    - target: {fileID: 2259442885194978396, guid: 463381dde7fab98449c67dc2c9598cab,
        type: 3}
      propertyPath: m_LocalPosition.x
      value: 0
      objectReference: {fileID: 0}
    - target: {fileID: 2259442885194978396, guid: 463381dde7fab98449c67dc2c9598cab,
        type: 3}
      propertyPath: m_LocalPosition.y
      value: 0
      objectReference: {fileID: 0}
    - target: {fileID: 2259442885194978396, guid: 463381dde7fab98449c67dc2c9598cab,
        type: 3}
      propertyPath: m_LocalPosition.z
      value: 0
      objectReference: {fileID: 0}
    - target: {fileID: 2259442885194978396, guid: 463381dde7fab98449c67dc2c9598cab,
        type: 3}
      propertyPath: m_LocalRotation.x
      value: -0
      objectReference: {fileID: 0}
    - target: {fileID: 2259442885194978396, guid: 463381dde7fab98449c67dc2c9598cab,
        type: 3}
      propertyPath: m_LocalRotation.y
      value: -0
      objectReference: {fileID: 0}
    - target: {fileID: 2259442885194978396, guid: 463381dde7fab98449c67dc2c9598cab,
        type: 3}
      propertyPath: m_LocalRotation.z
      value: -0
      objectReference: {fileID: 0}
    - target: {fileID: 2259442885194978396, guid: 463381dde7fab98449c67dc2c9598cab,
        type: 3}
      propertyPath: m_LocalRotation.w
      value: 1
      objectReference: {fileID: 0}
    - target: {fileID: 2259442885194978396, guid: 463381dde7fab98449c67dc2c9598cab,
        type: 3}
      propertyPath: m_RootOrder
      value: 0
      objectReference: {fileID: 0}
    - target: {fileID: 2259442885194978396, guid: 463381dde7fab98449c67dc2c9598cab,
        type: 3}
      propertyPath: m_LocalEulerAnglesHint.x
      value: 0
      objectReference: {fileID: 0}
    - target: {fileID: 2259442885194978396, guid: 463381dde7fab98449c67dc2c9598cab,
        type: 3}
      propertyPath: m_LocalEulerAnglesHint.y
      value: 0
      objectReference: {fileID: 0}
    - target: {fileID: 2259442885194978396, guid: 463381dde7fab98449c67dc2c9598cab,
        type: 3}
      propertyPath: m_LocalEulerAnglesHint.z
      value: 0
      objectReference: {fileID: 0}
    - target: {fileID: 4426767822717539129, guid: 463381dde7fab98449c67dc2c9598cab,
        type: 3}
      propertyPath: InitialModule.startSize.minScalar
      value: 0.3
      objectReference: {fileID: 0}
    - target: {fileID: 4426767822717539129, guid: 463381dde7fab98449c67dc2c9598cab,
        type: 3}
      propertyPath: InitialModule.startColor.minMaxState
      value: 4
      objectReference: {fileID: 0}
    - target: {fileID: 4426767822717539129, guid: 463381dde7fab98449c67dc2c9598cab,
        type: 3}
      propertyPath: InitialModule.startColor.maxGradient.key2.r
      value: 0
      objectReference: {fileID: 0}
    - target: {fileID: 4426767822717539129, guid: 463381dde7fab98449c67dc2c9598cab,
        type: 3}
      propertyPath: InitialModule.startColor.maxGradient.key2.g
      value: 1
      objectReference: {fileID: 0}
    - target: {fileID: 4426767822717539129, guid: 463381dde7fab98449c67dc2c9598cab,
        type: 3}
      propertyPath: InitialModule.startColor.maxGradient.key2.b
      value: 0.8437159
      objectReference: {fileID: 0}
    - target: {fileID: 4426767822717539129, guid: 463381dde7fab98449c67dc2c9598cab,
        type: 3}
      propertyPath: InitialModule.startColor.maxGradient.ctime1
      value: 5783
      objectReference: {fileID: 0}
    - target: {fileID: 4426767822717539129, guid: 463381dde7fab98449c67dc2c9598cab,
        type: 3}
      propertyPath: InitialModule.startColor.maxGradient.ctime2
      value: 22359
      objectReference: {fileID: 0}
    - target: {fileID: 4426767822717539129, guid: 463381dde7fab98449c67dc2c9598cab,
        type: 3}
      propertyPath: InitialModule.startColor.maxGradient.m_NumColorKeys
      value: 6
      objectReference: {fileID: 0}
    - target: {fileID: 4426767822717539129, guid: 463381dde7fab98449c67dc2c9598cab,
        type: 3}
      propertyPath: InitialModule.startColor.maxGradient.key1.r
      value: 1
      objectReference: {fileID: 0}
    - target: {fileID: 4426767822717539129, guid: 463381dde7fab98449c67dc2c9598cab,
        type: 3}
      propertyPath: InitialModule.startColor.maxGradient.key1.g
      value: 0
      objectReference: {fileID: 0}
    - target: {fileID: 4426767822717539129, guid: 463381dde7fab98449c67dc2c9598cab,
        type: 3}
      propertyPath: InitialModule.startColor.maxGradient.key1.b
      value: 0
      objectReference: {fileID: 0}
    - target: {fileID: 4426767822717539129, guid: 463381dde7fab98449c67dc2c9598cab,
        type: 3}
      propertyPath: InitialModule.startColor.maxGradient.key3.r
      value: 0.9576124
      objectReference: {fileID: 0}
    - target: {fileID: 4426767822717539129, guid: 463381dde7fab98449c67dc2c9598cab,
        type: 3}
      propertyPath: InitialModule.startColor.maxGradient.key3.g
      value: 1
      objectReference: {fileID: 0}
    - target: {fileID: 4426767822717539129, guid: 463381dde7fab98449c67dc2c9598cab,
        type: 3}
      propertyPath: InitialModule.startColor.maxGradient.key3.b
      value: 0
      objectReference: {fileID: 0}
    - target: {fileID: 4426767822717539129, guid: 463381dde7fab98449c67dc2c9598cab,
        type: 3}
      propertyPath: InitialModule.startColor.maxGradient.ctime3
      value: 35273
      objectReference: {fileID: 0}
    - target: {fileID: 4426767822717539129, guid: 463381dde7fab98449c67dc2c9598cab,
        type: 3}
      propertyPath: InitialModule.startColor.maxGradient.key4.r
      value: 1
      objectReference: {fileID: 0}
    - target: {fileID: 4426767822717539129, guid: 463381dde7fab98449c67dc2c9598cab,
        type: 3}
      propertyPath: InitialModule.startColor.maxGradient.key4.g
      value: 0.4470588
      objectReference: {fileID: 0}
    - target: {fileID: 4426767822717539129, guid: 463381dde7fab98449c67dc2c9598cab,
        type: 3}
      propertyPath: InitialModule.startColor.maxGradient.key4.b
      value: 0.7484914
      objectReference: {fileID: 0}
    - target: {fileID: 4426767822717539129, guid: 463381dde7fab98449c67dc2c9598cab,
        type: 3}
      propertyPath: InitialModule.startColor.maxGradient.ctime4
      value: 50693
      objectReference: {fileID: 0}
    - target: {fileID: 4426767822717539129, guid: 463381dde7fab98449c67dc2c9598cab,
        type: 3}
      propertyPath: InitialModule.startColor.maxGradient.key5.r
      value: 0.7928543
      objectReference: {fileID: 0}
    - target: {fileID: 4426767822717539129, guid: 463381dde7fab98449c67dc2c9598cab,
        type: 3}
      propertyPath: InitialModule.startColor.maxGradient.key5.g
      value: 0
      objectReference: {fileID: 0}
    - target: {fileID: 4426767822717539129, guid: 463381dde7fab98449c67dc2c9598cab,
        type: 3}
      propertyPath: InitialModule.startColor.maxGradient.key5.b
      value: 1
      objectReference: {fileID: 0}
    - target: {fileID: 4426767822717539129, guid: 463381dde7fab98449c67dc2c9598cab,
        type: 3}
      propertyPath: InitialModule.startColor.maxGradient.ctime5
      value: 65535
      objectReference: {fileID: 0}
    - target: {fileID: 4426767822717539129, guid: 463381dde7fab98449c67dc2c9598cab,
        type: 3}
      propertyPath: InitialModule.startColor.maxGradient.key6.r
      value: 1
      objectReference: {fileID: 0}
    - target: {fileID: 4426767822717539129, guid: 463381dde7fab98449c67dc2c9598cab,
        type: 3}
      propertyPath: InitialModule.startColor.maxGradient.key6.g
      value: 1
      objectReference: {fileID: 0}
    - target: {fileID: 4426767822717539129, guid: 463381dde7fab98449c67dc2c9598cab,
        type: 3}
      propertyPath: InitialModule.startColor.maxGradient.key6.b
      value: 1
      objectReference: {fileID: 0}
    - target: {fileID: 4426767822717539129, guid: 463381dde7fab98449c67dc2c9598cab,
        type: 3}
      propertyPath: InitialModule.startColor.maxGradient.ctime6
      value: 65535
      objectReference: {fileID: 0}
    - target: {fileID: 4426767822717539129, guid: 463381dde7fab98449c67dc2c9598cab,
        type: 3}
      propertyPath: useRigidbodyForVelocity
      value: 0
      objectReference: {fileID: 0}
    m_RemovedComponents: []
  m_SourcePrefab: {fileID: 100100000, guid: 463381dde7fab98449c67dc2c9598cab, type: 3}
