{ "frames": [
   {
    "filename": "Cinematic_Prison 0.aseprite",
    "frame": { "x": 0, "y": 0, "w": 144, "h": 64 },
    "rotated": false,
    "trimmed": false,
    "spriteSourceSize": { "x": 0, "y": 0, "w": 144, "h": 64 },
    "sourceSize": { "w": 144, "h": 64 },
    "duration": 50
   },
   {
    "filename": "Cinematic_Prison 1.aseprite",
    "frame": { "x": 144, "y": 0, "w": 144, "h": 64 },
    "rotated": false,
    "trimmed": false,
    "spriteSourceSize": { "x": 0, "y": 0, "w": 144, "h": 64 },
    "sourceSize": { "w": 144, "h": 64 },
    "duration": 50
   },
   {
    "filename": "Cinematic_Prison 2.aseprite",
    "frame": { "x": 288, "y": 0, "w": 144, "h": 64 },
    "rotated": false,
    "trimmed": false,
    "spriteSourceSize": { "x": 0, "y": 0, "w": 144, "h": 64 },
    "sourceSize": { "w": 144, "h": 64 },
    "duration": 50
   },
   {
    "filename": "Cinematic_Prison 3.aseprite",
    "frame": { "x": 432, "y": 0, "w": 144, "h": 64 },
    "rotated": false,
    "trimmed": false,
    "spriteSourceSize": { "x": 0, "y": 0, "w": 144, "h": 64 },
    "sourceSize": { "w": 144, "h": 64 },
    "duration": 50
   },
   {
    "filename": "Cinematic_Prison 4.aseprite",
    "frame": { "x": 576, "y": 0, "w": 144, "h": 64 },
    "rotated": false,
    "trimmed": false,
    "spriteSourceSize": { "x": 0, "y": 0, "w": 144, "h": 64 },
    "sourceSize": { "w": 144, "h": 64 },
    "duration": 50
   },
   {
    "filename": "Cinematic_Prison 5.aseprite",
    "frame": { "x": 720, "y": 0, "w": 144, "h": 64 },
    "rotated": false,
    "trimmed": false,
    "spriteSourceSize": { "x": 0, "y": 0, "w": 144, "h": 64 },
    "sourceSize": { "w": 144, "h": 64 },
    "duration": 50
   },
   {
    "filename": "Cinematic_Prison 6.aseprite",
    "frame": { "x": 864, "y": 0, "w": 144, "h": 64 },
    "rotated": false,
    "trimmed": false,
    "spriteSourceSize": { "x": 0, "y": 0, "w": 144, "h": 64 },
    "sourceSize": { "w": 144, "h": 64 },
    "duration": 50
   },
   {
    "filename": "Cinematic_Prison 7.aseprite",
    "frame": { "x": 0, "y": 64, "w": 144, "h": 64 },
    "rotated": false,
    "trimmed": false,
    "spriteSourceSize": { "x": 0, "y": 0, "w": 144, "h": 64 },
    "sourceSize": { "w": 144, "h": 64 },
    "duration": 50
   },
   {
    "filename": "Cinematic_Prison 8.aseprite",
    "frame": { "x": 144, "y": 64, "w": 144, "h": 64 },
    "rotated": false,
    "trimmed": false,
    "spriteSourceSize": { "x": 0, "y": 0, "w": 144, "h": 64 },
    "sourceSize": { "w": 144, "h": 64 },
    "duration": 50
   },
   {
    "filename": "Cinematic_Prison 9.aseprite",
    "frame": { "x": 288, "y": 64, "w": 144, "h": 64 },
    "rotated": false,
    "trimmed": false,
    "spriteSourceSize": { "x": 0, "y": 0, "w": 144, "h": 64 },
    "sourceSize": { "w": 144, "h": 64 },
    "duration": 50
   },
   {
    "filename": "Cinematic_Prison 10.aseprite",
    "frame": { "x": 432, "y": 64, "w": 144, "h": 64 },
    "rotated": false,
    "trimmed": false,
    "spriteSourceSize": { "x": 0, "y": 0, "w": 144, "h": 64 },
    "sourceSize": { "w": 144, "h": 64 },
    "duration": 50
   },
   {
    "filename": "Cinematic_Prison 11.aseprite",
    "frame": { "x": 576, "y": 64, "w": 144, "h": 64 },
    "rotated": false,
    "trimmed": false,
    "spriteSourceSize": { "x": 0, "y": 0, "w": 144, "h": 64 },
    "sourceSize": { "w": 144, "h": 64 },
    "duration": 50
   },
   {
    "filename": "Cinematic_Prison 12.aseprite",
    "frame": { "x": 720, "y": 64, "w": 144, "h": 64 },
    "rotated": false,
    "trimmed": false,
    "spriteSourceSize": { "x": 0, "y": 0, "w": 144, "h": 64 },
    "sourceSize": { "w": 144, "h": 64 },
    "duration": 50
   },
   {
    "filename": "Cinematic_Prison 13.aseprite",
    "frame": { "x": 864, "y": 64, "w": 144, "h": 64 },
    "rotated": false,
    "trimmed": false,
    "spriteSourceSize": { "x": 0, "y": 0, "w": 144, "h": 64 },
    "sourceSize": { "w": 144, "h": 64 },
    "duration": 50
   },
   {
    "filename": "Cinematic_Prison 14.aseprite",
    "frame": { "x": 0, "y": 128, "w": 144, "h": 64 },
    "rotated": false,
    "trimmed": false,
    "spriteSourceSize": { "x": 0, "y": 0, "w": 144, "h": 64 },
    "sourceSize": { "w": 144, "h": 64 },
    "duration": 50
   },
   {
    "filename": "Cinematic_Prison 15.aseprite",
    "frame": { "x": 144, "y": 128, "w": 144, "h": 64 },
    "rotated": false,
    "trimmed": false,
    "spriteSourceSize": { "x": 0, "y": 0, "w": 144, "h": 64 },
    "sourceSize": { "w": 144, "h": 64 },
    "duration": 50
   },
   {
    "filename": "Cinematic_Prison 16.aseprite",
    "frame": { "x": 288, "y": 128, "w": 144, "h": 64 },
    "rotated": false,
    "trimmed": false,
    "spriteSourceSize": { "x": 0, "y": 0, "w": 144, "h": 64 },
    "sourceSize": { "w": 144, "h": 64 },
    "duration": 50
   },
   {
    "filename": "Cinematic_Prison 17.aseprite",
    "frame": { "x": 432, "y": 128, "w": 144, "h": 64 },
    "rotated": false,
    "trimmed": false,
    "spriteSourceSize": { "x": 0, "y": 0, "w": 144, "h": 64 },
    "sourceSize": { "w": 144, "h": 64 },
    "duration": 50
   },
   {
    "filename": "Cinematic_Prison 18.aseprite",
    "frame": { "x": 576, "y": 128, "w": 144, "h": 64 },
    "rotated": false,
    "trimmed": false,
    "spriteSourceSize": { "x": 0, "y": 0, "w": 144, "h": 64 },
    "sourceSize": { "w": 144, "h": 64 },
    "duration": 50
   },
   {
    "filename": "Cinematic_Prison 19.aseprite",
    "frame": { "x": 720, "y": 128, "w": 144, "h": 64 },
    "rotated": false,
    "trimmed": false,
    "spriteSourceSize": { "x": 0, "y": 0, "w": 144, "h": 64 },
    "sourceSize": { "w": 144, "h": 64 },
    "duration": 50
   },
   {
    "filename": "Cinematic_Prison 20.aseprite",
    "frame": { "x": 720, "y": 128, "w": 144, "h": 64 },
    "rotated": false,
    "trimmed": false,
    "spriteSourceSize": { "x": 0, "y": 0, "w": 144, "h": 64 },
    "sourceSize": { "w": 144, "h": 64 },
    "duration": 1200
   },
   {
    "filename": "Cinematic_Prison 21.aseprite",
    "frame": { "x": 864, "y": 128, "w": 144, "h": 64 },
    "rotated": false,
    "trimmed": false,
    "spriteSourceSize": { "x": 0, "y": 0, "w": 144, "h": 64 },
    "sourceSize": { "w": 144, "h": 64 },
    "duration": 66
   },
   {
    "filename": "Cinematic_Prison 22.aseprite",
    "frame": { "x": 0, "y": 192, "w": 144, "h": 64 },
    "rotated": false,
    "trimmed": false,
    "spriteSourceSize": { "x": 0, "y": 0, "w": 144, "h": 64 },
    "sourceSize": { "w": 144, "h": 64 },
    "duration": 66
   },
   {
    "filename": "Cinematic_Prison 23.aseprite",
    "frame": { "x": 144, "y": 192, "w": 144, "h": 64 },
    "rotated": false,
    "trimmed": false,
    "spriteSourceSize": { "x": 0, "y": 0, "w": 144, "h": 64 },
    "sourceSize": { "w": 144, "h": 64 },
    "duration": 66
   },
   {
    "filename": "Cinematic_Prison 24.aseprite",
    "frame": { "x": 288, "y": 192, "w": 144, "h": 64 },
    "rotated": false,
    "trimmed": false,
    "spriteSourceSize": { "x": 0, "y": 0, "w": 144, "h": 64 },
    "sourceSize": { "w": 144, "h": 64 },
    "duration": 66
   },
   {
    "filename": "Cinematic_Prison 25.aseprite",
    "frame": { "x": 432, "y": 192, "w": 144, "h": 64 },
    "rotated": false,
    "trimmed": false,
    "spriteSourceSize": { "x": 0, "y": 0, "w": 144, "h": 64 },
    "sourceSize": { "w": 144, "h": 64 },
    "duration": 66
   },
   {
    "filename": "Cinematic_Prison 26.aseprite",
    "frame": { "x": 576, "y": 192, "w": 144, "h": 64 },
    "rotated": false,
    "trimmed": false,
    "spriteSourceSize": { "x": 0, "y": 0, "w": 144, "h": 64 },
    "sourceSize": { "w": 144, "h": 64 },
    "duration": 66
   },
   {
    "filename": "Cinematic_Prison 27.aseprite",
    "frame": { "x": 720, "y": 192, "w": 144, "h": 64 },
    "rotated": false,
    "trimmed": false,
    "spriteSourceSize": { "x": 0, "y": 0, "w": 144, "h": 64 },
    "sourceSize": { "w": 144, "h": 64 },
    "duration": 66
   },
   {
    "filename": "Cinematic_Prison 28.aseprite",
    "frame": { "x": 864, "y": 192, "w": 144, "h": 64 },
    "rotated": false,
    "trimmed": false,
    "spriteSourceSize": { "x": 0, "y": 0, "w": 144, "h": 64 },
    "sourceSize": { "w": 144, "h": 64 },
    "duration": 66
   },
   {
    "filename": "Cinematic_Prison 29.aseprite",
    "frame": { "x": 0, "y": 256, "w": 144, "h": 64 },
    "rotated": false,
    "trimmed": false,
    "spriteSourceSize": { "x": 0, "y": 0, "w": 144, "h": 64 },
    "sourceSize": { "w": 144, "h": 64 },
    "duration": 1200
   },
   {
    "filename": "Cinematic_Prison 30.aseprite",
    "frame": { "x": 144, "y": 256, "w": 144, "h": 64 },
    "rotated": false,
    "trimmed": false,
    "spriteSourceSize": { "x": 0, "y": 0, "w": 144, "h": 64 },
    "sourceSize": { "w": 144, "h": 64 },
    "duration": 300
   },
   {
    "filename": "Cinematic_Prison 31.aseprite",
    "frame": { "x": 0, "y": 256, "w": 144, "h": 64 },
    "rotated": false,
    "trimmed": false,
    "spriteSourceSize": { "x": 0, "y": 0, "w": 144, "h": 64 },
    "sourceSize": { "w": 144, "h": 64 },
    "duration": 1200
   },
   {
    "filename": "Cinematic_Prison 32.aseprite",
    "frame": { "x": 288, "y": 256, "w": 144, "h": 64 },
    "rotated": false,
    "trimmed": false,
    "spriteSourceSize": { "x": 0, "y": 0, "w": 144, "h": 64 },
    "sourceSize": { "w": 144, "h": 64 },
    "duration": 60
   },
   {
    "filename": "Cinematic_Prison 33.aseprite",
    "frame": { "x": 432, "y": 256, "w": 144, "h": 64 },
    "rotated": false,
    "trimmed": false,
    "spriteSourceSize": { "x": 0, "y": 0, "w": 144, "h": 64 },
    "sourceSize": { "w": 144, "h": 64 },
    "duration": 60
   },
   {
    "filename": "Cinematic_Prison 34.aseprite",
    "frame": { "x": 576, "y": 256, "w": 144, "h": 64 },
    "rotated": false,
    "trimmed": false,
    "spriteSourceSize": { "x": 0, "y": 0, "w": 144, "h": 64 },
    "sourceSize": { "w": 144, "h": 64 },
    "duration": 60
   },
   {
    "filename": "Cinematic_Prison 35.aseprite",
    "frame": { "x": 720, "y": 256, "w": 144, "h": 64 },
    "rotated": false,
    "trimmed": false,
    "spriteSourceSize": { "x": 0, "y": 0, "w": 144, "h": 64 },
    "sourceSize": { "w": 144, "h": 64 },
    "duration": 60
   },
   {
    "filename": "Cinematic_Prison 36.aseprite",
    "frame": { "x": 864, "y": 256, "w": 144, "h": 64 },
    "rotated": false,
    "trimmed": false,
    "spriteSourceSize": { "x": 0, "y": 0, "w": 144, "h": 64 },
    "sourceSize": { "w": 144, "h": 64 },
    "duration": 60
   },
   {
    "filename": "Cinematic_Prison 37.aseprite",
    "frame": { "x": 0, "y": 320, "w": 144, "h": 64 },
    "rotated": false,
    "trimmed": false,
    "spriteSourceSize": { "x": 0, "y": 0, "w": 144, "h": 64 },
    "sourceSize": { "w": 144, "h": 64 },
    "duration": 60
   },
   {
    "filename": "Cinematic_Prison 38.aseprite",
    "frame": { "x": 144, "y": 320, "w": 144, "h": 64 },
    "rotated": false,
    "trimmed": false,
    "spriteSourceSize": { "x": 0, "y": 0, "w": 144, "h": 64 },
    "sourceSize": { "w": 144, "h": 64 },
    "duration": 60
   },
   {
    "filename": "Cinematic_Prison 39.aseprite",
    "frame": { "x": 288, "y": 320, "w": 144, "h": 64 },
    "rotated": false,
    "trimmed": false,
    "spriteSourceSize": { "x": 0, "y": 0, "w": 144, "h": 64 },
    "sourceSize": { "w": 144, "h": 64 },
    "duration": 60
   },
   {
    "filename": "Cinematic_Prison 40.aseprite",
    "frame": { "x": 432, "y": 320, "w": 144, "h": 64 },
    "rotated": false,
    "trimmed": false,
    "spriteSourceSize": { "x": 0, "y": 0, "w": 144, "h": 64 },
    "sourceSize": { "w": 144, "h": 64 },
    "duration": 60
   },
   {
    "filename": "Cinematic_Prison 41.aseprite",
    "frame": { "x": 576, "y": 320, "w": 144, "h": 64 },
    "rotated": false,
    "trimmed": false,
    "spriteSourceSize": { "x": 0, "y": 0, "w": 144, "h": 64 },
    "sourceSize": { "w": 144, "h": 64 },
    "duration": 60
   },
   {
    "filename": "Cinematic_Prison 42.aseprite",
    "frame": { "x": 720, "y": 320, "w": 144, "h": 64 },
    "rotated": false,
    "trimmed": false,
    "spriteSourceSize": { "x": 0, "y": 0, "w": 144, "h": 64 },
    "sourceSize": { "w": 144, "h": 64 },
    "duration": 60
   },
   {
    "filename": "Cinematic_Prison 43.aseprite",
    "frame": { "x": 864, "y": 320, "w": 144, "h": 64 },
    "rotated": false,
    "trimmed": false,
    "spriteSourceSize": { "x": 0, "y": 0, "w": 144, "h": 64 },
    "sourceSize": { "w": 144, "h": 64 },
    "duration": 60
   },
   {
    "filename": "Cinematic_Prison 44.aseprite",
    "frame": { "x": 0, "y": 384, "w": 144, "h": 64 },
    "rotated": false,
    "trimmed": false,
    "spriteSourceSize": { "x": 0, "y": 0, "w": 144, "h": 64 },
    "sourceSize": { "w": 144, "h": 64 },
    "duration": 60
   },
   {
    "filename": "Cinematic_Prison 45.aseprite",
    "frame": { "x": 144, "y": 384, "w": 144, "h": 64 },
    "rotated": false,
    "trimmed": false,
    "spriteSourceSize": { "x": 0, "y": 0, "w": 144, "h": 64 },
    "sourceSize": { "w": 144, "h": 64 },
    "duration": 60
   },
   {
    "filename": "Cinematic_Prison 46.aseprite",
    "frame": { "x": 288, "y": 384, "w": 144, "h": 64 },
    "rotated": false,
    "trimmed": false,
    "spriteSourceSize": { "x": 0, "y": 0, "w": 144, "h": 64 },
    "sourceSize": { "w": 144, "h": 64 },
    "duration": 60
   },
   {
    "filename": "Cinematic_Prison 47.aseprite",
    "frame": { "x": 288, "y": 384, "w": 144, "h": 64 },
    "rotated": false,
    "trimmed": false,
    "spriteSourceSize": { "x": 0, "y": 0, "w": 144, "h": 64 },
    "sourceSize": { "w": 144, "h": 64 },
    "duration": 1200
   }
 ],
 "meta": {
  "app": "http://www.aseprite.org/",
  "version": "1.2.21-x64",
  "image": "Cutscene_Prison_PlayerThrowIIntoCell.png",
  "format": "RGBA8888",
  "size": { "w": 1008, "h": 448 },
  "scale": "1"
 }
}
