{ "frames": [
   {
    "filename": "Player_Prisoner #Walk_Fast 0.ase",
    "frame": { "x": 0, "y": 0, "w": 96, "h": 48 },
    "rotated": false,
    "trimmed": false,
    "spriteSourceSize": { "x": 0, "y": 0, "w": 96, "h": 48 },
    "sourceSize": { "w": 96, "h": 48 },
    "duration": 40
   },
   {
    "filename": "Player_Prisoner #Walk_Fast 1.ase",
    "frame": { "x": 96, "y": 0, "w": 96, "h": 48 },
    "rotated": false,
    "trimmed": false,
    "spriteSourceSize": { "x": 0, "y": 0, "w": 96, "h": 48 },
    "sourceSize": { "w": 96, "h": 48 },
    "duration": 35
   },
   {
    "filename": "Player_Prisoner #Walk_Fast 2.ase",
    "frame": { "x": 192, "y": 0, "w": 96, "h": 48 },
    "rotated": false,
    "trimmed": false,
    "spriteSourceSize": { "x": 0, "y": 0, "w": 96, "h": 48 },
    "sourceSize": { "w": 96, "h": 48 },
    "duration": 35
   },
   {
    "filename": "Player_Prisoner #Walk_Fast 3.ase",
    "frame": { "x": 0, "y": 48, "w": 96, "h": 48 },
    "rotated": false,
    "trimmed": false,
    "spriteSourceSize": { "x": 0, "y": 0, "w": 96, "h": 48 },
    "sourceSize": { "w": 96, "h": 48 },
    "duration": 50
   },
   {
    "filename": "Player_Prisoner #Walk_Fast 4.ase",
    "frame": { "x": 96, "y": 48, "w": 96, "h": 48 },
    "rotated": false,
    "trimmed": false,
    "spriteSourceSize": { "x": 0, "y": 0, "w": 96, "h": 48 },
    "sourceSize": { "w": 96, "h": 48 },
    "duration": 60
   },
   {
    "filename": "Player_Prisoner #Walk_Fast 5.ase",
    "frame": { "x": 0, "y": 48, "w": 96, "h": 48 },
    "rotated": false,
    "trimmed": false,
    "spriteSourceSize": { "x": 0, "y": 0, "w": 96, "h": 48 },
    "sourceSize": { "w": 96, "h": 48 },
    "duration": 30
   },
   {
    "filename": "Player_Prisoner #Walk_Fast 6.ase",
    "frame": { "x": 192, "y": 0, "w": 96, "h": 48 },
    "rotated": false,
    "trimmed": false,
    "spriteSourceSize": { "x": 0, "y": 0, "w": 96, "h": 48 },
    "sourceSize": { "w": 96, "h": 48 },
    "duration": 30
   },
   {
    "filename": "Player_Prisoner #Walk_Fast 7.ase",
    "frame": { "x": 192, "y": 48, "w": 96, "h": 48 },
    "rotated": false,
    "trimmed": false,
    "spriteSourceSize": { "x": 0, "y": 0, "w": 96, "h": 48 },
    "sourceSize": { "w": 96, "h": 48 },
    "duration": 30
   },
   {
    "filename": "Player_Prisoner #Walk_Fast 8.ase",
    "frame": { "x": 0, "y": 0, "w": 96, "h": 48 },
    "rotated": false,
    "trimmed": false,
    "spriteSourceSize": { "x": 0, "y": 0, "w": 96, "h": 48 },
    "sourceSize": { "w": 96, "h": 48 },
    "duration": 40
   },
   {
    "filename": "Player_Prisoner #Walk_Fast 9.ase",
    "frame": { "x": 0, "y": 96, "w": 96, "h": 48 },
    "rotated": false,
    "trimmed": false,
    "spriteSourceSize": { "x": 0, "y": 0, "w": 96, "h": 48 },
    "sourceSize": { "w": 96, "h": 48 },
    "duration": 40
   },
   {
    "filename": "Player_Prisoner #Walk_Fast 10.ase",
    "frame": { "x": 96, "y": 96, "w": 96, "h": 48 },
    "rotated": false,
    "trimmed": false,
    "spriteSourceSize": { "x": 0, "y": 0, "w": 96, "h": 48 },
    "sourceSize": { "w": 96, "h": 48 },
    "duration": 55
   },
   {
    "filename": "Player_Prisoner #Walk_Fast 11.ase",
    "frame": { "x": 192, "y": 96, "w": 96, "h": 48 },
    "rotated": false,
    "trimmed": false,
    "spriteSourceSize": { "x": 0, "y": 0, "w": 96, "h": 48 },
    "sourceSize": { "w": 96, "h": 48 },
    "duration": 70
   }
 ],
 "meta": {
  "app": "http://www.aseprite.org/",
  "version": "1.2.21-x64",
  "image": "Player_Prisoner-Walk_Fast.png",
  "format": "RGBA8888",
  "size": { "w": 288, "h": 144 },
  "scale": "1",
  "slices": [
  ]
 }
}
