{ "frames": [
   {
    "filename": "Player_Prisoner #VFX_Appear 0.ase",
    "frame": { "x": 0, "y": 0, "w": 96, "h": 48 },
    "rotated": false,
    "trimmed": false,
    "spriteSourceSize": { "x": 0, "y": 0, "w": 96, "h": 48 },
    "sourceSize": { "w": 96, "h": 48 },
    "duration": 40
   },
   {
    "filename": "Player_Prisoner #VFX_Appear 1.ase",
    "frame": { "x": 0, "y": 0, "w": 96, "h": 48 },
    "rotated": false,
    "trimmed": false,
    "spriteSourceSize": { "x": 0, "y": 0, "w": 96, "h": 48 },
    "sourceSize": { "w": 96, "h": 48 },
    "duration": 40
   },
   {
    "filename": "Player_Prisoner #VFX_Appear 2.ase",
    "frame": { "x": 0, "y": 0, "w": 96, "h": 48 },
    "rotated": false,
    "trimmed": false,
    "spriteSourceSize": { "x": 0, "y": 0, "w": 96, "h": 48 },
    "sourceSize": { "w": 96, "h": 48 },
    "duration": 40
   },
   {
    "filename": "Player_Prisoner #VFX_Appear 3.ase",
    "frame": { "x": 0, "y": 0, "w": 96, "h": 48 },
    "rotated": false,
    "trimmed": false,
    "spriteSourceSize": { "x": 0, "y": 0, "w": 96, "h": 48 },
    "sourceSize": { "w": 96, "h": 48 },
    "duration": 40
   },
   {
    "filename": "Player_Prisoner #VFX_Appear 4.ase",
    "frame": { "x": 0, "y": 0, "w": 96, "h": 48 },
    "rotated": false,
    "trimmed": false,
    "spriteSourceSize": { "x": 0, "y": 0, "w": 96, "h": 48 },
    "sourceSize": { "w": 96, "h": 48 },
    "duration": 40
   },
   {
    "filename": "Player_Prisoner #VFX_Appear 5.ase",
    "frame": { "x": 0, "y": 0, "w": 96, "h": 48 },
    "rotated": false,
    "trimmed": false,
    "spriteSourceSize": { "x": 0, "y": 0, "w": 96, "h": 48 },
    "sourceSize": { "w": 96, "h": 48 },
    "duration": 40
   },
   {
    "filename": "Player_Prisoner #VFX_Appear 6.ase",
    "frame": { "x": 0, "y": 0, "w": 96, "h": 48 },
    "rotated": false,
    "trimmed": false,
    "spriteSourceSize": { "x": 0, "y": 0, "w": 96, "h": 48 },
    "sourceSize": { "w": 96, "h": 48 },
    "duration": 40
   },
   {
    "filename": "Player_Prisoner #VFX_Appear 7.ase",
    "frame": { "x": 0, "y": 0, "w": 96, "h": 48 },
    "rotated": false,
    "trimmed": false,
    "spriteSourceSize": { "x": 0, "y": 0, "w": 96, "h": 48 },
    "sourceSize": { "w": 96, "h": 48 },
    "duration": 40
   },
   {
    "filename": "Player_Prisoner #VFX_Appear 8.ase",
    "frame": { "x": 0, "y": 0, "w": 96, "h": 48 },
    "rotated": false,
    "trimmed": false,
    "spriteSourceSize": { "x": 0, "y": 0, "w": 96, "h": 48 },
    "sourceSize": { "w": 96, "h": 48 },
    "duration": 40
   },
   {
    "filename": "Player_Prisoner #VFX_Appear 9.ase",
    "frame": { "x": 0, "y": 0, "w": 96, "h": 48 },
    "rotated": false,
    "trimmed": false,
    "spriteSourceSize": { "x": 0, "y": 0, "w": 96, "h": 48 },
    "sourceSize": { "w": 96, "h": 48 },
    "duration": 40
   },
   {
    "filename": "Player_Prisoner #VFX_Appear 10.ase",
    "frame": { "x": 0, "y": 0, "w": 96, "h": 48 },
    "rotated": false,
    "trimmed": false,
    "spriteSourceSize": { "x": 0, "y": 0, "w": 96, "h": 48 },
    "sourceSize": { "w": 96, "h": 48 },
    "duration": 40
   },
   {
    "filename": "Player_Prisoner #VFX_Appear 11.ase",
    "frame": { "x": 0, "y": 0, "w": 96, "h": 48 },
    "rotated": false,
    "trimmed": false,
    "spriteSourceSize": { "x": 0, "y": 0, "w": 96, "h": 48 },
    "sourceSize": { "w": 96, "h": 48 },
    "duration": 40
   },
   {
    "filename": "Player_Prisoner #VFX_Appear 12.ase",
    "frame": { "x": 0, "y": 0, "w": 96, "h": 48 },
    "rotated": false,
    "trimmed": false,
    "spriteSourceSize": { "x": 0, "y": 0, "w": 96, "h": 48 },
    "sourceSize": { "w": 96, "h": 48 },
    "duration": 40
   }
 ],
 "meta": {
  "app": "http://www.aseprite.org/",
  "version": "1.2.21-x64",
  "image": "Player_Prisoner-VFX_Appear.png",
  "format": "RGBA8888",
  "size": { "w": 96, "h": 48 },
  "scale": "1",
  "slices": [
  ]
 }
}
