{ "frames": [
   {
    "filename": "Player_Prisoner #TakingBandana 0.ase",
    "frame": { "x": 0, "y": 0, "w": 96, "h": 48 },
    "rotated": false,
    "trimmed": false,
    "spriteSourceSize": { "x": 0, "y": 0, "w": 96, "h": 48 },
    "sourceSize": { "w": 96, "h": 48 },
    "duration": 30
   },
   {
    "filename": "Player_Prisoner #TakingBandana 1.ase",
    "frame": { "x": 96, "y": 0, "w": 96, "h": 48 },
    "rotated": false,
    "trimmed": false,
    "spriteSourceSize": { "x": 0, "y": 0, "w": 96, "h": 48 },
    "sourceSize": { "w": 96, "h": 48 },
    "duration": 30
   },
   {
    "filename": "Player_Prisoner #TakingBandana 2.ase",
    "frame": { "x": 192, "y": 0, "w": 96, "h": 48 },
    "rotated": false,
    "trimmed": false,
    "spriteSourceSize": { "x": 0, "y": 0, "w": 96, "h": 48 },
    "sourceSize": { "w": 96, "h": 48 },
    "duration": 30
   },
   {
    "filename": "Player_Prisoner #TakingBandana 3.ase",
    "frame": { "x": 288, "y": 0, "w": 96, "h": 48 },
    "rotated": false,
    "trimmed": false,
    "spriteSourceSize": { "x": 0, "y": 0, "w": 96, "h": 48 },
    "sourceSize": { "w": 96, "h": 48 },
    "duration": 30
   },
   {
    "filename": "Player_Prisoner #TakingBandana 4.ase",
    "frame": { "x": 384, "y": 0, "w": 96, "h": 48 },
    "rotated": false,
    "trimmed": false,
    "spriteSourceSize": { "x": 0, "y": 0, "w": 96, "h": 48 },
    "sourceSize": { "w": 96, "h": 48 },
    "duration": 30
   },
   {
    "filename": "Player_Prisoner #TakingBandana 5.ase",
    "frame": { "x": 480, "y": 0, "w": 96, "h": 48 },
    "rotated": false,
    "trimmed": false,
    "spriteSourceSize": { "x": 0, "y": 0, "w": 96, "h": 48 },
    "sourceSize": { "w": 96, "h": 48 },
    "duration": 30
   },
   {
    "filename": "Player_Prisoner #TakingBandana 6.ase",
    "frame": { "x": 576, "y": 0, "w": 96, "h": 48 },
    "rotated": false,
    "trimmed": false,
    "spriteSourceSize": { "x": 0, "y": 0, "w": 96, "h": 48 },
    "sourceSize": { "w": 96, "h": 48 },
    "duration": 30
   },
   {
    "filename": "Player_Prisoner #TakingBandana 7.ase",
    "frame": { "x": 0, "y": 48, "w": 96, "h": 48 },
    "rotated": false,
    "trimmed": false,
    "spriteSourceSize": { "x": 0, "y": 0, "w": 96, "h": 48 },
    "sourceSize": { "w": 96, "h": 48 },
    "duration": 30
   },
   {
    "filename": "Player_Prisoner #TakingBandana 8.ase",
    "frame": { "x": 0, "y": 48, "w": 96, "h": 48 },
    "rotated": false,
    "trimmed": false,
    "spriteSourceSize": { "x": 0, "y": 0, "w": 96, "h": 48 },
    "sourceSize": { "w": 96, "h": 48 },
    "duration": 1200
   },
   {
    "filename": "Player_Prisoner #TakingBandana 9.ase",
    "frame": { "x": 96, "y": 48, "w": 96, "h": 48 },
    "rotated": false,
    "trimmed": false,
    "spriteSourceSize": { "x": 0, "y": 0, "w": 96, "h": 48 },
    "sourceSize": { "w": 96, "h": 48 },
    "duration": 40
   },
   {
    "filename": "Player_Prisoner #TakingBandana 10.ase",
    "frame": { "x": 192, "y": 48, "w": 96, "h": 48 },
    "rotated": false,
    "trimmed": false,
    "spriteSourceSize": { "x": 0, "y": 0, "w": 96, "h": 48 },
    "sourceSize": { "w": 96, "h": 48 },
    "duration": 40
   },
   {
    "filename": "Player_Prisoner #TakingBandana 11.ase",
    "frame": { "x": 288, "y": 48, "w": 96, "h": 48 },
    "rotated": false,
    "trimmed": false,
    "spriteSourceSize": { "x": 0, "y": 0, "w": 96, "h": 48 },
    "sourceSize": { "w": 96, "h": 48 },
    "duration": 40
   },
   {
    "filename": "Player_Prisoner #TakingBandana 12.ase",
    "frame": { "x": 384, "y": 48, "w": 96, "h": 48 },
    "rotated": false,
    "trimmed": false,
    "spriteSourceSize": { "x": 0, "y": 0, "w": 96, "h": 48 },
    "sourceSize": { "w": 96, "h": 48 },
    "duration": 40
   },
   {
    "filename": "Player_Prisoner #TakingBandana 13.ase",
    "frame": { "x": 480, "y": 48, "w": 96, "h": 48 },
    "rotated": false,
    "trimmed": false,
    "spriteSourceSize": { "x": 0, "y": 0, "w": 96, "h": 48 },
    "sourceSize": { "w": 96, "h": 48 },
    "duration": 40
   },
   {
    "filename": "Player_Prisoner #TakingBandana 14.ase",
    "frame": { "x": 576, "y": 48, "w": 96, "h": 48 },
    "rotated": false,
    "trimmed": false,
    "spriteSourceSize": { "x": 0, "y": 0, "w": 96, "h": 48 },
    "sourceSize": { "w": 96, "h": 48 },
    "duration": 40
   },
   {
    "filename": "Player_Prisoner #TakingBandana 15.ase",
    "frame": { "x": 0, "y": 96, "w": 96, "h": 48 },
    "rotated": false,
    "trimmed": false,
    "spriteSourceSize": { "x": 0, "y": 0, "w": 96, "h": 48 },
    "sourceSize": { "w": 96, "h": 48 },
    "duration": 40
   },
   {
    "filename": "Player_Prisoner #TakingBandana 16.ase",
    "frame": { "x": 96, "y": 96, "w": 96, "h": 48 },
    "rotated": false,
    "trimmed": false,
    "spriteSourceSize": { "x": 0, "y": 0, "w": 96, "h": 48 },
    "sourceSize": { "w": 96, "h": 48 },
    "duration": 40
   },
   {
    "filename": "Player_Prisoner #TakingBandana 17.ase",
    "frame": { "x": 192, "y": 96, "w": 96, "h": 48 },
    "rotated": false,
    "trimmed": false,
    "spriteSourceSize": { "x": 0, "y": 0, "w": 96, "h": 48 },
    "sourceSize": { "w": 96, "h": 48 },
    "duration": 40
   },
   {
    "filename": "Player_Prisoner #TakingBandana 18.ase",
    "frame": { "x": 288, "y": 96, "w": 96, "h": 48 },
    "rotated": false,
    "trimmed": false,
    "spriteSourceSize": { "x": 0, "y": 0, "w": 96, "h": 48 },
    "sourceSize": { "w": 96, "h": 48 },
    "duration": 40
   },
   {
    "filename": "Player_Prisoner #TakingBandana 19.ase",
    "frame": { "x": 384, "y": 96, "w": 96, "h": 48 },
    "rotated": false,
    "trimmed": false,
    "spriteSourceSize": { "x": 0, "y": 0, "w": 96, "h": 48 },
    "sourceSize": { "w": 96, "h": 48 },
    "duration": 40
   },
   {
    "filename": "Player_Prisoner #TakingBandana 20.ase",
    "frame": { "x": 480, "y": 96, "w": 96, "h": 48 },
    "rotated": false,
    "trimmed": false,
    "spriteSourceSize": { "x": 0, "y": 0, "w": 96, "h": 48 },
    "sourceSize": { "w": 96, "h": 48 },
    "duration": 40
   },
   {
    "filename": "Player_Prisoner #TakingBandana 21.ase",
    "frame": { "x": 576, "y": 96, "w": 96, "h": 48 },
    "rotated": false,
    "trimmed": false,
    "spriteSourceSize": { "x": 0, "y": 0, "w": 96, "h": 48 },
    "sourceSize": { "w": 96, "h": 48 },
    "duration": 40
   },
   {
    "filename": "Player_Prisoner #TakingBandana 22.ase",
    "frame": { "x": 0, "y": 144, "w": 96, "h": 48 },
    "rotated": false,
    "trimmed": false,
    "spriteSourceSize": { "x": 0, "y": 0, "w": 96, "h": 48 },
    "sourceSize": { "w": 96, "h": 48 },
    "duration": 40
   },
   {
    "filename": "Player_Prisoner #TakingBandana 23.ase",
    "frame": { "x": 96, "y": 144, "w": 96, "h": 48 },
    "rotated": false,
    "trimmed": false,
    "spriteSourceSize": { "x": 0, "y": 0, "w": 96, "h": 48 },
    "sourceSize": { "w": 96, "h": 48 },
    "duration": 40
   },
   {
    "filename": "Player_Prisoner #TakingBandana 24.ase",
    "frame": { "x": 192, "y": 144, "w": 96, "h": 48 },
    "rotated": false,
    "trimmed": false,
    "spriteSourceSize": { "x": 0, "y": 0, "w": 96, "h": 48 },
    "sourceSize": { "w": 96, "h": 48 },
    "duration": 40
   },
   {
    "filename": "Player_Prisoner #TakingBandana 25.ase",
    "frame": { "x": 288, "y": 144, "w": 96, "h": 48 },
    "rotated": false,
    "trimmed": false,
    "spriteSourceSize": { "x": 0, "y": 0, "w": 96, "h": 48 },
    "sourceSize": { "w": 96, "h": 48 },
    "duration": 40
   },
   {
    "filename": "Player_Prisoner #TakingBandana 26.ase",
    "frame": { "x": 384, "y": 144, "w": 96, "h": 48 },
    "rotated": false,
    "trimmed": false,
    "spriteSourceSize": { "x": 0, "y": 0, "w": 96, "h": 48 },
    "sourceSize": { "w": 96, "h": 48 },
    "duration": 40
   },
   {
    "filename": "Player_Prisoner #TakingBandana 27.ase",
    "frame": { "x": 480, "y": 144, "w": 96, "h": 48 },
    "rotated": false,
    "trimmed": false,
    "spriteSourceSize": { "x": 0, "y": 0, "w": 96, "h": 48 },
    "sourceSize": { "w": 96, "h": 48 },
    "duration": 40
   },
   {
    "filename": "Player_Prisoner #TakingBandana 28.ase",
    "frame": { "x": 576, "y": 144, "w": 96, "h": 48 },
    "rotated": false,
    "trimmed": false,
    "spriteSourceSize": { "x": 0, "y": 0, "w": 96, "h": 48 },
    "sourceSize": { "w": 96, "h": 48 },
    "duration": 40
   },
   {
    "filename": "Player_Prisoner #TakingBandana 29.ase",
    "frame": { "x": 0, "y": 192, "w": 96, "h": 48 },
    "rotated": false,
    "trimmed": false,
    "spriteSourceSize": { "x": 0, "y": 0, "w": 96, "h": 48 },
    "sourceSize": { "w": 96, "h": 48 },
    "duration": 70
   },
   {
    "filename": "Player_Prisoner #TakingBandana 30.ase",
    "frame": { "x": 96, "y": 192, "w": 96, "h": 48 },
    "rotated": false,
    "trimmed": false,
    "spriteSourceSize": { "x": 0, "y": 0, "w": 96, "h": 48 },
    "sourceSize": { "w": 96, "h": 48 },
    "duration": 70
   },
   {
    "filename": "Player_Prisoner #TakingBandana 31.ase",
    "frame": { "x": 192, "y": 192, "w": 96, "h": 48 },
    "rotated": false,
    "trimmed": false,
    "spriteSourceSize": { "x": 0, "y": 0, "w": 96, "h": 48 },
    "sourceSize": { "w": 96, "h": 48 },
    "duration": 70
   },
   {
    "filename": "Player_Prisoner #TakingBandana 32.ase",
    "frame": { "x": 288, "y": 192, "w": 96, "h": 48 },
    "rotated": false,
    "trimmed": false,
    "spriteSourceSize": { "x": 0, "y": 0, "w": 96, "h": 48 },
    "sourceSize": { "w": 96, "h": 48 },
    "duration": 70
   },
   {
    "filename": "Player_Prisoner #TakingBandana 33.ase",
    "frame": { "x": 384, "y": 192, "w": 96, "h": 48 },
    "rotated": false,
    "trimmed": false,
    "spriteSourceSize": { "x": 0, "y": 0, "w": 96, "h": 48 },
    "sourceSize": { "w": 96, "h": 48 },
    "duration": 70
   },
   {
    "filename": "Player_Prisoner #TakingBandana 34.ase",
    "frame": { "x": 480, "y": 192, "w": 96, "h": 48 },
    "rotated": false,
    "trimmed": false,
    "spriteSourceSize": { "x": 0, "y": 0, "w": 96, "h": 48 },
    "sourceSize": { "w": 96, "h": 48 },
    "duration": 70
   },
   {
    "filename": "Player_Prisoner #TakingBandana 35.ase",
    "frame": { "x": 576, "y": 192, "w": 96, "h": 48 },
    "rotated": false,
    "trimmed": false,
    "spriteSourceSize": { "x": 0, "y": 0, "w": 96, "h": 48 },
    "sourceSize": { "w": 96, "h": 48 },
    "duration": 70
   },
   {
    "filename": "Player_Prisoner #TakingBandana 36.ase",
    "frame": { "x": 0, "y": 240, "w": 96, "h": 48 },
    "rotated": false,
    "trimmed": false,
    "spriteSourceSize": { "x": 0, "y": 0, "w": 96, "h": 48 },
    "sourceSize": { "w": 96, "h": 48 },
    "duration": 70
   },
   {
    "filename": "Player_Prisoner #TakingBandana 37.ase",
    "frame": { "x": 96, "y": 240, "w": 96, "h": 48 },
    "rotated": false,
    "trimmed": false,
    "spriteSourceSize": { "x": 0, "y": 0, "w": 96, "h": 48 },
    "sourceSize": { "w": 96, "h": 48 },
    "duration": 70
   },
   {
    "filename": "Player_Prisoner #TakingBandana 38.ase",
    "frame": { "x": 192, "y": 240, "w": 96, "h": 48 },
    "rotated": false,
    "trimmed": false,
    "spriteSourceSize": { "x": 0, "y": 0, "w": 96, "h": 48 },
    "sourceSize": { "w": 96, "h": 48 },
    "duration": 70
   },
   {
    "filename": "Player_Prisoner #TakingBandana 39.ase",
    "frame": { "x": 288, "y": 240, "w": 96, "h": 48 },
    "rotated": false,
    "trimmed": false,
    "spriteSourceSize": { "x": 0, "y": 0, "w": 96, "h": 48 },
    "sourceSize": { "w": 96, "h": 48 },
    "duration": 70
   },
   {
    "filename": "Player_Prisoner #TakingBandana 40.ase",
    "frame": { "x": 384, "y": 240, "w": 96, "h": 48 },
    "rotated": false,
    "trimmed": false,
    "spriteSourceSize": { "x": 0, "y": 0, "w": 96, "h": 48 },
    "sourceSize": { "w": 96, "h": 48 },
    "duration": 70
   },
   {
    "filename": "Player_Prisoner #TakingBandana 41.ase",
    "frame": { "x": 480, "y": 240, "w": 96, "h": 48 },
    "rotated": false,
    "trimmed": false,
    "spriteSourceSize": { "x": 0, "y": 0, "w": 96, "h": 48 },
    "sourceSize": { "w": 96, "h": 48 },
    "duration": 70
   },
   {
    "filename": "Player_Prisoner #TakingBandana 42.ase",
    "frame": { "x": 576, "y": 240, "w": 96, "h": 48 },
    "rotated": false,
    "trimmed": false,
    "spriteSourceSize": { "x": 0, "y": 0, "w": 96, "h": 48 },
    "sourceSize": { "w": 96, "h": 48 },
    "duration": 70
   },
   {
    "filename": "Player_Prisoner #TakingBandana 43.ase",
    "frame": { "x": 0, "y": 288, "w": 96, "h": 48 },
    "rotated": false,
    "trimmed": false,
    "spriteSourceSize": { "x": 0, "y": 0, "w": 96, "h": 48 },
    "sourceSize": { "w": 96, "h": 48 },
    "duration": 70
   },
   {
    "filename": "Player_Prisoner #TakingBandana 44.ase",
    "frame": { "x": 96, "y": 288, "w": 96, "h": 48 },
    "rotated": false,
    "trimmed": false,
    "spriteSourceSize": { "x": 0, "y": 0, "w": 96, "h": 48 },
    "sourceSize": { "w": 96, "h": 48 },
    "duration": 70
   },
   {
    "filename": "Player_Prisoner #TakingBandana 45.ase",
    "frame": { "x": 192, "y": 288, "w": 96, "h": 48 },
    "rotated": false,
    "trimmed": false,
    "spriteSourceSize": { "x": 0, "y": 0, "w": 96, "h": 48 },
    "sourceSize": { "w": 96, "h": 48 },
    "duration": 70
   },
   {
    "filename": "Player_Prisoner #TakingBandana 46.ase",
    "frame": { "x": 288, "y": 288, "w": 96, "h": 48 },
    "rotated": false,
    "trimmed": false,
    "spriteSourceSize": { "x": 0, "y": 0, "w": 96, "h": 48 },
    "sourceSize": { "w": 96, "h": 48 },
    "duration": 70
   },
   {
    "filename": "Player_Prisoner #TakingBandana 47.ase",
    "frame": { "x": 384, "y": 288, "w": 96, "h": 48 },
    "rotated": false,
    "trimmed": false,
    "spriteSourceSize": { "x": 0, "y": 0, "w": 96, "h": 48 },
    "sourceSize": { "w": 96, "h": 48 },
    "duration": 70
   },
   {
    "filename": "Player_Prisoner #TakingBandana 48.ase",
    "frame": { "x": 480, "y": 288, "w": 96, "h": 48 },
    "rotated": false,
    "trimmed": false,
    "spriteSourceSize": { "x": 0, "y": 0, "w": 96, "h": 48 },
    "sourceSize": { "w": 96, "h": 48 },
    "duration": 70
   },
   {
    "filename": "Player_Prisoner #TakingBandana 49.ase",
    "frame": { "x": 480, "y": 288, "w": 96, "h": 48 },
    "rotated": false,
    "trimmed": false,
    "spriteSourceSize": { "x": 0, "y": 0, "w": 96, "h": 48 },
    "sourceSize": { "w": 96, "h": 48 },
    "duration": 70
   }
 ],
 "meta": {
  "app": "http://www.aseprite.org/",
  "version": "1.2.21-x64",
  "image": "Player_Prisoner-TakingBandana.png",
  "format": "RGBA8888",
  "size": { "w": 672, "h": 336 },
  "scale": "1",
  "slices": [
  ]
 }
}
