%YAML 1.1
%TAG !u! tag:unity3d.com,2011:
--- !u!74 &7400000
AnimationClip:
  m_ObjectHideFlags: 0
  m_CorrespondingSourceObject: {fileID: 0}
  m_PrefabInstance: {fileID: 0}
  m_PrefabAsset: {fileID: 0}
  m_Name: Clip_Naginata_Player_QTE_ROOT_Naginata_Block
  serializedVersion: 6
  m_Legacy: 0
  m_Compressed: 0
  m_UseHighQualityCurve: 1
  m_RotationCurves: []
  m_CompressedRotationCurves: []
  m_EulerCurves: []
  m_PositionCurves:
  - curve:
      serializedVersion: 2
      m_Curve:
      - serializedVersion: 3
        time: 0
        value: {x: 1.40625, y: 0.53125, z: 0}
        inSlope: {x: Infinity, y: Infinity, z: 0}
        outSlope: {x: -Infinity, y: -Infinity, z: 0}
        tangentMode: 0
        weightedMode: 0
        inWeight: {x: 0, y: 0, z: 0.33333334}
        outWeight: {x: 0, y: 0, z: 0.33333334}
      - serializedVersion: 3
        time: 0.1
        value: {x: 1.40625, y: 0.53125, z: 0}
        inSlope: {x: Infinity, y: Infinity, z: 0}
        outSlope: {x: -Infinity, y: -Infinity, z: 0}
        tangentMode: 0
        weightedMode: 0
        inWeight: {x: 0, y: 0, z: 0.33333334}
        outWeight: {x: 0, y: 0, z: 0.33333334}
      - serializedVersion: 3
        time: 0.16
        value: {x: 1.3125, y: 1.5625, z: 0}
        inSlope: {x: Infinity, y: Infinity, z: 0}
        outSlope: {x: -Infinity, y: -Infinity, z: 0}
        tangentMode: 0
        weightedMode: 0
        inWeight: {x: 0, y: 0, z: 0.33333334}
        outWeight: {x: 0, y: 0, z: 0.33333334}
      - serializedVersion: 3
        time: 0.26
        value: {x: 1.5625, y: 1.65625, z: 0}
        inSlope: {x: Infinity, y: Infinity, z: 0}
        outSlope: {x: -Infinity, y: -Infinity, z: 0}
        tangentMode: 0
        weightedMode: 0
        inWeight: {x: 0, y: 0, z: 0.33333334}
        outWeight: {x: 0, y: 0, z: 0.33333334}
      - serializedVersion: 3
        time: 0.35999998
        value: {x: 1.78125, y: 1.5, z: 0}
        inSlope: {x: Infinity, y: Infinity, z: 0}
        outSlope: {x: -Infinity, y: -Infinity, z: 0}
        tangentMode: 0
        weightedMode: 0
        inWeight: {x: 0, y: 0, z: 0.33333334}
        outWeight: {x: 0, y: 0, z: 0.33333334}
      - serializedVersion: 3
        time: 0.45999998
        value: {x: 2, y: 0.46875, z: 0}
        inSlope: {x: Infinity, y: Infinity, z: 0}
        outSlope: {x: -Infinity, y: -Infinity, z: 0}
        tangentMode: 0
        weightedMode: 0
        inWeight: {x: 0, y: 0, z: 0.33333334}
        outWeight: {x: 0, y: 0, z: 0.33333334}
      - serializedVersion: 3
        time: 0.56
        value: {x: 2.40625, y: 0.34375, z: 0}
        inSlope: {x: Infinity, y: Infinity, z: 0}
        outSlope: {x: -Infinity, y: -Infinity, z: 0}
        tangentMode: 0
        weightedMode: 0
        inWeight: {x: 0, y: 0, z: 0.33333334}
        outWeight: {x: 0, y: 0, z: 0.33333334}
      - serializedVersion: 3
        time: 0.66
        value: {x: 2.625, y: 0.34375, z: 0}
        inSlope: {x: Infinity, y: Infinity, z: 0}
        outSlope: {x: -Infinity, y: -Infinity, z: 0}
        tangentMode: 0
        weightedMode: 0
        inWeight: {x: 0, y: 0, z: 0.33333334}
        outWeight: {x: 0, y: 0, z: 0.33333334}
      - serializedVersion: 3
        time: 0.76000005
        value: {x: 2.6875, y: 0.40625, z: 0}
        inSlope: {x: Infinity, y: Infinity, z: 0}
        outSlope: {x: -Infinity, y: -Infinity, z: 0}
        tangentMode: 0
        weightedMode: 0
        inWeight: {x: 0, y: 0, z: 0.33333334}
        outWeight: {x: 0, y: 0, z: 0.33333334}
      - serializedVersion: 3
        time: 0.8600001
        value: {x: 2.6875, y: 0.40625, z: 0}
        inSlope: {x: Infinity, y: Infinity, z: 0}
        outSlope: {x: -Infinity, y: -Infinity, z: 0}
        tangentMode: 0
        weightedMode: 0
        inWeight: {x: 0, y: 0, z: 0.33333334}
        outWeight: {x: 0, y: 0, z: 0.33333334}
      - serializedVersion: 3
        time: 0.9600001
        value: {x: 2.6875, y: 0.40625, z: 0}
        inSlope: {x: Infinity, y: Infinity, z: 0}
        outSlope: {x: -Infinity, y: -Infinity, z: 0}
        tangentMode: 0
        weightedMode: 0
        inWeight: {x: 0, y: 0, z: 0.33333334}
        outWeight: {x: 0, y: 0, z: 0.33333334}
      - serializedVersion: 3
        time: 1.0600001
        value: {x: 2.6875, y: 0.4375, z: 0}
        inSlope: {x: Infinity, y: Infinity, z: 0}
        outSlope: {x: -Infinity, y: -Infinity, z: 0}
        tangentMode: 0
        weightedMode: 0
        inWeight: {x: 0, y: 0, z: 0.33333334}
        outWeight: {x: 0, y: 0, z: 0.33333334}
      - serializedVersion: 3
        time: 1.1600001
        value: {x: 2.6875, y: 0.4375, z: 0}
        inSlope: {x: Infinity, y: Infinity, z: 0}
        outSlope: {x: -Infinity, y: -Infinity, z: 0}
        tangentMode: 0
        weightedMode: 0
        inWeight: {x: 0, y: 0, z: 0.33333334}
        outWeight: {x: 0, y: 0, z: 0.33333334}
      - serializedVersion: 3
        time: 1.2600001
        value: {x: 2.75, y: 0.40625, z: 0}
        inSlope: {x: Infinity, y: Infinity, z: 0}
        outSlope: {x: -Infinity, y: -Infinity, z: 0}
        tangentMode: 0
        weightedMode: 0
        inWeight: {x: 0, y: 0, z: 0.33333334}
        outWeight: {x: 0, y: 0, z: 0.33333334}
      - serializedVersion: 3
        time: 1.3600001
        value: {x: 2.75, y: 0.40625, z: 0}
        inSlope: {x: Infinity, y: Infinity, z: 0}
        outSlope: {x: -Infinity, y: -Infinity, z: 0}
        tangentMode: 0
        weightedMode: 0
        inWeight: {x: 0, y: 0, z: 0.33333334}
        outWeight: {x: 0, y: 0, z: 0.33333334}
      m_PreInfinity: 2
      m_PostInfinity: 2
      m_RotationOrder: 4
    path: 
  - curve:
      serializedVersion: 2
      m_Curve:
      - serializedVersion: 3
        time: 0
        value: {x: 0, y: 0, z: 0}
        inSlope: {x: 0, y: 0, z: 0}
        outSlope: {x: 0, y: 0, z: 0}
        tangentMode: 0
        weightedMode: 0
        inWeight: {x: 0, y: 0, z: 0.33333334}
        outWeight: {x: 0, y: 0, z: 0.33333334}
      - serializedVersion: 3
        time: 1.4600002
        value: {x: 0, y: 0, z: 0}
        inSlope: {x: 0, y: 0, z: 0}
        outSlope: {x: 0, y: 0, z: 0}
        tangentMode: 0
        weightedMode: 0
        inWeight: {x: 0, y: 0, z: 0.33333334}
        outWeight: {x: 0, y: 0, z: 0.33333334}
      m_PreInfinity: 2
      m_PostInfinity: 2
      m_RotationOrder: 4
    path: Visual/Render
  - curve:
      serializedVersion: 2
      m_Curve:
      - serializedVersion: 3
        time: 0
        value: {x: 0.84375, y: 0.28125, z: 0}
        inSlope: {x: Infinity, y: Infinity, z: 0}
        outSlope: {x: -Infinity, y: -Infinity, z: 0}
        tangentMode: 0
        weightedMode: 0
        inWeight: {x: 0, y: 0, z: 0.33333334}
        outWeight: {x: 0, y: 0, z: 0.33333334}
      - serializedVersion: 3
        time: 0.16
        value: {x: 0.625, y: 0.25, z: 0}
        inSlope: {x: Infinity, y: Infinity, z: 0}
        outSlope: {x: -Infinity, y: -Infinity, z: 0}
        tangentMode: 0
        weightedMode: 0
        inWeight: {x: 0, y: 0, z: 0.33333334}
        outWeight: {x: 0, y: 0, z: 0.33333334}
      - serializedVersion: 3
        time: 0.26
        value: {x: 0.625, y: 0.15625, z: 0}
        inSlope: {x: Infinity, y: Infinity, z: 0}
        outSlope: {x: -Infinity, y: -Infinity, z: 0}
        tangentMode: 0
        weightedMode: 0
        inWeight: {x: 0, y: 0, z: 0.33333334}
        outWeight: {x: 0, y: 0, z: 0.33333334}
      - serializedVersion: 3
        time: 0.35999998
        value: {x: 0.59375, y: 0.125, z: 0}
        inSlope: {x: Infinity, y: Infinity, z: 0}
        outSlope: {x: -Infinity, y: -Infinity, z: 0}
        tangentMode: 0
        weightedMode: 0
        inWeight: {x: 0, y: 0, z: 0.33333334}
        outWeight: {x: 0, y: 0, z: 0.33333334}
      - serializedVersion: 3
        time: 0.45999998
        value: {x: 0.625, y: 0.09375, z: 0}
        inSlope: {x: Infinity, y: Infinity, z: 0}
        outSlope: {x: -Infinity, y: -Infinity, z: 0}
        tangentMode: 0
        weightedMode: 0
        inWeight: {x: 0, y: 0, z: 0.33333334}
        outWeight: {x: 0, y: 0, z: 0.33333334}
      - serializedVersion: 3
        time: 0.56
        value: {x: 0.40625, y: 0.34375, z: 0}
        inSlope: {x: Infinity, y: Infinity, z: 0}
        outSlope: {x: -Infinity, y: -Infinity, z: 0}
        tangentMode: 0
        weightedMode: 0
        inWeight: {x: 0, y: 0, z: 0.33333334}
        outWeight: {x: 0, y: 0, z: 0.33333334}
      - serializedVersion: 3
        time: 0.66
        value: {x: 0.3125, y: 0.34375, z: 0}
        inSlope: {x: Infinity, y: Infinity, z: 0}
        outSlope: {x: -Infinity, y: -Infinity, z: 0}
        tangentMode: 0
        weightedMode: 0
        inWeight: {x: 0, y: 0, z: 0.33333334}
        outWeight: {x: 0, y: 0, z: 0.33333334}
      - serializedVersion: 3
        time: 0.76000005
        value: {x: 0.3125, y: 0.28125, z: 0}
        inSlope: {x: Infinity, y: Infinity, z: 0}
        outSlope: {x: -Infinity, y: -Infinity, z: 0}
        tangentMode: 0
        weightedMode: 0
        inWeight: {x: 0, y: 0, z: 0.33333334}
        outWeight: {x: 0, y: 0, z: 0.33333334}
      - serializedVersion: 3
        time: 0.8600001
        value: {x: 0.3125, y: 0.28125, z: 0}
        inSlope: {x: Infinity, y: Infinity, z: 0}
        outSlope: {x: -Infinity, y: -Infinity, z: 0}
        tangentMode: 0
        weightedMode: 0
        inWeight: {x: 0, y: 0, z: 0.33333334}
        outWeight: {x: 0, y: 0, z: 0.33333334}
      - serializedVersion: 3
        time: 1.0600001
        value: {x: 0.3125, y: 0.3125, z: 0}
        inSlope: {x: Infinity, y: Infinity, z: 0}
        outSlope: {x: -Infinity, y: -Infinity, z: 0}
        tangentMode: 0
        weightedMode: 0
        inWeight: {x: 0, y: 0, z: 0.33333334}
        outWeight: {x: 0, y: 0, z: 0.33333334}
      - serializedVersion: 3
        time: 1.1600001
        value: {x: 0.375, y: 0.3125, z: 0}
        inSlope: {x: Infinity, y: Infinity, z: 0}
        outSlope: {x: -Infinity, y: -Infinity, z: 0}
        tangentMode: 0
        weightedMode: 0
        inWeight: {x: 0, y: 0, z: 0.33333334}
        outWeight: {x: 0, y: 0, z: 0.33333334}
      - serializedVersion: 3
        time: 1.2600001
        value: {x: 0.3125, y: 0.28125, z: 0}
        inSlope: {x: Infinity, y: Infinity, z: 0}
        outSlope: {x: -Infinity, y: -Infinity, z: 0}
        tangentMode: 0
        weightedMode: 0
        inWeight: {x: 0, y: 0, z: 0.33333334}
        outWeight: {x: 0, y: 0, z: 0.33333334}
      - serializedVersion: 3
        time: 1.3600001
        value: {x: 0.3125, y: 0.28125, z: 0}
        inSlope: {x: Infinity, y: Infinity, z: 0}
        outSlope: {x: -Infinity, y: -Infinity, z: 0}
        tangentMode: 0
        weightedMode: 0
        inWeight: {x: 0, y: 0, z: 0.33333334}
        outWeight: {x: 0, y: 0, z: 0.33333334}
      m_PreInfinity: 2
      m_PostInfinity: 2
      m_RotationOrder: 4
    path: Visual/Pivot_Scarf
  m_ScaleCurves: []
  m_FloatCurves: []
  m_PPtrCurves:
  - curve:
    - time: 0
      value: {fileID: 1873249126294214652, guid: da363ab8ade9fb746a5d52b84ac1c69e,
        type: 3}
    - time: 0.1
      value: {fileID: 4470474409566188692, guid: da363ab8ade9fb746a5d52b84ac1c69e,
        type: 3}
    - time: 0.16
      value: {fileID: -5677229544698170460, guid: da363ab8ade9fb746a5d52b84ac1c69e,
        type: 3}
    - time: 0.26
      value: {fileID: -8205041671400096575, guid: da363ab8ade9fb746a5d52b84ac1c69e,
        type: 3}
    - time: 0.35999998
      value: {fileID: 4779922590725716406, guid: da363ab8ade9fb746a5d52b84ac1c69e,
        type: 3}
    - time: 0.45999998
      value: {fileID: 3058903149945842343, guid: da363ab8ade9fb746a5d52b84ac1c69e,
        type: 3}
    - time: 0.56
      value: {fileID: -8089054118284451962, guid: da363ab8ade9fb746a5d52b84ac1c69e,
        type: 3}
    - time: 0.66
      value: {fileID: -1128169256690313974, guid: da363ab8ade9fb746a5d52b84ac1c69e,
        type: 3}
    - time: 0.76000005
      value: {fileID: -8506725124427997953, guid: da363ab8ade9fb746a5d52b84ac1c69e,
        type: 3}
    - time: 0.8600001
      value: {fileID: -7738323106366115372, guid: da363ab8ade9fb746a5d52b84ac1c69e,
        type: 3}
    - time: 0.9600001
      value: {fileID: -6125487137957139913, guid: da363ab8ade9fb746a5d52b84ac1c69e,
        type: 3}
    - time: 1.0600001
      value: {fileID: -4286326172606983025, guid: da363ab8ade9fb746a5d52b84ac1c69e,
        type: 3}
    - time: 1.1600001
      value: {fileID: 7144917173705483948, guid: da363ab8ade9fb746a5d52b84ac1c69e,
        type: 3}
    - time: 1.2600001
      value: {fileID: 2925413697847531945, guid: da363ab8ade9fb746a5d52b84ac1c69e,
        type: 3}
    - time: 1.3600001
      value: {fileID: 2925413697847531945, guid: da363ab8ade9fb746a5d52b84ac1c69e,
        type: 3}
    attribute: m_Sprite
    path: Visual/Render
    classID: 212
    script: {fileID: 0}
  m_SampleRate: 60
  m_WrapMode: 0
  m_Bounds:
    m_Center: {x: 0, y: 0, z: 0}
    m_Extent: {x: 0, y: 0, z: 0}
  m_ClipBindingConstant:
    genericBindings:
    - serializedVersion: 2
      path: 0
      attribute: 1
      script: {fileID: 0}
      typeID: 4
      customType: 0
      isPPtrCurve: 0
    - serializedVersion: 2
      path: 1602060776
      attribute: 1
      script: {fileID: 0}
      typeID: 4
      customType: 0
      isPPtrCurve: 0
    - serializedVersion: 2
      path: 3017528832
      attribute: 0
      script: {fileID: 0}
      typeID: 212
      customType: 23
      isPPtrCurve: 1
    - serializedVersion: 2
      path: 3017528832
      attribute: 1
      script: {fileID: 0}
      typeID: 4
      customType: 0
      isPPtrCurve: 0
    pptrCurveMapping:
    - {fileID: 1873249126294214652, guid: da363ab8ade9fb746a5d52b84ac1c69e, type: 3}
    - {fileID: 4470474409566188692, guid: da363ab8ade9fb746a5d52b84ac1c69e, type: 3}
    - {fileID: -5677229544698170460, guid: da363ab8ade9fb746a5d52b84ac1c69e, type: 3}
    - {fileID: -8205041671400096575, guid: da363ab8ade9fb746a5d52b84ac1c69e, type: 3}
    - {fileID: 4779922590725716406, guid: da363ab8ade9fb746a5d52b84ac1c69e, type: 3}
    - {fileID: 3058903149945842343, guid: da363ab8ade9fb746a5d52b84ac1c69e, type: 3}
    - {fileID: -8089054118284451962, guid: da363ab8ade9fb746a5d52b84ac1c69e, type: 3}
    - {fileID: -1128169256690313974, guid: da363ab8ade9fb746a5d52b84ac1c69e, type: 3}
    - {fileID: -8506725124427997953, guid: da363ab8ade9fb746a5d52b84ac1c69e, type: 3}
    - {fileID: -7738323106366115372, guid: da363ab8ade9fb746a5d52b84ac1c69e, type: 3}
    - {fileID: -6125487137957139913, guid: da363ab8ade9fb746a5d52b84ac1c69e, type: 3}
    - {fileID: -4286326172606983025, guid: da363ab8ade9fb746a5d52b84ac1c69e, type: 3}
    - {fileID: 7144917173705483948, guid: da363ab8ade9fb746a5d52b84ac1c69e, type: 3}
    - {fileID: 2925413697847531945, guid: da363ab8ade9fb746a5d52b84ac1c69e, type: 3}
    - {fileID: 2925413697847531945, guid: da363ab8ade9fb746a5d52b84ac1c69e, type: 3}
  m_AnimationClipSettings:
    serializedVersion: 2
    m_AdditiveReferencePoseClip: {fileID: 0}
    m_AdditiveReferencePoseTime: 0
    m_StartTime: 0
    m_StopTime: 1.4600002
    m_OrientationOffsetY: 0
    m_Level: 0
    m_CycleOffset: 0
    m_HasAdditiveReferencePose: 0
    m_LoopTime: 0
    m_LoopBlend: 0
    m_LoopBlendOrientation: 0
    m_LoopBlendPositionY: 0
    m_LoopBlendPositionXZ: 0
    m_KeepOriginalOrientation: 0
    m_KeepOriginalPositionY: 1
    m_KeepOriginalPositionXZ: 0
    m_HeightFromFeet: 0
    m_Mirror: 0
  m_EditorCurves:
  - curve:
      serializedVersion: 2
      m_Curve:
      - serializedVersion: 3
        time: 0
        value: 1.40625
        inSlope: Infinity
        outSlope: -Infinity
        tangentMode: 0
        weightedMode: 0
        inWeight: 0
        outWeight: 0
      - serializedVersion: 3
        time: 0.1
        value: 1.40625
        inSlope: Infinity
        outSlope: -Infinity
        tangentMode: 0
        weightedMode: 0
        inWeight: 0
        outWeight: 0
      - serializedVersion: 3
        time: 0.16
        value: 1.3125
        inSlope: Infinity
        outSlope: -Infinity
        tangentMode: 0
        weightedMode: 0
        inWeight: 0
        outWeight: 0
      - serializedVersion: 3
        time: 0.26
        value: 1.5625
        inSlope: Infinity
        outSlope: -Infinity
        tangentMode: 0
        weightedMode: 0
        inWeight: 0
        outWeight: 0
      - serializedVersion: 3
        time: 0.35999998
        value: 1.78125
        inSlope: Infinity
        outSlope: -Infinity
        tangentMode: 0
        weightedMode: 0
        inWeight: 0
        outWeight: 0
      - serializedVersion: 3
        time: 0.45999998
        value: 2
        inSlope: Infinity
        outSlope: -Infinity
        tangentMode: 0
        weightedMode: 0
        inWeight: 0
        outWeight: 0
      - serializedVersion: 3
        time: 0.56
        value: 2.40625
        inSlope: Infinity
        outSlope: -Infinity
        tangentMode: 0
        weightedMode: 0
        inWeight: 0
        outWeight: 0
      - serializedVersion: 3
        time: 0.66
        value: 2.625
        inSlope: Infinity
        outSlope: -Infinity
        tangentMode: 0
        weightedMode: 0
        inWeight: 0
        outWeight: 0
      - serializedVersion: 3
        time: 0.76000005
        value: 2.6875
        inSlope: Infinity
        outSlope: -Infinity
        tangentMode: 0
        weightedMode: 0
        inWeight: 0
        outWeight: 0
      - serializedVersion: 3
        time: 0.8600001
        value: 2.6875
        inSlope: Infinity
        outSlope: -Infinity
        tangentMode: 0
        weightedMode: 0
        inWeight: 0
        outWeight: 0
      - serializedVersion: 3
        time: 0.9600001
        value: 2.6875
        inSlope: Infinity
        outSlope: -Infinity
        tangentMode: 0
        weightedMode: 0
        inWeight: 0
        outWeight: 0
      - serializedVersion: 3
        time: 1.0600001
        value: 2.6875
        inSlope: Infinity
        outSlope: -Infinity
        tangentMode: 0
        weightedMode: 0
        inWeight: 0
        outWeight: 0
      - serializedVersion: 3
        time: 1.1600001
        value: 2.6875
        inSlope: Infinity
        outSlope: -Infinity
        tangentMode: 0
        weightedMode: 0
        inWeight: 0
        outWeight: 0
      - serializedVersion: 3
        time: 1.2600001
        value: 2.75
        inSlope: Infinity
        outSlope: -Infinity
        tangentMode: 0
        weightedMode: 0
        inWeight: 0
        outWeight: 0
      - serializedVersion: 3
        time: 1.3600001
        value: 2.75
        inSlope: Infinity
        outSlope: -Infinity
        tangentMode: 0
        weightedMode: 0
        inWeight: 0
        outWeight: 0
      m_PreInfinity: 2
      m_PostInfinity: 2
      m_RotationOrder: 4
    attribute: m_LocalPosition.x
    path: 
    classID: 4
    script: {fileID: 0}
  - curve:
      serializedVersion: 2
      m_Curve:
      - serializedVersion: 3
        time: 0
        value: 0.53125
        inSlope: Infinity
        outSlope: -Infinity
        tangentMode: 0
        weightedMode: 0
        inWeight: 0
        outWeight: 0
      - serializedVersion: 3
        time: 0.1
        value: 0.53125
        inSlope: Infinity
        outSlope: -Infinity
        tangentMode: 0
        weightedMode: 0
        inWeight: 0
        outWeight: 0
      - serializedVersion: 3
        time: 0.16
        value: 1.5625
        inSlope: Infinity
        outSlope: -Infinity
        tangentMode: 0
        weightedMode: 0
        inWeight: 0
        outWeight: 0
      - serializedVersion: 3
        time: 0.26
        value: 1.65625
        inSlope: Infinity
        outSlope: -Infinity
        tangentMode: 0
        weightedMode: 0
        inWeight: 0
        outWeight: 0
      - serializedVersion: 3
        time: 0.35999998
        value: 1.5
        inSlope: Infinity
        outSlope: -Infinity
        tangentMode: 0
        weightedMode: 0
        inWeight: 0
        outWeight: 0
      - serializedVersion: 3
        time: 0.45999998
        value: 0.46875
        inSlope: Infinity
        outSlope: -Infinity
        tangentMode: 0
        weightedMode: 0
        inWeight: 0
        outWeight: 0
      - serializedVersion: 3
        time: 0.56
        value: 0.34375
        inSlope: Infinity
        outSlope: -Infinity
        tangentMode: 0
        weightedMode: 0
        inWeight: 0
        outWeight: 0
      - serializedVersion: 3
        time: 0.66
        value: 0.34375
        inSlope: Infinity
        outSlope: -Infinity
        tangentMode: 0
        weightedMode: 0
        inWeight: 0
        outWeight: 0
      - serializedVersion: 3
        time: 0.76000005
        value: 0.40625
        inSlope: Infinity
        outSlope: -Infinity
        tangentMode: 0
        weightedMode: 0
        inWeight: 0
        outWeight: 0
      - serializedVersion: 3
        time: 0.8600001
        value: 0.40625
        inSlope: Infinity
        outSlope: -Infinity
        tangentMode: 0
        weightedMode: 0
        inWeight: 0
        outWeight: 0
      - serializedVersion: 3
        time: 0.9600001
        value: 0.40625
        inSlope: Infinity
        outSlope: -Infinity
        tangentMode: 0
        weightedMode: 0
        inWeight: 0
        outWeight: 0
      - serializedVersion: 3
        time: 1.0600001
        value: 0.4375
        inSlope: Infinity
        outSlope: -Infinity
        tangentMode: 0
        weightedMode: 0
        inWeight: 0
        outWeight: 0
      - serializedVersion: 3
        time: 1.1600001
        value: 0.4375
        inSlope: Infinity
        outSlope: -Infinity
        tangentMode: 0
        weightedMode: 0
        inWeight: 0
        outWeight: 0
      - serializedVersion: 3
        time: 1.2600001
        value: 0.40625
        inSlope: Infinity
        outSlope: -Infinity
        tangentMode: 0
        weightedMode: 0
        inWeight: 0
        outWeight: 0
      - serializedVersion: 3
        time: 1.3600001
        value: 0.40625
        inSlope: Infinity
        outSlope: -Infinity
        tangentMode: 0
        weightedMode: 0
        inWeight: 0
        outWeight: 0
      m_PreInfinity: 2
      m_PostInfinity: 2
      m_RotationOrder: 4
    attribute: m_LocalPosition.y
    path: 
    classID: 4
    script: {fileID: 0}
  - curve:
      serializedVersion: 2
      m_Curve:
      - serializedVersion: 3
        time: 0
        value: 0
        inSlope: 0
        outSlope: 0
        tangentMode: 0
        weightedMode: 0
        inWeight: 0
        outWeight: 0
      - serializedVersion: 3
        time: 1.4600002
        value: 0
        inSlope: 0
        outSlope: 0
        tangentMode: 0
        weightedMode: 0
        inWeight: 0
        outWeight: 0
      m_PreInfinity: 2
      m_PostInfinity: 2
      m_RotationOrder: 4
    attribute: m_LocalPosition.x
    path: Visual/Render
    classID: 4
    script: {fileID: 0}
  - curve:
      serializedVersion: 2
      m_Curve:
      - serializedVersion: 3
        time: 0
        value: 0
        inSlope: 0
        outSlope: 0
        tangentMode: 0
        weightedMode: 0
        inWeight: 0
        outWeight: 0
      - serializedVersion: 3
        time: 1.4600002
        value: 0
        inSlope: 0
        outSlope: 0
        tangentMode: 0
        weightedMode: 0
        inWeight: 0
        outWeight: 0
      m_PreInfinity: 2
      m_PostInfinity: 2
      m_RotationOrder: 4
    attribute: m_LocalPosition.y
    path: Visual/Render
    classID: 4
    script: {fileID: 0}
  - curve:
      serializedVersion: 2
      m_Curve:
      - serializedVersion: 3
        time: 0
        value: 0.84375
        inSlope: Infinity
        outSlope: -Infinity
        tangentMode: 0
        weightedMode: 0
        inWeight: 0
        outWeight: 0
      - serializedVersion: 3
        time: 0.16
        value: 0.625
        inSlope: Infinity
        outSlope: -Infinity
        tangentMode: 0
        weightedMode: 0
        inWeight: 0
        outWeight: 0
      - serializedVersion: 3
        time: 0.26
        value: 0.625
        inSlope: Infinity
        outSlope: -Infinity
        tangentMode: 0
        weightedMode: 0
        inWeight: 0
        outWeight: 0
      - serializedVersion: 3
        time: 0.35999998
        value: 0.59375
        inSlope: Infinity
        outSlope: -Infinity
        tangentMode: 0
        weightedMode: 0
        inWeight: 0
        outWeight: 0
      - serializedVersion: 3
        time: 0.45999998
        value: 0.625
        inSlope: Infinity
        outSlope: -Infinity
        tangentMode: 0
        weightedMode: 0
        inWeight: 0
        outWeight: 0
      - serializedVersion: 3
        time: 0.56
        value: 0.40625
        inSlope: Infinity
        outSlope: -Infinity
        tangentMode: 0
        weightedMode: 0
        inWeight: 0
        outWeight: 0
      - serializedVersion: 3
        time: 0.66
        value: 0.3125
        inSlope: Infinity
        outSlope: -Infinity
        tangentMode: 0
        weightedMode: 0
        inWeight: 0
        outWeight: 0
      - serializedVersion: 3
        time: 0.76000005
        value: 0.3125
        inSlope: Infinity
        outSlope: -Infinity
        tangentMode: 0
        weightedMode: 0
        inWeight: 0
        outWeight: 0
      - serializedVersion: 3
        time: 0.8600001
        value: 0.3125
        inSlope: Infinity
        outSlope: -Infinity
        tangentMode: 0
        weightedMode: 0
        inWeight: 0
        outWeight: 0
      - serializedVersion: 3
        time: 1.0600001
        value: 0.3125
        inSlope: Infinity
        outSlope: -Infinity
        tangentMode: 0
        weightedMode: 0
        inWeight: 0
        outWeight: 0
      - serializedVersion: 3
        time: 1.1600001
        value: 0.375
        inSlope: Infinity
        outSlope: -Infinity
        tangentMode: 0
        weightedMode: 0
        inWeight: 0
        outWeight: 0
      - serializedVersion: 3
        time: 1.2600001
        value: 0.3125
        inSlope: Infinity
        outSlope: -Infinity
        tangentMode: 0
        weightedMode: 0
        inWeight: 0
        outWeight: 0
      - serializedVersion: 3
        time: 1.3600001
        value: 0.3125
        inSlope: Infinity
        outSlope: -Infinity
        tangentMode: 0
        weightedMode: 0
        inWeight: 0
        outWeight: 0
      m_PreInfinity: 2
      m_PostInfinity: 2
      m_RotationOrder: 4
    attribute: m_LocalPosition.x
    path: Visual/Pivot_Scarf
    classID: 4
    script: {fileID: 0}
  - curve:
      serializedVersion: 2
      m_Curve:
      - serializedVersion: 3
        time: 0
        value: 0.28125
        inSlope: Infinity
        outSlope: -Infinity
        tangentMode: 0
        weightedMode: 0
        inWeight: 0
        outWeight: 0
      - serializedVersion: 3
        time: 0.16
        value: 0.25
        inSlope: Infinity
        outSlope: -Infinity
        tangentMode: 0
        weightedMode: 0
        inWeight: 0
        outWeight: 0
      - serializedVersion: 3
        time: 0.26
        value: 0.15625
        inSlope: Infinity
        outSlope: -Infinity
        tangentMode: 0
        weightedMode: 0
        inWeight: 0
        outWeight: 0
      - serializedVersion: 3
        time: 0.35999998
        value: 0.125
        inSlope: Infinity
        outSlope: -Infinity
        tangentMode: 0
        weightedMode: 0
        inWeight: 0
        outWeight: 0
      - serializedVersion: 3
        time: 0.45999998
        value: 0.09375
        inSlope: Infinity
        outSlope: -Infinity
        tangentMode: 0
        weightedMode: 0
        inWeight: 0
        outWeight: 0
      - serializedVersion: 3
        time: 0.56
        value: 0.34375
        inSlope: Infinity
        outSlope: -Infinity
        tangentMode: 0
        weightedMode: 0
        inWeight: 0
        outWeight: 0
      - serializedVersion: 3
        time: 0.66
        value: 0.34375
        inSlope: Infinity
        outSlope: -Infinity
        tangentMode: 0
        weightedMode: 0
        inWeight: 0
        outWeight: 0
      - serializedVersion: 3
        time: 0.76000005
        value: 0.28125
        inSlope: Infinity
        outSlope: -Infinity
        tangentMode: 0
        weightedMode: 0
        inWeight: 0
        outWeight: 0
      - serializedVersion: 3
        time: 0.8600001
        value: 0.28125
        inSlope: Infinity
        outSlope: -Infinity
        tangentMode: 0
        weightedMode: 0
        inWeight: 0
        outWeight: 0
      - serializedVersion: 3
        time: 1.0600001
        value: 0.3125
        inSlope: Infinity
        outSlope: -Infinity
        tangentMode: 0
        weightedMode: 0
        inWeight: 0
        outWeight: 0
      - serializedVersion: 3
        time: 1.1600001
        value: 0.3125
        inSlope: Infinity
        outSlope: -Infinity
        tangentMode: 0
        weightedMode: 0
        inWeight: 0
        outWeight: 0
      - serializedVersion: 3
        time: 1.2600001
        value: 0.28125
        inSlope: Infinity
        outSlope: -Infinity
        tangentMode: 0
        weightedMode: 0
        inWeight: 0
        outWeight: 0
      - serializedVersion: 3
        time: 1.3600001
        value: 0.28125
        inSlope: Infinity
        outSlope: -Infinity
        tangentMode: 0
        weightedMode: 0
        inWeight: 0
        outWeight: 0
      m_PreInfinity: 2
      m_PostInfinity: 2
      m_RotationOrder: 4
    attribute: m_LocalPosition.y
    path: Visual/Pivot_Scarf
    classID: 4
    script: {fileID: 0}
  m_EulerEditorCurves: []
  m_HasGenericRootTransform: 1
  m_HasMotionFloatCurves: 0
  m_Events: []
