%YAML 1.1
%TAG !u! tag:unity3d.com,2011:
--- !u!114 &11400000
MonoBehaviour:
  m_ObjectHideFlags: 0
  m_CorrespondingSourceObject: {fileID: 0}
  m_PrefabInstance: {fileID: 0}
  m_PrefabAsset: {fileID: 0}
  m_GameObject: {fileID: 0}
  m_Enabled: 1
  m_EditorHideFlags: 0
  m_Script: {fileID: 11500000, guid: 0b90abb7a968d3a4183f278a86368d56, type: 3}
  m_Name: LevelSelectionState_Prefabs
  m_EditorClassIdentifier: 
  Parent: {fileID: 0}
  instantiableReferences:
  - m_AssetGUID: f8a0db6b07e44a0409bdc8d7b7c2920c
    m_SubObjectName: 
  - m_AssetGUID: ad1342c4b84003c4b9e40be8bbc2d904
    m_SubObjectName: 
  scriptableObjectsReferences: []
