%YAML 1.1
%TAG !u! tag:unity3d.com,2011:
--- !u!1001 &3895998247446014874
PrefabInstance:
  m_ObjectHideFlags: 0
  serializedVersion: 2
  m_Modification:
    m_TransformParent: {fileID: 0}
    m_Modifications:
    - target: {fileID: 765528109, guid: 15a56e83c754c034cbb5a8fff57a315d, type: 3}
      propertyPath: m_LocalRotation.x
      value: -0
      objectReference: {fileID: 0}
    - target: {fileID: 765528109, guid: 15a56e83c754c034cbb5a8fff57a315d, type: 3}
      propertyPath: m_LocalRotation.y
      value: -0
      objectReference: {fileID: 0}
    - target: {fileID: 765528109, guid: 15a56e83c754c034cbb5a8fff57a315d, type: 3}
      propertyPath: m_LocalRotation.z
      value: 0.7071058
      objectReference: {fileID: 0}
    - target: {fileID: 765528109, guid: 15a56e83c754c034cbb5a8fff57a315d, type: 3}
      propertyPath: m_LocalRotation.w
      value: 0.7071078
      objectReference: {fileID: 0}
    - target: {fileID: 765528109, guid: 15a56e83c754c034cbb5a8fff57a315d, type: 3}
      propertyPath: m_LocalEulerAnglesHint.z
      value: 90.00001
      objectReference: {fileID: 0}
    - target: {fileID: 1302405312, guid: 15a56e83c754c034cbb5a8fff57a315d, type: 3}
      propertyPath: m_LocalPosition.x
      value: 0
      objectReference: {fileID: 0}
    - target: {fileID: 1302405312, guid: 15a56e83c754c034cbb5a8fff57a315d, type: 3}
      propertyPath: m_LocalPosition.y
      value: 0
      objectReference: {fileID: 0}
    - target: {fileID: 1759472595, guid: 15a56e83c754c034cbb5a8fff57a315d, type: 3}
      propertyPath: m_LocalRotation.w
      value: 1
      objectReference: {fileID: 0}
    - target: {fileID: 1401928232000763231, guid: 15a56e83c754c034cbb5a8fff57a315d,
        type: 3}
      propertyPath: OnWaitDone.m_PersistentCalls.m_Calls.Array.data[0].m_MethodName
      value: PlayFloorAnimation
      objectReference: {fileID: 0}
    - target: {fileID: 9005610145657302388, guid: 15a56e83c754c034cbb5a8fff57a315d,
        type: 3}
      propertyPath: m_Name
      value: Boss_Naginata_Impact_Floor Variant
      objectReference: {fileID: 0}
    - target: {fileID: 9005610145657302389, guid: 15a56e83c754c034cbb5a8fff57a315d,
        type: 3}
      propertyPath: m_LocalPosition.x
      value: 3
      objectReference: {fileID: 0}
    - target: {fileID: 9005610145657302389, guid: 15a56e83c754c034cbb5a8fff57a315d,
        type: 3}
      propertyPath: m_LocalPosition.y
      value: 24
      objectReference: {fileID: 0}
    - target: {fileID: 9005610145657302389, guid: 15a56e83c754c034cbb5a8fff57a315d,
        type: 3}
      propertyPath: m_LocalPosition.z
      value: 0
      objectReference: {fileID: 0}
    - target: {fileID: 9005610145657302389, guid: 15a56e83c754c034cbb5a8fff57a315d,
        type: 3}
      propertyPath: m_LocalRotation.x
      value: 0
      objectReference: {fileID: 0}
    - target: {fileID: 9005610145657302389, guid: 15a56e83c754c034cbb5a8fff57a315d,
        type: 3}
      propertyPath: m_LocalRotation.y
      value: 0
      objectReference: {fileID: 0}
    - target: {fileID: 9005610145657302389, guid: 15a56e83c754c034cbb5a8fff57a315d,
        type: 3}
      propertyPath: m_LocalRotation.z
      value: 0
      objectReference: {fileID: 0}
    - target: {fileID: 9005610145657302389, guid: 15a56e83c754c034cbb5a8fff57a315d,
        type: 3}
      propertyPath: m_LocalRotation.w
      value: 1
      objectReference: {fileID: 0}
    - target: {fileID: 9005610145657302389, guid: 15a56e83c754c034cbb5a8fff57a315d,
        type: 3}
      propertyPath: m_RootOrder
      value: 0
      objectReference: {fileID: 0}
    - target: {fileID: 9005610145657302389, guid: 15a56e83c754c034cbb5a8fff57a315d,
        type: 3}
      propertyPath: m_LocalEulerAnglesHint.x
      value: 0
      objectReference: {fileID: 0}
    - target: {fileID: 9005610145657302389, guid: 15a56e83c754c034cbb5a8fff57a315d,
        type: 3}
      propertyPath: m_LocalEulerAnglesHint.y
      value: 0
      objectReference: {fileID: 0}
    - target: {fileID: 9005610145657302389, guid: 15a56e83c754c034cbb5a8fff57a315d,
        type: 3}
      propertyPath: m_LocalEulerAnglesHint.z
      value: 0
      objectReference: {fileID: 0}
    m_RemovedComponents: []
  m_SourcePrefab: {fileID: 100100000, guid: 15a56e83c754c034cbb5a8fff57a315d, type: 3}
