{ "frames": [
   {
    "filename": "NaginataBoss_LaughAndHit 0.aseprite",
    "frame": { "x": 34, "y": 37, "w": 14, "h": 37 },
    "rotated": false,
    "trimmed": true,
    "spriteSourceSize": { "x": 122, "y": 91, "w": 14, "h": 37 },
    "sourceSize": { "w": 256, "h": 256 },
    "duration": 60
   },
   {
    "filename": "NaginataBoss_LaughAndHit 1.aseprite",
    "frame": { "x": 68, "y": 0, "w": 21, "h": 37 },
    "rotated": false,
    "trimmed": true,
    "spriteSourceSize": { "x": 118, "y": 91, "w": 21, "h": 37 },
    "sourceSize": { "w": 256, "h": 256 },
    "duration": 60
   },
   {
    "filename": "NaginataBoss_LaughAndHit 2.aseprite",
    "frame": { "x": 0, "y": 0, "w": 23, "h": 37 },
    "rotated": false,
    "trimmed": true,
    "spriteSourceSize": { "x": 116, "y": 91, "w": 23, "h": 37 },
    "sourceSize": { "w": 256, "h": 256 },
    "duration": 60
   },
   {
    "filename": "NaginataBoss_LaughAndHit 3.aseprite",
    "frame": { "x": 23, "y": 0, "w": 23, "h": 37 },
    "rotated": false,
    "trimmed": true,
    "spriteSourceSize": { "x": 117, "y": 91, "w": 23, "h": 37 },
    "sourceSize": { "w": 256, "h": 256 },
    "duration": 60
   },
   {
    "filename": "NaginataBoss_LaughAndHit 4.aseprite",
    "frame": { "x": 46, "y": 0, "w": 22, "h": 37 },
    "rotated": false,
    "trimmed": true,
    "spriteSourceSize": { "x": 119, "y": 91, "w": 22, "h": 37 },
    "sourceSize": { "w": 256, "h": 256 },
    "duration": 60
   },
   {
    "filename": "NaginataBoss_LaughAndHit 5.aseprite",
    "frame": { "x": 0, "y": 37, "w": 21, "h": 37 },
    "rotated": false,
    "trimmed": true,
    "spriteSourceSize": { "x": 120, "y": 91, "w": 21, "h": 37 },
    "sourceSize": { "w": 256, "h": 256 },
    "duration": 60
   },
   {
    "filename": "NaginataBoss_LaughAndHit 6.aseprite",
    "frame": { "x": 48, "y": 37, "w": 14, "h": 37 },
    "rotated": false,
    "trimmed": true,
    "spriteSourceSize": { "x": 121, "y": 91, "w": 14, "h": 37 },
    "sourceSize": { "w": 256, "h": 256 },
    "duration": 60
   },
   {
    "filename": "NaginataBoss_LaughAndHit 7.aseprite",
    "frame": { "x": 48, "y": 37, "w": 14, "h": 37 },
    "rotated": false,
    "trimmed": true,
    "spriteSourceSize": { "x": 122, "y": 91, "w": 14, "h": 37 },
    "sourceSize": { "w": 256, "h": 256 },
    "duration": 60
   },
   {
    "filename": "NaginataBoss_LaughAndHit 8.aseprite",
    "frame": { "x": 89, "y": 0, "w": 1, "h": 1 },
    "rotated": false,
    "trimmed": true,
    "spriteSourceSize": { "x": 0, "y": 0, "w": 1, "h": 1 },
    "sourceSize": { "w": 256, "h": 256 },
    "duration": 800
   },
   {
    "filename": "NaginataBoss_LaughAndHit 9.aseprite",
    "frame": { "x": 30, "y": 77, "w": 3, "h": 50 },
    "rotated": false,
    "trimmed": true,
    "spriteSourceSize": { "x": 125, "y": 78, "w": 3, "h": 50 },
    "sourceSize": { "w": 256, "h": 256 },
    "duration": 30
   },
   {
    "filename": "NaginataBoss_LaughAndHit 10.aseprite",
    "frame": { "x": 25, "y": 77, "w": 5, "h": 46 },
    "rotated": false,
    "trimmed": true,
    "spriteSourceSize": { "x": 124, "y": 82, "w": 5, "h": 46 },
    "sourceSize": { "w": 256, "h": 256 },
    "duration": 30
   },
   {
    "filename": "NaginataBoss_LaughAndHit 11.aseprite",
    "frame": { "x": 0, "y": 111, "w": 6, "h": 38 },
    "rotated": false,
    "trimmed": true,
    "spriteSourceSize": { "x": 124, "y": 90, "w": 6, "h": 38 },
    "sourceSize": { "w": 256, "h": 256 },
    "duration": 30
   },
   {
    "filename": "NaginataBoss_LaughAndHit 12.aseprite",
    "frame": { "x": 14, "y": 77, "w": 11, "h": 39 },
    "rotated": false,
    "trimmed": true,
    "spriteSourceSize": { "x": 122, "y": 89, "w": 11, "h": 39 },
    "sourceSize": { "w": 256, "h": 256 },
    "duration": 30
   },
   {
    "filename": "NaginataBoss_LaughAndHit 13.aseprite",
    "frame": { "x": 21, "y": 37, "w": 13, "h": 40 },
    "rotated": false,
    "trimmed": true,
    "spriteSourceSize": { "x": 121, "y": 89, "w": 13, "h": 40 },
    "sourceSize": { "w": 256, "h": 256 },
    "duration": 30
   },
   {
    "filename": "NaginataBoss_LaughAndHit 14.aseprite",
    "frame": { "x": 34, "y": 37, "w": 14, "h": 37 },
    "rotated": false,
    "trimmed": true,
    "spriteSourceSize": { "x": 122, "y": 91, "w": 14, "h": 37 },
    "sourceSize": { "w": 256, "h": 256 },
    "duration": 60
   },
   {
    "filename": "NaginataBoss_LaughAndHit 15.aseprite",
    "frame": { "x": 34, "y": 37, "w": 14, "h": 37 },
    "rotated": false,
    "trimmed": true,
    "spriteSourceSize": { "x": 122, "y": 91, "w": 14, "h": 37 },
    "sourceSize": { "w": 256, "h": 256 },
    "duration": 60
   },
   {
    "filename": "NaginataBoss_LaughAndHit 16.aseprite",
    "frame": { "x": 62, "y": 37, "w": 14, "h": 37 },
    "rotated": false,
    "trimmed": true,
    "spriteSourceSize": { "x": 122, "y": 91, "w": 14, "h": 37 },
    "sourceSize": { "w": 256, "h": 256 },
    "duration": 60
   },
   {
    "filename": "NaginataBoss_LaughAndHit 17.aseprite",
    "frame": { "x": 76, "y": 37, "w": 14, "h": 37 },
    "rotated": false,
    "trimmed": true,
    "spriteSourceSize": { "x": 122, "y": 91, "w": 14, "h": 37 },
    "sourceSize": { "w": 256, "h": 256 },
    "duration": 60
   },
   {
    "filename": "NaginataBoss_LaughAndHit 18.aseprite",
    "frame": { "x": 0, "y": 74, "w": 14, "h": 37 },
    "rotated": false,
    "trimmed": true,
    "spriteSourceSize": { "x": 122, "y": 91, "w": 14, "h": 37 },
    "sourceSize": { "w": 256, "h": 256 },
    "duration": 75
   },
   {
    "filename": "NaginataBoss_LaughAndHit 19.aseprite",
    "frame": { "x": 34, "y": 74, "w": 14, "h": 37 },
    "rotated": false,
    "trimmed": true,
    "spriteSourceSize": { "x": 122, "y": 91, "w": 14, "h": 37 },
    "sourceSize": { "w": 256, "h": 256 },
    "duration": 75
   },
   {
    "filename": "NaginataBoss_LaughAndHit 20.aseprite",
    "frame": { "x": 48, "y": 74, "w": 14, "h": 37 },
    "rotated": false,
    "trimmed": true,
    "spriteSourceSize": { "x": 122, "y": 91, "w": 14, "h": 37 },
    "sourceSize": { "w": 256, "h": 256 },
    "duration": 75
   },
   {
    "filename": "NaginataBoss_LaughAndHit 21.aseprite",
    "frame": { "x": 62, "y": 74, "w": 14, "h": 37 },
    "rotated": false,
    "trimmed": true,
    "spriteSourceSize": { "x": 122, "y": 91, "w": 14, "h": 37 },
    "sourceSize": { "w": 256, "h": 256 },
    "duration": 75
   },
   {
    "filename": "NaginataBoss_LaughAndHit 22.aseprite",
    "frame": { "x": 0, "y": 74, "w": 14, "h": 37 },
    "rotated": false,
    "trimmed": true,
    "spriteSourceSize": { "x": 122, "y": 91, "w": 14, "h": 37 },
    "sourceSize": { "w": 256, "h": 256 },
    "duration": 75
   },
   {
    "filename": "NaginataBoss_LaughAndHit 23.aseprite",
    "frame": { "x": 34, "y": 74, "w": 14, "h": 37 },
    "rotated": false,
    "trimmed": true,
    "spriteSourceSize": { "x": 122, "y": 91, "w": 14, "h": 37 },
    "sourceSize": { "w": 256, "h": 256 },
    "duration": 75
   },
   {
    "filename": "NaginataBoss_LaughAndHit 24.aseprite",
    "frame": { "x": 48, "y": 74, "w": 14, "h": 37 },
    "rotated": false,
    "trimmed": true,
    "spriteSourceSize": { "x": 122, "y": 91, "w": 14, "h": 37 },
    "sourceSize": { "w": 256, "h": 256 },
    "duration": 75
   },
   {
    "filename": "NaginataBoss_LaughAndHit 25.aseprite",
    "frame": { "x": 62, "y": 74, "w": 14, "h": 37 },
    "rotated": false,
    "trimmed": true,
    "spriteSourceSize": { "x": 122, "y": 91, "w": 14, "h": 37 },
    "sourceSize": { "w": 256, "h": 256 },
    "duration": 75
   },
   {
    "filename": "NaginataBoss_LaughAndHit 26.aseprite",
    "frame": { "x": 0, "y": 74, "w": 14, "h": 37 },
    "rotated": false,
    "trimmed": true,
    "spriteSourceSize": { "x": 122, "y": 91, "w": 14, "h": 37 },
    "sourceSize": { "w": 256, "h": 256 },
    "duration": 75
   },
   {
    "filename": "NaginataBoss_LaughAndHit 27.aseprite",
    "frame": { "x": 34, "y": 74, "w": 14, "h": 37 },
    "rotated": false,
    "trimmed": true,
    "spriteSourceSize": { "x": 122, "y": 91, "w": 14, "h": 37 },
    "sourceSize": { "w": 256, "h": 256 },
    "duration": 75
   },
   {
    "filename": "NaginataBoss_LaughAndHit 28.aseprite",
    "frame": { "x": 48, "y": 74, "w": 14, "h": 37 },
    "rotated": false,
    "trimmed": true,
    "spriteSourceSize": { "x": 122, "y": 91, "w": 14, "h": 37 },
    "sourceSize": { "w": 256, "h": 256 },
    "duration": 75
   },
   {
    "filename": "NaginataBoss_LaughAndHit 29.aseprite",
    "frame": { "x": 62, "y": 74, "w": 14, "h": 37 },
    "rotated": false,
    "trimmed": true,
    "spriteSourceSize": { "x": 122, "y": 91, "w": 14, "h": 37 },
    "sourceSize": { "w": 256, "h": 256 },
    "duration": 75
   },
   {
    "filename": "NaginataBoss_LaughAndHit 30.aseprite",
    "frame": { "x": 0, "y": 74, "w": 14, "h": 37 },
    "rotated": false,
    "trimmed": true,
    "spriteSourceSize": { "x": 122, "y": 91, "w": 14, "h": 37 },
    "sourceSize": { "w": 256, "h": 256 },
    "duration": 75
   },
   {
    "filename": "NaginataBoss_LaughAndHit 31.aseprite",
    "frame": { "x": 34, "y": 74, "w": 14, "h": 37 },
    "rotated": false,
    "trimmed": true,
    "spriteSourceSize": { "x": 122, "y": 91, "w": 14, "h": 37 },
    "sourceSize": { "w": 256, "h": 256 },
    "duration": 75
   },
   {
    "filename": "NaginataBoss_LaughAndHit 32.aseprite",
    "frame": { "x": 48, "y": 74, "w": 14, "h": 37 },
    "rotated": false,
    "trimmed": true,
    "spriteSourceSize": { "x": 122, "y": 91, "w": 14, "h": 37 },
    "sourceSize": { "w": 256, "h": 256 },
    "duration": 75
   },
   {
    "filename": "NaginataBoss_LaughAndHit 33.aseprite",
    "frame": { "x": 62, "y": 74, "w": 14, "h": 37 },
    "rotated": false,
    "trimmed": true,
    "spriteSourceSize": { "x": 122, "y": 91, "w": 14, "h": 37 },
    "sourceSize": { "w": 256, "h": 256 },
    "duration": 75
   },
   {
    "filename": "NaginataBoss_LaughAndHit 34.aseprite",
    "frame": { "x": 0, "y": 74, "w": 14, "h": 37 },
    "rotated": false,
    "trimmed": true,
    "spriteSourceSize": { "x": 122, "y": 91, "w": 14, "h": 37 },
    "sourceSize": { "w": 256, "h": 256 },
    "duration": 75
   },
   {
    "filename": "NaginataBoss_LaughAndHit 35.aseprite",
    "frame": { "x": 34, "y": 74, "w": 14, "h": 37 },
    "rotated": false,
    "trimmed": true,
    "spriteSourceSize": { "x": 122, "y": 91, "w": 14, "h": 37 },
    "sourceSize": { "w": 256, "h": 256 },
    "duration": 75
   },
   {
    "filename": "NaginataBoss_LaughAndHit 36.aseprite",
    "frame": { "x": 48, "y": 74, "w": 14, "h": 37 },
    "rotated": false,
    "trimmed": true,
    "spriteSourceSize": { "x": 122, "y": 91, "w": 14, "h": 37 },
    "sourceSize": { "w": 256, "h": 256 },
    "duration": 75
   },
   {
    "filename": "NaginataBoss_LaughAndHit 37.aseprite",
    "frame": { "x": 62, "y": 74, "w": 14, "h": 37 },
    "rotated": false,
    "trimmed": true,
    "spriteSourceSize": { "x": 122, "y": 91, "w": 14, "h": 37 },
    "sourceSize": { "w": 256, "h": 256 },
    "duration": 75
   },
   {
    "filename": "NaginataBoss_LaughAndHit 38.aseprite",
    "frame": { "x": 0, "y": 74, "w": 14, "h": 37 },
    "rotated": false,
    "trimmed": true,
    "spriteSourceSize": { "x": 122, "y": 91, "w": 14, "h": 37 },
    "sourceSize": { "w": 256, "h": 256 },
    "duration": 75
   },
   {
    "filename": "NaginataBoss_LaughAndHit 39.aseprite",
    "frame": { "x": 34, "y": 74, "w": 14, "h": 37 },
    "rotated": false,
    "trimmed": true,
    "spriteSourceSize": { "x": 122, "y": 91, "w": 14, "h": 37 },
    "sourceSize": { "w": 256, "h": 256 },
    "duration": 75
   },
   {
    "filename": "NaginataBoss_LaughAndHit 40.aseprite",
    "frame": { "x": 48, "y": 74, "w": 14, "h": 37 },
    "rotated": false,
    "trimmed": true,
    "spriteSourceSize": { "x": 122, "y": 91, "w": 14, "h": 37 },
    "sourceSize": { "w": 256, "h": 256 },
    "duration": 75
   },
   {
    "filename": "NaginataBoss_LaughAndHit 41.aseprite",
    "frame": { "x": 62, "y": 74, "w": 14, "h": 37 },
    "rotated": false,
    "trimmed": true,
    "spriteSourceSize": { "x": 122, "y": 91, "w": 14, "h": 37 },
    "sourceSize": { "w": 256, "h": 256 },
    "duration": 75
   },
   {
    "filename": "NaginataBoss_LaughAndHit 42.aseprite",
    "frame": { "x": 0, "y": 74, "w": 14, "h": 37 },
    "rotated": false,
    "trimmed": true,
    "spriteSourceSize": { "x": 122, "y": 91, "w": 14, "h": 37 },
    "sourceSize": { "w": 256, "h": 256 },
    "duration": 75
   },
   {
    "filename": "NaginataBoss_LaughAndHit 43.aseprite",
    "frame": { "x": 0, "y": 74, "w": 14, "h": 37 },
    "rotated": false,
    "trimmed": true,
    "spriteSourceSize": { "x": 122, "y": 91, "w": 14, "h": 37 },
    "sourceSize": { "w": 256, "h": 256 },
    "duration": 75
   },
   {
    "filename": "NaginataBoss_LaughAndHit 44.aseprite",
    "frame": { "x": 76, "y": 37, "w": 14, "h": 37 },
    "rotated": false,
    "trimmed": true,
    "spriteSourceSize": { "x": 122, "y": 91, "w": 14, "h": 37 },
    "sourceSize": { "w": 256, "h": 256 },
    "duration": 60
   },
   {
    "filename": "NaginataBoss_LaughAndHit 45.aseprite",
    "frame": { "x": 62, "y": 37, "w": 14, "h": 37 },
    "rotated": false,
    "trimmed": true,
    "spriteSourceSize": { "x": 122, "y": 91, "w": 14, "h": 37 },
    "sourceSize": { "w": 256, "h": 256 },
    "duration": 60
   },
   {
    "filename": "NaginataBoss_LaughAndHit 46.aseprite",
    "frame": { "x": 34, "y": 37, "w": 14, "h": 37 },
    "rotated": false,
    "trimmed": true,
    "spriteSourceSize": { "x": 122, "y": 91, "w": 14, "h": 37 },
    "sourceSize": { "w": 256, "h": 256 },
    "duration": 60
   },
   {
    "filename": "NaginataBoss_LaughAndHit 47.aseprite",
    "frame": { "x": 76, "y": 74, "w": 14, "h": 37 },
    "rotated": false,
    "trimmed": true,
    "spriteSourceSize": { "x": 122, "y": 91, "w": 14, "h": 37 },
    "sourceSize": { "w": 256, "h": 256 },
    "duration": 800
   },
   {
    "filename": "NaginataBoss_LaughAndHit 48.aseprite",
    "frame": { "x": 21, "y": 37, "w": 13, "h": 40 },
    "rotated": false,
    "trimmed": true,
    "spriteSourceSize": { "x": 121, "y": 89, "w": 13, "h": 40 },
    "sourceSize": { "w": 256, "h": 256 },
    "duration": 30
   },
   {
    "filename": "NaginataBoss_LaughAndHit 49.aseprite",
    "frame": { "x": 14, "y": 77, "w": 11, "h": 39 },
    "rotated": false,
    "trimmed": true,
    "spriteSourceSize": { "x": 122, "y": 89, "w": 11, "h": 39 },
    "sourceSize": { "w": 256, "h": 256 },
    "duration": 30
   },
   {
    "filename": "NaginataBoss_LaughAndHit 50.aseprite",
    "frame": { "x": 0, "y": 111, "w": 6, "h": 38 },
    "rotated": false,
    "trimmed": true,
    "spriteSourceSize": { "x": 124, "y": 90, "w": 6, "h": 38 },
    "sourceSize": { "w": 256, "h": 256 },
    "duration": 30
   },
   {
    "filename": "NaginataBoss_LaughAndHit 51.aseprite",
    "frame": { "x": 25, "y": 77, "w": 5, "h": 46 },
    "rotated": false,
    "trimmed": true,
    "spriteSourceSize": { "x": 124, "y": 82, "w": 5, "h": 46 },
    "sourceSize": { "w": 256, "h": 256 },
    "duration": 30
   },
   {
    "filename": "NaginataBoss_LaughAndHit 52.aseprite",
    "frame": { "x": 30, "y": 77, "w": 3, "h": 50 },
    "rotated": false,
    "trimmed": true,
    "spriteSourceSize": { "x": 125, "y": 78, "w": 3, "h": 50 },
    "sourceSize": { "w": 256, "h": 256 },
    "duration": 30
   },
   {
    "filename": "NaginataBoss_LaughAndHit 53.aseprite",
    "frame": { "x": 89, "y": 0, "w": 1, "h": 1 },
    "rotated": false,
    "trimmed": true,
    "spriteSourceSize": { "x": 0, "y": 0, "w": 1, "h": 1 },
    "sourceSize": { "w": 256, "h": 256 },
    "duration": 800
   },
   {
    "filename": "NaginataBoss_LaughAndHit 54.aseprite",
    "frame": { "x": 89, "y": 0, "w": 1, "h": 1 },
    "rotated": false,
    "trimmed": true,
    "spriteSourceSize": { "x": 0, "y": 0, "w": 1, "h": 1 },
    "sourceSize": { "w": 256, "h": 256 },
    "duration": 100
   }
 ],
 "meta": {
  "app": "http://www.aseprite.org/",
  "version": "1.2.21-x64",
  "image": "NaginataBoss_LaughAndHit.png",
  "format": "RGBA8888",
  "size": { "w": 90, "h": 149 },
  "scale": "1",
  "frameTags": [
   { "name": "Hit", "from": 0, "to": 7, "direction": "forward" },
   { "name": "Appear", "from": 8, "to": 15, "direction": "forward" },
   { "name": "Laugh", "from": 16, "to": 46, "direction": "forward" },
   { "name": "Dissapear", "from": 47, "to": 54, "direction": "forward" }
  ]
 }
}
