{ "frames": [
   {
    "filename": "NaginataBoss_Impacts 0.aseprite",
    "frame": { "x": 461, "y": 0, "w": 16, "h": 71 },
    "rotated": false,
    "trimmed": true,
    "spriteSourceSize": { "x": 122, "y": 0, "w": 16, "h": 71 },
    "sourceSize": { "w": 256, "h": 256 },
    "duration": 60
   },
   {
    "filename": "NaginataBoss_Impacts 1.aseprite",
    "frame": { "x": 461, "y": 71, "w": 16, "h": 67 },
    "rotated": false,
    "trimmed": true,
    "spriteSourceSize": { "x": 122, "y": 20, "w": 16, "h": 67 },
    "sourceSize": { "w": 256, "h": 256 },
    "duration": 40
   },
   {
    "filename": "NaginataBoss_Impacts 2.aseprite",
    "frame": { "x": 457, "y": 326, "w": 16, "h": 65 },
    "rotated": false,
    "trimmed": true,
    "spriteSourceSize": { "x": 122, "y": 33, "w": 16, "h": 65 },
    "sourceSize": { "w": 256, "h": 256 },
    "duration": 40
   },
   {
    "filename": "NaginataBoss_Impacts 3.aseprite",
    "frame": { "x": 115, "y": 385, "w": 18, "h": 48 },
    "rotated": false,
    "trimmed": true,
    "spriteSourceSize": { "x": 123, "y": 55, "w": 18, "h": 48 },
    "sourceSize": { "w": 256, "h": 256 },
    "duration": 30
   },
   {
    "filename": "NaginataBoss_Impacts 4.aseprite",
    "frame": { "x": 458, "y": 248, "w": 17, "h": 43 },
    "rotated": false,
    "trimmed": true,
    "spriteSourceSize": { "x": 124, "y": 84, "w": 17, "h": 43 },
    "sourceSize": { "w": 256, "h": 256 },
    "duration": 30
   },
   {
    "filename": "NaginataBoss_Impacts 5.aseprite",
    "frame": { "x": 49, "y": 328, "w": 47, "h": 36 },
    "rotated": false,
    "trimmed": true,
    "spriteSourceSize": { "x": 110, "y": 94, "w": 47, "h": 36 },
    "sourceSize": { "w": 256, "h": 256 },
    "duration": 40
   },
   {
    "filename": "NaginataBoss_Impacts 6.aseprite",
    "frame": { "x": 0, "y": 160, "w": 95, "h": 36 },
    "rotated": false,
    "trimmed": true,
    "spriteSourceSize": { "x": 82, "y": 94, "w": 95, "h": 36 },
    "sourceSize": { "w": 256, "h": 256 },
    "duration": 40
   },
   {
    "filename": "NaginataBoss_Impacts 7.aseprite",
    "frame": { "x": 0, "y": 256, "w": 136, "h": 40 },
    "rotated": false,
    "trimmed": true,
    "spriteSourceSize": { "x": 62, "y": 92, "w": 136, "h": 40 },
    "sourceSize": { "w": 256, "h": 256 },
    "duration": 40
   },
   {
    "filename": "NaginataBoss_Impacts 8.aseprite",
    "frame": { "x": 312, "y": 248, "w": 146, "h": 43 },
    "rotated": false,
    "trimmed": true,
    "spriteSourceSize": { "x": 57, "y": 91, "w": 146, "h": 43 },
    "sourceSize": { "w": 256, "h": 256 },
    "duration": 80
   },
   {
    "filename": "NaginataBoss_Impacts 9.aseprite",
    "frame": { "x": 156, "y": 207, "w": 156, "h": 46 },
    "rotated": false,
    "trimmed": true,
    "spriteSourceSize": { "x": 52, "y": 90, "w": 156, "h": 46 },
    "sourceSize": { "w": 256, "h": 256 },
    "duration": 80
   },
   {
    "filename": "NaginataBoss_Impacts 10.aseprite",
    "frame": { "x": 0, "y": 207, "w": 156, "h": 49 },
    "rotated": false,
    "trimmed": true,
    "spriteSourceSize": { "x": 52, "y": 88, "w": 156, "h": 49 },
    "sourceSize": { "w": 256, "h": 256 },
    "duration": 80
   },
   {
    "filename": "NaginataBoss_Impacts 11.aseprite",
    "frame": { "x": 123, "y": 156, "w": 158, "h": 51 },
    "rotated": false,
    "trimmed": true,
    "spriteSourceSize": { "x": 51, "y": 87, "w": 158, "h": 51 },
    "sourceSize": { "w": 256, "h": 256 },
    "duration": 80
   },
   {
    "filename": "NaginataBoss_Impacts 12.aseprite",
    "frame": { "x": 281, "y": 158, "w": 160, "h": 49 },
    "rotated": false,
    "trimmed": true,
    "spriteSourceSize": { "x": 50, "y": 88, "w": 160, "h": 49 },
    "sourceSize": { "w": 256, "h": 256 },
    "duration": 80
   },
   {
    "filename": "NaginataBoss_Impacts 13.aseprite",
    "frame": { "x": 312, "y": 207, "w": 158, "h": 41 },
    "rotated": false,
    "trimmed": true,
    "spriteSourceSize": { "x": 51, "y": 94, "w": 158, "h": 41 },
    "sourceSize": { "w": 256, "h": 256 },
    "duration": 80
   },
   {
    "filename": "NaginataBoss_Impacts 14.aseprite",
    "frame": { "x": 156, "y": 253, "w": 152, "h": 39 },
    "rotated": false,
    "trimmed": true,
    "spriteSourceSize": { "x": 54, "y": 94, "w": 152, "h": 39 },
    "sourceSize": { "w": 256, "h": 256 },
    "duration": 80
   },
   {
    "filename": "NaginataBoss_Impacts 15.aseprite",
    "frame": { "x": 19, "y": 388, "w": 19, "h": 36 },
    "rotated": false,
    "trimmed": true,
    "spriteSourceSize": { "x": 124, "y": 94, "w": 19, "h": 36 },
    "sourceSize": { "w": 256, "h": 256 },
    "duration": 80
   },
   {
    "filename": "NaginataBoss_Impacts 16.aseprite",
    "frame": { "x": 19, "y": 388, "w": 19, "h": 36 },
    "rotated": false,
    "trimmed": true,
    "spriteSourceSize": { "x": 124, "y": 94, "w": 19, "h": 36 },
    "sourceSize": { "w": 256, "h": 256 },
    "duration": 600
   },
   {
    "filename": "NaginataBoss_Impacts 17.aseprite",
    "frame": { "x": 136, "y": 256, "w": 19, "h": 36 },
    "rotated": false,
    "trimmed": true,
    "spriteSourceSize": { "x": 124, "y": 94, "w": 19, "h": 36 },
    "sourceSize": { "w": 256, "h": 256 },
    "duration": 25
   },
   {
    "filename": "NaginataBoss_Impacts 18.aseprite",
    "frame": { "x": 0, "y": 388, "w": 19, "h": 44 },
    "rotated": false,
    "trimmed": true,
    "spriteSourceSize": { "x": 124, "y": 86, "w": 19, "h": 44 },
    "sourceSize": { "w": 256, "h": 256 },
    "duration": 25
   },
   {
    "filename": "NaginataBoss_Impacts 19.aseprite",
    "frame": { "x": 98, "y": 385, "w": 17, "h": 51 },
    "rotated": false,
    "trimmed": true,
    "spriteSourceSize": { "x": 125, "y": 79, "w": 17, "h": 51 },
    "sourceSize": { "w": 256, "h": 256 },
    "duration": 25
   },
   {
    "filename": "NaginataBoss_Impacts 20.aseprite",
    "frame": { "x": 244, "y": 390, "w": 13, "h": 41 },
    "rotated": false,
    "trimmed": true,
    "spriteSourceSize": { "x": 127, "y": 90, "w": 13, "h": 41 },
    "sourceSize": { "w": 256, "h": 256 },
    "duration": 25
   },
   {
    "filename": "NaginataBoss_Impacts 21.aseprite",
    "frame": { "x": 468, "y": 138, "w": 7, "h": 44 },
    "rotated": false,
    "trimmed": true,
    "spriteSourceSize": { "x": 130, "y": 87, "w": 7, "h": 44 },
    "sourceSize": { "w": 256, "h": 256 },
    "duration": 25
   },
   {
    "filename": "NaginataBoss_Impacts 22.aseprite",
    "frame": { "x": 477, "y": 0, "w": 3, "h": 26 },
    "rotated": false,
    "trimmed": true,
    "spriteSourceSize": { "x": 132, "y": 100, "w": 3, "h": 26 },
    "sourceSize": { "w": 256, "h": 256 },
    "duration": 25
   },
   {
    "filename": "NaginataBoss_Impacts 23.aseprite",
    "frame": { "x": 477, "y": 26, "w": 1, "h": 1 },
    "rotated": false,
    "trimmed": true,
    "spriteSourceSize": { "x": 0, "y": 0, "w": 1, "h": 1 },
    "sourceSize": { "w": 256, "h": 256 },
    "duration": 600
   },
   {
    "filename": "NaginataBoss_Impacts 24.aseprite",
    "frame": { "x": 477, "y": 26, "w": 1, "h": 1 },
    "rotated": false,
    "trimmed": true,
    "spriteSourceSize": { "x": 0, "y": 0, "w": 1, "h": 1 },
    "sourceSize": { "w": 256, "h": 256 },
    "duration": 50
   },
   {
    "filename": "NaginataBoss_Impacts 25.aseprite",
    "frame": { "x": 388, "y": 392, "w": 73, "h": 14 },
    "rotated": false,
    "trimmed": true,
    "spriteSourceSize": { "x": 13, "y": 121, "w": 73, "h": 14 },
    "sourceSize": { "w": 256, "h": 256 },
    "duration": 50
   },
   {
    "filename": "NaginataBoss_Impacts 26.aseprite",
    "frame": { "x": 0, "y": 296, "w": 71, "h": 26 },
    "rotated": false,
    "trimmed": true,
    "spriteSourceSize": { "x": 24, "y": 115, "w": 71, "h": 26 },
    "sourceSize": { "w": 256, "h": 256 },
    "duration": 50
   },
   {
    "filename": "NaginataBoss_Impacts 27.aseprite",
    "frame": { "x": 136, "y": 292, "w": 80, "h": 24 },
    "rotated": false,
    "trimmed": true,
    "spriteSourceSize": { "x": 44, "y": 116, "w": 80, "h": 24 },
    "sourceSize": { "w": 256, "h": 256 },
    "duration": 60
   },
   {
    "filename": "NaginataBoss_Impacts 28.aseprite",
    "frame": { "x": 145, "y": 359, "w": 69, "h": 24 },
    "rotated": false,
    "trimmed": true,
    "spriteSourceSize": { "x": 73, "y": 116, "w": 69, "h": 24 },
    "sourceSize": { "w": 256, "h": 256 },
    "duration": 30
   },
   {
    "filename": "NaginataBoss_Impacts 29.aseprite",
    "frame": { "x": 194, "y": 390, "w": 50, "h": 29 },
    "rotated": false,
    "trimmed": true,
    "spriteSourceSize": { "x": 98, "y": 114, "w": 50, "h": 29 },
    "sourceSize": { "w": 256, "h": 256 },
    "duration": 30
   },
   {
    "filename": "NaginataBoss_Impacts 30.aseprite",
    "frame": { "x": 360, "y": 291, "w": 48, "h": 47 },
    "rotated": false,
    "trimmed": true,
    "spriteSourceSize": { "x": 100, "y": 106, "w": 48, "h": 47 },
    "sourceSize": { "w": 256, "h": 256 },
    "duration": 80
   },
   {
    "filename": "NaginataBoss_Impacts 31.aseprite",
    "frame": { "x": 308, "y": 291, "w": 52, "h": 95 },
    "rotated": false,
    "trimmed": true,
    "spriteSourceSize": { "x": 96, "y": 86, "w": 52, "h": 95 },
    "sourceSize": { "w": 256, "h": 256 },
    "duration": 80
   },
   {
    "filename": "NaginataBoss_Impacts 32.aseprite",
    "frame": { "x": 354, "y": 0, "w": 58, "h": 136 },
    "rotated": false,
    "trimmed": true,
    "spriteSourceSize": { "x": 90, "y": 65, "w": 58, "h": 136 },
    "sourceSize": { "w": 256, "h": 256 },
    "duration": 80
   },
   {
    "filename": "NaginataBoss_Impacts 33.aseprite",
    "frame": { "x": 243, "y": 0, "w": 58, "h": 146 },
    "rotated": false,
    "trimmed": true,
    "spriteSourceSize": { "x": 89, "y": 60, "w": 58, "h": 146 },
    "sourceSize": { "w": 256, "h": 256 },
    "duration": 80
   },
   {
    "filename": "NaginataBoss_Impacts 34.aseprite",
    "frame": { "x": 184, "y": 0, "w": 59, "h": 156 },
    "rotated": false,
    "trimmed": true,
    "spriteSourceSize": { "x": 88, "y": 55, "w": 59, "h": 156 },
    "sourceSize": { "w": 256, "h": 256 },
    "duration": 80
   },
   {
    "filename": "NaginataBoss_Impacts 35.aseprite",
    "frame": { "x": 123, "y": 0, "w": 61, "h": 156 },
    "rotated": false,
    "trimmed": true,
    "spriteSourceSize": { "x": 86, "y": 55, "w": 61, "h": 156 },
    "sourceSize": { "w": 256, "h": 256 },
    "duration": 80
   },
   {
    "filename": "NaginataBoss_Impacts 36.aseprite",
    "frame": { "x": 0, "y": 0, "w": 62, "h": 158 },
    "rotated": false,
    "trimmed": true,
    "spriteSourceSize": { "x": 85, "y": 54, "w": 62, "h": 158 },
    "sourceSize": { "w": 256, "h": 256 },
    "duration": 80
   },
   {
    "filename": "NaginataBoss_Impacts 37.aseprite",
    "frame": { "x": 62, "y": 0, "w": 61, "h": 160 },
    "rotated": false,
    "trimmed": true,
    "spriteSourceSize": { "x": 86, "y": 53, "w": 61, "h": 160 },
    "sourceSize": { "w": 256, "h": 256 },
    "duration": 80
   },
   {
    "filename": "NaginataBoss_Impacts 38.aseprite",
    "frame": { "x": 301, "y": 0, "w": 53, "h": 158 },
    "rotated": false,
    "trimmed": true,
    "spriteSourceSize": { "x": 94, "y": 54, "w": 53, "h": 158 },
    "sourceSize": { "w": 256, "h": 256 },
    "duration": 80
   },
   {
    "filename": "NaginataBoss_Impacts 39.aseprite",
    "frame": { "x": 412, "y": 0, "w": 49, "h": 152 },
    "rotated": false,
    "trimmed": true,
    "spriteSourceSize": { "x": 98, "y": 57, "w": 49, "h": 152 },
    "sourceSize": { "w": 256, "h": 256 },
    "duration": 80
   },
   {
    "filename": "NaginataBoss_Impacts 40.aseprite",
    "frame": { "x": 0, "y": 357, "w": 49, "h": 31 },
    "rotated": false,
    "trimmed": true,
    "spriteSourceSize": { "x": 98, "y": 125, "w": 49, "h": 31 },
    "sourceSize": { "w": 256, "h": 256 },
    "duration": 140
   },
   {
    "filename": "NaginataBoss_Impacts 41.aseprite",
    "frame": { "x": 175, "y": 324, "w": 49, "h": 35 },
    "rotated": false,
    "trimmed": true,
    "spriteSourceSize": { "x": 98, "y": 126, "w": 49, "h": 35 },
    "sourceSize": { "w": 256, "h": 256 },
    "duration": 80
   },
   {
    "filename": "NaginataBoss_Impacts 42.aseprite",
    "frame": { "x": 263, "y": 386, "w": 49, "h": 31 },
    "rotated": false,
    "trimmed": true,
    "spriteSourceSize": { "x": 98, "y": 126, "w": 49, "h": 31 },
    "sourceSize": { "w": 256, "h": 256 },
    "duration": 80
   },
   {
    "filename": "NaginataBoss_Impacts 43.aseprite",
    "frame": { "x": 312, "y": 386, "w": 49, "h": 31 },
    "rotated": false,
    "trimmed": true,
    "spriteSourceSize": { "x": 98, "y": 126, "w": 49, "h": 31 },
    "sourceSize": { "w": 256, "h": 256 },
    "duration": 80
   },
   {
    "filename": "NaginataBoss_Impacts 44.aseprite",
    "frame": { "x": 96, "y": 351, "w": 49, "h": 34 },
    "rotated": false,
    "trimmed": true,
    "spriteSourceSize": { "x": 98, "y": 125, "w": 49, "h": 34 },
    "sourceSize": { "w": 256, "h": 256 },
    "duration": 140
   },
   {
    "filename": "NaginataBoss_Impacts 45.aseprite",
    "frame": { "x": 0, "y": 322, "w": 49, "h": 35 },
    "rotated": false,
    "trimmed": true,
    "spriteSourceSize": { "x": 98, "y": 126, "w": 49, "h": 35 },
    "sourceSize": { "w": 256, "h": 256 },
    "duration": 80
   },
   {
    "filename": "NaginataBoss_Impacts 46.aseprite",
    "frame": { "x": 126, "y": 316, "w": 49, "h": 35 },
    "rotated": false,
    "trimmed": true,
    "spriteSourceSize": { "x": 98, "y": 126, "w": 49, "h": 35 },
    "sourceSize": { "w": 256, "h": 256 },
    "duration": 80
   },
   {
    "filename": "NaginataBoss_Impacts 47.aseprite",
    "frame": { "x": 408, "y": 326, "w": 49, "h": 35 },
    "rotated": false,
    "trimmed": true,
    "spriteSourceSize": { "x": 98, "y": 126, "w": 49, "h": 35 },
    "sourceSize": { "w": 256, "h": 256 },
    "duration": 80
   },
   {
    "filename": "NaginataBoss_Impacts 48.aseprite",
    "frame": { "x": 224, "y": 324, "w": 49, "h": 35 },
    "rotated": false,
    "trimmed": true,
    "spriteSourceSize": { "x": 98, "y": 123, "w": 49, "h": 35 },
    "sourceSize": { "w": 256, "h": 256 },
    "duration": 80
   },
   {
    "filename": "NaginataBoss_Impacts 49.aseprite",
    "frame": { "x": 214, "y": 359, "w": 49, "h": 31 },
    "rotated": false,
    "trimmed": true,
    "spriteSourceSize": { "x": 98, "y": 116, "w": 49, "h": 31 },
    "sourceSize": { "w": 256, "h": 256 },
    "duration": 80
   },
   {
    "filename": "NaginataBoss_Impacts 50.aseprite",
    "frame": { "x": 49, "y": 385, "w": 49, "h": 31 },
    "rotated": false,
    "trimmed": true,
    "spriteSourceSize": { "x": 98, "y": 114, "w": 49, "h": 31 },
    "sourceSize": { "w": 256, "h": 256 },
    "duration": 80
   },
   {
    "filename": "NaginataBoss_Impacts 51.aseprite",
    "frame": { "x": 360, "y": 338, "w": 48, "h": 32 },
    "rotated": false,
    "trimmed": true,
    "spriteSourceSize": { "x": 98, "y": 112, "w": 48, "h": 32 },
    "sourceSize": { "w": 256, "h": 256 },
    "duration": 80
   },
   {
    "filename": "NaginataBoss_Impacts 52.aseprite",
    "frame": { "x": 408, "y": 361, "w": 49, "h": 31 },
    "rotated": false,
    "trimmed": true,
    "spriteSourceSize": { "x": 98, "y": 113, "w": 49, "h": 31 },
    "sourceSize": { "w": 256, "h": 256 },
    "duration": 80
   },
   {
    "filename": "NaginataBoss_Impacts 53.aseprite",
    "frame": { "x": 145, "y": 383, "w": 49, "h": 31 },
    "rotated": false,
    "trimmed": true,
    "spriteSourceSize": { "x": 98, "y": 114, "w": 49, "h": 31 },
    "sourceSize": { "w": 256, "h": 256 },
    "duration": 80
   },
   {
    "filename": "NaginataBoss_Impacts 54.aseprite",
    "frame": { "x": 71, "y": 296, "w": 55, "h": 32 },
    "rotated": false,
    "trimmed": true,
    "spriteSourceSize": { "x": 87, "y": 115, "w": 55, "h": 32 },
    "sourceSize": { "w": 256, "h": 256 },
    "duration": 80
   },
   {
    "filename": "NaginataBoss_Impacts 55.aseprite",
    "frame": { "x": 216, "y": 292, "w": 58, "h": 32 },
    "rotated": false,
    "trimmed": true,
    "spriteSourceSize": { "x": 85, "y": 119, "w": 58, "h": 32 },
    "sourceSize": { "w": 256, "h": 256 },
    "duration": 80
   },
   {
    "filename": "NaginataBoss_Impacts 56.aseprite",
    "frame": { "x": 408, "y": 291, "w": 60, "h": 35 },
    "rotated": false,
    "trimmed": true,
    "spriteSourceSize": { "x": 75, "y": 120, "w": 60, "h": 35 },
    "sourceSize": { "w": 256, "h": 256 },
    "duration": 80
   },
   {
    "filename": "NaginataBoss_Impacts 57.aseprite",
    "frame": { "x": 361, "y": 370, "w": 27, "h": 41 },
    "rotated": false,
    "trimmed": true,
    "spriteSourceSize": { "x": 87, "y": 118, "w": 27, "h": 41 },
    "sourceSize": { "w": 256, "h": 256 },
    "duration": 80
   },
   {
    "filename": "NaginataBoss_Impacts 58.aseprite",
    "frame": { "x": 441, "y": 152, "w": 27, "h": 55 },
    "rotated": false,
    "trimmed": true,
    "spriteSourceSize": { "x": 86, "y": 116, "w": 27, "h": 55 },
    "sourceSize": { "w": 256, "h": 256 },
    "duration": 60
   },
   {
    "filename": "NaginataBoss_Impacts 59.aseprite",
    "frame": { "x": 274, "y": 292, "w": 27, "h": 61 },
    "rotated": false,
    "trimmed": true,
    "spriteSourceSize": { "x": 87, "y": 113, "w": 27, "h": 61 },
    "sourceSize": { "w": 256, "h": 256 },
    "duration": 60
   },
   {
    "filename": "NaginataBoss_Impacts 60.aseprite",
    "frame": { "x": 95, "y": 160, "w": 26, "h": 45 },
    "rotated": false,
    "trimmed": true,
    "spriteSourceSize": { "x": 82, "y": 127, "w": 26, "h": 45 },
    "sourceSize": { "w": 256, "h": 256 },
    "duration": 60
   },
   {
    "filename": "NaginataBoss_Impacts 61.aseprite",
    "frame": { "x": 477, "y": 26, "w": 1, "h": 1 },
    "rotated": false,
    "trimmed": true,
    "spriteSourceSize": { "x": 0, "y": 0, "w": 1, "h": 1 },
    "sourceSize": { "w": 256, "h": 256 },
    "duration": 60
   },
   {
    "filename": "NaginataBoss_Impacts 62.aseprite",
    "frame": { "x": 477, "y": 26, "w": 1, "h": 1 },
    "rotated": false,
    "trimmed": true,
    "spriteSourceSize": { "x": 0, "y": 0, "w": 1, "h": 1 },
    "sourceSize": { "w": 256, "h": 256 },
    "duration": 80
   },
   {
    "filename": "NaginataBoss_Impacts 63.aseprite",
    "frame": { "x": 477, "y": 26, "w": 1, "h": 1 },
    "rotated": false,
    "trimmed": true,
    "spriteSourceSize": { "x": 0, "y": 0, "w": 1, "h": 1 },
    "sourceSize": { "w": 256, "h": 256 },
    "duration": 600
   }
 ],
 "meta": {
  "app": "http://www.aseprite.org/",
  "version": "1.2.21-x64",
  "image": "NaginataBoss_Impacts.png",
  "format": "RGBA8888",
  "size": { "w": 480, "h": 436 },
  "scale": "1",
  "frameTags": [
   { "name": "Impact_Floor", "from": 0, "to": 23, "direction": "forward" },
   { "name": "Impact_Wall", "from": 24, "to": 63, "direction": "forward" }
  ],
  "slices": [
  ]
 }
}
