%YAML 1.1
%TAG !u! tag:unity3d.com,2011:
--- !u!74 &7400000
AnimationClip:
  m_ObjectHideFlags: 0
  m_CorrespondingSourceObject: {fileID: 0}
  m_PrefabInstance: {fileID: 0}
  m_PrefabAsset: {fileID: 0}
  m_Name: Clip_Player_FullUniform_Dash_Attack
  serializedVersion: 6
  m_Legacy: 0
  m_Compressed: 0
  m_UseHighQualityCurve: 1
  m_RotationCurves: []
  m_CompressedRotationCurves: []
  m_EulerCurves: []
  m_PositionCurves:
  - curve:
      serializedVersion: 2
      m_Curve:
      - serializedVersion: 3
        time: 0
        value: {x: 0.1875, y: 0.0625, z: 0}
        inSlope: {x: Infinity, y: Infinity, z: 0}
        outSlope: {x: -Infinity, y: -Infinity, z: 0}
        tangentMode: 0
        weightedMode: 0
        inWeight: {x: 0, y: 0, z: 0.33333334}
        outWeight: {x: 0, y: 0, z: 0.33333334}
      - serializedVersion: 3
        time: 0.04
        value: {x: 0.15625, y: 0.0625, z: 0}
        inSlope: {x: Infinity, y: Infinity, z: 0}
        outSlope: {x: -Infinity, y: -Infinity, z: 0}
        tangentMode: 0
        weightedMode: 0
        inWeight: {x: 0, y: 0, z: 0.33333334}
        outWeight: {x: 0, y: 0, z: 0.33333334}
      - serializedVersion: 3
        time: 0.08
        value: {x: 0.1875, y: -0.15625, z: 0}
        inSlope: {x: Infinity, y: Infinity, z: 0}
        outSlope: {x: -Infinity, y: -Infinity, z: 0}
        tangentMode: 0
        weightedMode: 0
        inWeight: {x: 0, y: 0, z: 0.33333334}
        outWeight: {x: 0, y: 0, z: 0.33333334}
      - serializedVersion: 3
        time: 0.12
        value: {x: -0.125, y: -0.21875, z: 0}
        inSlope: {x: Infinity, y: Infinity, z: 0}
        outSlope: {x: -Infinity, y: -Infinity, z: 0}
        tangentMode: 0
        weightedMode: 0
        inWeight: {x: 0, y: 0, z: 0.33333334}
        outWeight: {x: 0, y: 0, z: 0.33333334}
      - serializedVersion: 3
        time: 0.16
        value: {x: -0.3125, y: -0.3125, z: 0}
        inSlope: {x: Infinity, y: Infinity, z: 0}
        outSlope: {x: -Infinity, y: -Infinity, z: 0}
        tangentMode: 0
        weightedMode: 0
        inWeight: {x: 0, y: 0, z: 0.33333334}
        outWeight: {x: 0, y: 0, z: 0.33333334}
      - serializedVersion: 3
        time: 0.2
        value: {x: -0.65625, y: -0.34375, z: 0}
        inSlope: {x: Infinity, y: Infinity, z: 0}
        outSlope: {x: -Infinity, y: -Infinity, z: 0}
        tangentMode: 0
        weightedMode: 0
        inWeight: {x: 0, y: 0, z: 0.33333334}
        outWeight: {x: 0, y: 0, z: 0.33333334}
      - serializedVersion: 3
        time: 0.24000001
        value: {x: 0, y: -0.09375, z: 0}
        inSlope: {x: Infinity, y: Infinity, z: 0}
        outSlope: {x: -Infinity, y: -Infinity, z: 0}
        tangentMode: 0
        weightedMode: 0
        inWeight: {x: 0, y: 0, z: 0.33333334}
        outWeight: {x: 0, y: 0, z: 0.33333334}
      - serializedVersion: 3
        time: 0.28
        value: {x: 0, y: 0.03125, z: 0}
        inSlope: {x: Infinity, y: Infinity, z: 0}
        outSlope: {x: -Infinity, y: -Infinity, z: 0}
        tangentMode: 0
        weightedMode: 0
        inWeight: {x: 0, y: 0, z: 0.33333334}
        outWeight: {x: 0, y: 0, z: 0.33333334}
      - serializedVersion: 3
        time: 0.32
        value: {x: 0.03125, y: 0.09375, z: 0}
        inSlope: {x: Infinity, y: Infinity, z: 0}
        outSlope: {x: -Infinity, y: -Infinity, z: 0}
        tangentMode: 0
        weightedMode: 0
        inWeight: {x: 0, y: 0, z: 0.33333334}
        outWeight: {x: 0, y: 0, z: 0.33333334}
      - serializedVersion: 3
        time: 0.35999998
        value: {x: 0.0625, y: 0.125, z: 0}
        inSlope: {x: Infinity, y: Infinity, z: 0}
        outSlope: {x: -Infinity, y: -Infinity, z: 0}
        tangentMode: 0
        weightedMode: 0
        inWeight: {x: 0, y: 0, z: 0.33333334}
        outWeight: {x: 0, y: 0, z: 0.33333334}
      - serializedVersion: 3
        time: 0.39999998
        value: {x: 0.0625, y: 0.09375, z: 0}
        inSlope: {x: Infinity, y: Infinity, z: 0}
        outSlope: {x: -Infinity, y: -Infinity, z: 0}
        tangentMode: 0
        weightedMode: 0
        inWeight: {x: 0, y: 0, z: 0.33333334}
        outWeight: {x: 0, y: 0, z: 0.33333334}
      - serializedVersion: 3
        time: 0.43999997
        value: {x: 0.0625, y: 0.09375, z: 0}
        inSlope: {x: Infinity, y: Infinity, z: 0}
        outSlope: {x: -Infinity, y: -Infinity, z: 0}
        tangentMode: 0
        weightedMode: 0
        inWeight: {x: 0, y: 0, z: 0.33333334}
        outWeight: {x: 0, y: 0, z: 0.33333334}
      m_PreInfinity: 2
      m_PostInfinity: 2
      m_RotationOrder: 4
    path: Visual/Render
  - curve:
      serializedVersion: 2
      m_Curve:
      - serializedVersion: 3
        time: 0
        value: {x: -0.34375, y: 0.40625, z: 0}
        inSlope: {x: Infinity, y: Infinity, z: 0}
        outSlope: {x: -Infinity, y: -Infinity, z: 0}
        tangentMode: 0
        weightedMode: 0
        inWeight: {x: 0, y: 0, z: 0.33333334}
        outWeight: {x: 0, y: 0, z: 0.33333334}
      - serializedVersion: 3
        time: 0.04
        value: {x: -0.65625, y: 0.09375, z: 0}
        inSlope: {x: Infinity, y: Infinity, z: 0}
        outSlope: {x: -Infinity, y: -Infinity, z: 0}
        tangentMode: 0
        weightedMode: 0
        inWeight: {x: 0, y: 0, z: 0.33333334}
        outWeight: {x: 0, y: 0, z: 0.33333334}
      - serializedVersion: 3
        time: 0.08
        value: {x: -0.71875, y: 0.03125, z: 0}
        inSlope: {x: Infinity, y: Infinity, z: 0}
        outSlope: {x: -Infinity, y: -Infinity, z: 0}
        tangentMode: 0
        weightedMode: 0
        inWeight: {x: 0, y: 0, z: 0.33333334}
        outWeight: {x: 0, y: 0, z: 0.33333334}
      - serializedVersion: 3
        time: 0.12
        value: {x: -0.78125, y: -0.03125, z: 0}
        inSlope: {x: Infinity, y: Infinity, z: 0}
        outSlope: {x: -Infinity, y: -Infinity, z: 0}
        tangentMode: 0
        weightedMode: 0
        inWeight: {x: 0, y: 0, z: 0.33333334}
        outWeight: {x: 0, y: 0, z: 0.33333334}
      - serializedVersion: 3
        time: 0.16
        value: {x: -0.90625, y: -0.03125, z: 0}
        inSlope: {x: Infinity, y: Infinity, z: 0}
        outSlope: {x: -Infinity, y: -Infinity, z: 0}
        tangentMode: 0
        weightedMode: 0
        inWeight: {x: 0, y: 0, z: 0.33333334}
        outWeight: {x: 0, y: 0, z: 0.33333334}
      - serializedVersion: 3
        time: 0.2
        value: {x: -0.71875, y: 0.03125, z: 0}
        inSlope: {x: Infinity, y: Infinity, z: 0}
        outSlope: {x: -Infinity, y: -Infinity, z: 0}
        tangentMode: 0
        weightedMode: 0
        inWeight: {x: 0, y: 0, z: 0.33333334}
        outWeight: {x: 0, y: 0, z: 0.33333334}
      - serializedVersion: 3
        time: 0.24000001
        value: {x: -0.71875, y: 0.03125, z: 0}
        inSlope: {x: Infinity, y: Infinity, z: 0}
        outSlope: {x: -Infinity, y: -Infinity, z: 0}
        tangentMode: 0
        weightedMode: 0
        inWeight: {x: 0, y: 0, z: 0.33333334}
        outWeight: {x: 0, y: 0, z: 0.33333334}
      - serializedVersion: 3
        time: 0.28
        value: {x: -0.46875, y: 0.28125, z: 0}
        inSlope: {x: Infinity, y: Infinity, z: 0}
        outSlope: {x: -Infinity, y: -Infinity, z: 0}
        tangentMode: 0
        weightedMode: 0
        inWeight: {x: 0, y: 0, z: 0.33333334}
        outWeight: {x: 0, y: 0, z: 0.33333334}
      - serializedVersion: 3
        time: 0.32
        value: {x: -0.40625, y: 0.40625, z: 0}
        inSlope: {x: Infinity, y: Infinity, z: 0}
        outSlope: {x: -Infinity, y: -Infinity, z: 0}
        tangentMode: 0
        weightedMode: 0
        inWeight: {x: 0, y: 0, z: 0.33333334}
        outWeight: {x: 0, y: 0, z: 0.33333334}
      - serializedVersion: 3
        time: 0.35999998
        value: {x: -0.34375, y: 0.53125, z: 0}
        inSlope: {x: Infinity, y: Infinity, z: 0}
        outSlope: {x: -Infinity, y: -Infinity, z: 0}
        tangentMode: 0
        weightedMode: 0
        inWeight: {x: 0, y: 0, z: 0.33333334}
        outWeight: {x: 0, y: 0, z: 0.33333334}
      - serializedVersion: 3
        time: 0.39999998
        value: {x: -0.34375, y: 0.46875, z: 0}
        inSlope: {x: Infinity, y: Infinity, z: 0}
        outSlope: {x: -Infinity, y: -Infinity, z: 0}
        tangentMode: 0
        weightedMode: 0
        inWeight: {x: 0, y: 0, z: 0.33333334}
        outWeight: {x: 0, y: 0, z: 0.33333334}
      - serializedVersion: 3
        time: 0.43999997
        value: {x: -0.34375, y: 0.46875, z: 0}
        inSlope: {x: Infinity, y: Infinity, z: 0}
        outSlope: {x: -Infinity, y: -Infinity, z: 0}
        tangentMode: 0
        weightedMode: 0
        inWeight: {x: 0, y: 0, z: 0.33333334}
        outWeight: {x: 0, y: 0, z: 0.33333334}
      m_PreInfinity: 2
      m_PostInfinity: 2
      m_RotationOrder: 4
    path: Visual/Pivot_Scarf
  m_ScaleCurves: []
  m_FloatCurves:
  - curve:
      serializedVersion: 2
      m_Curve:
      - serializedVersion: 3
        time: 0
        value: 0
        inSlope: 0
        outSlope: 0
        tangentMode: 0
        weightedMode: 0
        inWeight: 0
        outWeight: 0
      - serializedVersion: 3
        time: 0.04
        value: 0
        inSlope: 0
        outSlope: 0
        tangentMode: 0
        weightedMode: 0
        inWeight: 0
        outWeight: 0
      - serializedVersion: 3
        time: 0.08
        value: 0
        inSlope: 0
        outSlope: 0
        tangentMode: 0
        weightedMode: 0
        inWeight: 0
        outWeight: 0
      - serializedVersion: 3
        time: 0.12
        value: 0
        inSlope: 0
        outSlope: 0
        tangentMode: 0
        weightedMode: 0
        inWeight: 0
        outWeight: 0
      - serializedVersion: 3
        time: 0.16
        value: 0
        inSlope: 0
        outSlope: 0
        tangentMode: 0
        weightedMode: 0
        inWeight: 0
        outWeight: 0
      - serializedVersion: 3
        time: 0.2
        value: 0
        inSlope: 0
        outSlope: 0
        tangentMode: 0
        weightedMode: 0
        inWeight: 0
        outWeight: 0
      - serializedVersion: 3
        time: 0.24000001
        value: 0
        inSlope: 0
        outSlope: 0
        tangentMode: 0
        weightedMode: 0
        inWeight: 0
        outWeight: 0
      - serializedVersion: 3
        time: 0.28
        value: 0
        inSlope: 0
        outSlope: 0
        tangentMode: 0
        weightedMode: 0
        inWeight: 0
        outWeight: 0
      - serializedVersion: 3
        time: 0.32
        value: 0
        inSlope: 0
        outSlope: 0
        tangentMode: 0
        weightedMode: 0
        inWeight: 0
        outWeight: 0
      - serializedVersion: 3
        time: 0.35999998
        value: 0
        inSlope: 0
        outSlope: 0
        tangentMode: 0
        weightedMode: 0
        inWeight: 0
        outWeight: 0
      - serializedVersion: 3
        time: 0.39999998
        value: 0
        inSlope: 0
        outSlope: 0
        tangentMode: 0
        weightedMode: 0
        inWeight: 0
        outWeight: 0
      - serializedVersion: 3
        time: 0.43999997
        value: 0
        inSlope: 0
        outSlope: 0
        tangentMode: 0
        weightedMode: 0
        inWeight: 0
        outWeight: 0
      m_PreInfinity: 2
      m_PostInfinity: 2
      m_RotationOrder: 4
    attribute: m_Offset.x
    path: Visual/Collider_Body
    classID: 61
    script: {fileID: 0}
  - curve:
      serializedVersion: 2
      m_Curve:
      - serializedVersion: 3
        time: 0
        value: -0
        inSlope: 0
        outSlope: 0
        tangentMode: 0
        weightedMode: 0
        inWeight: 0
        outWeight: 0
      - serializedVersion: 3
        time: 0.04
        value: -0
        inSlope: 0
        outSlope: 0
        tangentMode: 0
        weightedMode: 0
        inWeight: 0
        outWeight: 0
      - serializedVersion: 3
        time: 0.08
        value: -0
        inSlope: 0
        outSlope: 0
        tangentMode: 0
        weightedMode: 0
        inWeight: 0
        outWeight: 0
      - serializedVersion: 3
        time: 0.12
        value: -0
        inSlope: 0
        outSlope: 0
        tangentMode: 0
        weightedMode: 0
        inWeight: 0
        outWeight: 0
      - serializedVersion: 3
        time: 0.16
        value: -0
        inSlope: 0
        outSlope: 0
        tangentMode: 0
        weightedMode: 0
        inWeight: 0
        outWeight: 0
      - serializedVersion: 3
        time: 0.2
        value: -0
        inSlope: 0
        outSlope: 0
        tangentMode: 0
        weightedMode: 0
        inWeight: 0
        outWeight: 0
      - serializedVersion: 3
        time: 0.24000001
        value: -0
        inSlope: 0
        outSlope: 0
        tangentMode: 0
        weightedMode: 0
        inWeight: 0
        outWeight: 0
      - serializedVersion: 3
        time: 0.28
        value: -0
        inSlope: 0
        outSlope: 0
        tangentMode: 0
        weightedMode: 0
        inWeight: 0
        outWeight: 0
      - serializedVersion: 3
        time: 0.32
        value: -0
        inSlope: 0
        outSlope: 0
        tangentMode: 0
        weightedMode: 0
        inWeight: 0
        outWeight: 0
      - serializedVersion: 3
        time: 0.35999998
        value: -0
        inSlope: 0
        outSlope: 0
        tangentMode: 0
        weightedMode: 0
        inWeight: 0
        outWeight: 0
      - serializedVersion: 3
        time: 0.39999998
        value: -0
        inSlope: 0
        outSlope: 0
        tangentMode: 0
        weightedMode: 0
        inWeight: 0
        outWeight: 0
      - serializedVersion: 3
        time: 0.43999997
        value: -0
        inSlope: 0
        outSlope: 0
        tangentMode: 0
        weightedMode: 0
        inWeight: 0
        outWeight: 0
      m_PreInfinity: 2
      m_PostInfinity: 2
      m_RotationOrder: 4
    attribute: m_Offset.y
    path: Visual/Collider_Body
    classID: 61
    script: {fileID: 0}
  - curve:
      serializedVersion: 2
      m_Curve:
      - serializedVersion: 3
        time: 0
        value: 0.875
        inSlope: 0
        outSlope: 0
        tangentMode: 0
        weightedMode: 0
        inWeight: 0
        outWeight: 0
      - serializedVersion: 3
        time: 0.04
        value: 0.875
        inSlope: 0
        outSlope: 0
        tangentMode: 0
        weightedMode: 0
        inWeight: 0
        outWeight: 0
      - serializedVersion: 3
        time: 0.08
        value: 0.875
        inSlope: 0
        outSlope: 0
        tangentMode: 0
        weightedMode: 0
        inWeight: 0
        outWeight: 0
      - serializedVersion: 3
        time: 0.12
        value: 0.875
        inSlope: 0
        outSlope: 0
        tangentMode: 0
        weightedMode: 0
        inWeight: 0
        outWeight: 0
      - serializedVersion: 3
        time: 0.16
        value: 0.875
        inSlope: 0
        outSlope: 0
        tangentMode: 0
        weightedMode: 0
        inWeight: 0
        outWeight: 0
      - serializedVersion: 3
        time: 0.2
        value: 0.875
        inSlope: 0
        outSlope: 0
        tangentMode: 0
        weightedMode: 0
        inWeight: 0
        outWeight: 0
      - serializedVersion: 3
        time: 0.24000001
        value: 0.875
        inSlope: 0
        outSlope: 0
        tangentMode: 0
        weightedMode: 0
        inWeight: 0
        outWeight: 0
      - serializedVersion: 3
        time: 0.28
        value: 0.875
        inSlope: 0
        outSlope: 0
        tangentMode: 0
        weightedMode: 0
        inWeight: 0
        outWeight: 0
      - serializedVersion: 3
        time: 0.32
        value: 0.875
        inSlope: 0
        outSlope: 0
        tangentMode: 0
        weightedMode: 0
        inWeight: 0
        outWeight: 0
      - serializedVersion: 3
        time: 0.35999998
        value: 0.875
        inSlope: 0
        outSlope: 0
        tangentMode: 0
        weightedMode: 0
        inWeight: 0
        outWeight: 0
      - serializedVersion: 3
        time: 0.39999998
        value: 0.875
        inSlope: 0
        outSlope: 0
        tangentMode: 0
        weightedMode: 0
        inWeight: 0
        outWeight: 0
      - serializedVersion: 3
        time: 0.43999997
        value: 0.875
        inSlope: 0
        outSlope: 0
        tangentMode: 0
        weightedMode: 0
        inWeight: 0
        outWeight: 0
      m_PreInfinity: 2
      m_PostInfinity: 2
      m_RotationOrder: 4
    attribute: m_Size.x
    path: Visual/Collider_Body
    classID: 61
    script: {fileID: 0}
  - curve:
      serializedVersion: 2
      m_Curve:
      - serializedVersion: 3
        time: 0
        value: -0.875
        inSlope: 0
        outSlope: 0
        tangentMode: 0
        weightedMode: 0
        inWeight: 0
        outWeight: 0
      - serializedVersion: 3
        time: 0.04
        value: -0.875
        inSlope: 0
        outSlope: 0
        tangentMode: 0
        weightedMode: 0
        inWeight: 0
        outWeight: 0
      - serializedVersion: 3
        time: 0.08
        value: -0.875
        inSlope: 0
        outSlope: 0
        tangentMode: 0
        weightedMode: 0
        inWeight: 0
        outWeight: 0
      - serializedVersion: 3
        time: 0.12
        value: -0.875
        inSlope: 0
        outSlope: 0
        tangentMode: 0
        weightedMode: 0
        inWeight: 0
        outWeight: 0
      - serializedVersion: 3
        time: 0.16
        value: -0.875
        inSlope: 0
        outSlope: 0
        tangentMode: 0
        weightedMode: 0
        inWeight: 0
        outWeight: 0
      - serializedVersion: 3
        time: 0.2
        value: -0.875
        inSlope: 0
        outSlope: 0
        tangentMode: 0
        weightedMode: 0
        inWeight: 0
        outWeight: 0
      - serializedVersion: 3
        time: 0.24000001
        value: -0.875
        inSlope: 0
        outSlope: 0
        tangentMode: 0
        weightedMode: 0
        inWeight: 0
        outWeight: 0
      - serializedVersion: 3
        time: 0.28
        value: -0.875
        inSlope: 0
        outSlope: 0
        tangentMode: 0
        weightedMode: 0
        inWeight: 0
        outWeight: 0
      - serializedVersion: 3
        time: 0.32
        value: -0.875
        inSlope: 0
        outSlope: 0
        tangentMode: 0
        weightedMode: 0
        inWeight: 0
        outWeight: 0
      - serializedVersion: 3
        time: 0.35999998
        value: -0.875
        inSlope: 0
        outSlope: 0
        tangentMode: 0
        weightedMode: 0
        inWeight: 0
        outWeight: 0
      - serializedVersion: 3
        time: 0.39999998
        value: -0.875
        inSlope: 0
        outSlope: 0
        tangentMode: 0
        weightedMode: 0
        inWeight: 0
        outWeight: 0
      - serializedVersion: 3
        time: 0.43999997
        value: -0.875
        inSlope: 0
        outSlope: 0
        tangentMode: 0
        weightedMode: 0
        inWeight: 0
        outWeight: 0
      m_PreInfinity: 2
      m_PostInfinity: 2
      m_RotationOrder: 4
    attribute: m_Size.y
    path: Visual/Collider_Body
    classID: 61
    script: {fileID: 0}
  m_PPtrCurves:
  - curve:
    - time: 0
      value: {fileID: -9191376473869886927, guid: 526d239d1546c2047891700b3906efa8,
        type: 3}
    - time: 0.04
      value: {fileID: -5025532445706705604, guid: 526d239d1546c2047891700b3906efa8,
        type: 3}
    - time: 0.08
      value: {fileID: -784720441320866703, guid: 526d239d1546c2047891700b3906efa8,
        type: 3}
    - time: 0.12
      value: {fileID: 8170252418021631784, guid: 526d239d1546c2047891700b3906efa8,
        type: 3}
    - time: 0.16
      value: {fileID: 7419428287684104520, guid: 526d239d1546c2047891700b3906efa8,
        type: 3}
    - time: 0.2
      value: {fileID: -2588976392423795741, guid: 526d239d1546c2047891700b3906efa8,
        type: 3}
    - time: 0.24000001
      value: {fileID: 2096569225699450834, guid: 526d239d1546c2047891700b3906efa8,
        type: 3}
    - time: 0.28
      value: {fileID: 9156963659843393478, guid: 526d239d1546c2047891700b3906efa8,
        type: 3}
    - time: 0.32
      value: {fileID: 1095566144390989656, guid: 526d239d1546c2047891700b3906efa8,
        type: 3}
    - time: 0.35999998
      value: {fileID: -8091020649528438785, guid: 526d239d1546c2047891700b3906efa8,
        type: 3}
    - time: 0.39999998
      value: {fileID: 3843370443304645403, guid: 526d239d1546c2047891700b3906efa8,
        type: 3}
    - time: 0.43999997
      value: {fileID: 3843370443304645403, guid: 526d239d1546c2047891700b3906efa8,
        type: 3}
    attribute: m_Sprite
    path: Visual/Render
    classID: 212
    script: {fileID: 0}
  m_SampleRate: 60
  m_WrapMode: 0
  m_Bounds:
    m_Center: {x: 0, y: 0, z: 0}
    m_Extent: {x: 0, y: 0, z: 0}
  m_ClipBindingConstant:
    genericBindings:
    - serializedVersion: 2
      path: 3017528832
      attribute: 1
      script: {fileID: 0}
      typeID: 4
      customType: 0
      isPPtrCurve: 0
    - serializedVersion: 2
      path: 1602060776
      attribute: 1
      script: {fileID: 0}
      typeID: 4
      customType: 0
      isPPtrCurve: 0
    - serializedVersion: 2
      path: 3017528832
      attribute: 0
      script: {fileID: 0}
      typeID: 212
      customType: 23
      isPPtrCurve: 1
    - serializedVersion: 2
      path: 1139656385
      attribute: 413499720
      script: {fileID: 0}
      typeID: 61
      customType: 0
      isPPtrCurve: 0
    - serializedVersion: 2
      path: 1139656385
      attribute: 1872933342
      script: {fileID: 0}
      typeID: 61
      customType: 0
      isPPtrCurve: 0
    - serializedVersion: 2
      path: 1139656385
      attribute: 4197328169
      script: {fileID: 0}
      typeID: 61
      customType: 0
      isPPtrCurve: 0
    - serializedVersion: 2
      path: 1139656385
      attribute: 2368279999
      script: {fileID: 0}
      typeID: 61
      customType: 0
      isPPtrCurve: 0
    pptrCurveMapping:
    - {fileID: -9191376473869886927, guid: 526d239d1546c2047891700b3906efa8, type: 3}
    - {fileID: -5025532445706705604, guid: 526d239d1546c2047891700b3906efa8, type: 3}
    - {fileID: -784720441320866703, guid: 526d239d1546c2047891700b3906efa8, type: 3}
    - {fileID: 8170252418021631784, guid: 526d239d1546c2047891700b3906efa8, type: 3}
    - {fileID: 7419428287684104520, guid: 526d239d1546c2047891700b3906efa8, type: 3}
    - {fileID: -2588976392423795741, guid: 526d239d1546c2047891700b3906efa8, type: 3}
    - {fileID: 2096569225699450834, guid: 526d239d1546c2047891700b3906efa8, type: 3}
    - {fileID: 9156963659843393478, guid: 526d239d1546c2047891700b3906efa8, type: 3}
    - {fileID: 1095566144390989656, guid: 526d239d1546c2047891700b3906efa8, type: 3}
    - {fileID: -8091020649528438785, guid: 526d239d1546c2047891700b3906efa8, type: 3}
    - {fileID: 3843370443304645403, guid: 526d239d1546c2047891700b3906efa8, type: 3}
    - {fileID: 3843370443304645403, guid: 526d239d1546c2047891700b3906efa8, type: 3}
  m_AnimationClipSettings:
    serializedVersion: 2
    m_AdditiveReferencePoseClip: {fileID: 0}
    m_AdditiveReferencePoseTime: 0
    m_StartTime: 0
    m_StopTime: 0.45666665
    m_OrientationOffsetY: 0
    m_Level: 0
    m_CycleOffset: 0
    m_HasAdditiveReferencePose: 0
    m_LoopTime: 0
    m_LoopBlend: 0
    m_LoopBlendOrientation: 0
    m_LoopBlendPositionY: 0
    m_LoopBlendPositionXZ: 0
    m_KeepOriginalOrientation: 0
    m_KeepOriginalPositionY: 1
    m_KeepOriginalPositionXZ: 0
    m_HeightFromFeet: 0
    m_Mirror: 0
  m_EditorCurves:
  - curve:
      serializedVersion: 2
      m_Curve:
      - serializedVersion: 3
        time: 0
        value: 0.1875
        inSlope: Infinity
        outSlope: -Infinity
        tangentMode: 0
        weightedMode: 0
        inWeight: 0
        outWeight: 0
      - serializedVersion: 3
        time: 0.04
        value: 0.15625
        inSlope: Infinity
        outSlope: -Infinity
        tangentMode: 0
        weightedMode: 0
        inWeight: 0
        outWeight: 0
      - serializedVersion: 3
        time: 0.08
        value: 0.1875
        inSlope: Infinity
        outSlope: -Infinity
        tangentMode: 0
        weightedMode: 0
        inWeight: 0
        outWeight: 0
      - serializedVersion: 3
        time: 0.12
        value: -0.125
        inSlope: Infinity
        outSlope: -Infinity
        tangentMode: 0
        weightedMode: 0
        inWeight: 0
        outWeight: 0
      - serializedVersion: 3
        time: 0.16
        value: -0.3125
        inSlope: Infinity
        outSlope: -Infinity
        tangentMode: 0
        weightedMode: 0
        inWeight: 0
        outWeight: 0
      - serializedVersion: 3
        time: 0.2
        value: -0.65625
        inSlope: Infinity
        outSlope: -Infinity
        tangentMode: 0
        weightedMode: 0
        inWeight: 0
        outWeight: 0
      - serializedVersion: 3
        time: 0.24000001
        value: 0
        inSlope: Infinity
        outSlope: -Infinity
        tangentMode: 0
        weightedMode: 0
        inWeight: 0
        outWeight: 0
      - serializedVersion: 3
        time: 0.28
        value: 0
        inSlope: Infinity
        outSlope: -Infinity
        tangentMode: 0
        weightedMode: 0
        inWeight: 0
        outWeight: 0
      - serializedVersion: 3
        time: 0.32
        value: 0.03125
        inSlope: Infinity
        outSlope: -Infinity
        tangentMode: 0
        weightedMode: 0
        inWeight: 0
        outWeight: 0
      - serializedVersion: 3
        time: 0.35999998
        value: 0.0625
        inSlope: Infinity
        outSlope: -Infinity
        tangentMode: 0
        weightedMode: 0
        inWeight: 0
        outWeight: 0
      - serializedVersion: 3
        time: 0.39999998
        value: 0.0625
        inSlope: Infinity
        outSlope: -Infinity
        tangentMode: 0
        weightedMode: 0
        inWeight: 0
        outWeight: 0
      - serializedVersion: 3
        time: 0.43999997
        value: 0.0625
        inSlope: Infinity
        outSlope: -Infinity
        tangentMode: 0
        weightedMode: 0
        inWeight: 0
        outWeight: 0
      m_PreInfinity: 2
      m_PostInfinity: 2
      m_RotationOrder: 4
    attribute: m_LocalPosition.x
    path: Visual/Render
    classID: 4
    script: {fileID: 0}
  - curve:
      serializedVersion: 2
      m_Curve:
      - serializedVersion: 3
        time: 0
        value: 0.0625
        inSlope: Infinity
        outSlope: -Infinity
        tangentMode: 0
        weightedMode: 0
        inWeight: 0
        outWeight: 0
      - serializedVersion: 3
        time: 0.04
        value: 0.0625
        inSlope: Infinity
        outSlope: -Infinity
        tangentMode: 0
        weightedMode: 0
        inWeight: 0
        outWeight: 0
      - serializedVersion: 3
        time: 0.08
        value: -0.15625
        inSlope: Infinity
        outSlope: -Infinity
        tangentMode: 0
        weightedMode: 0
        inWeight: 0
        outWeight: 0
      - serializedVersion: 3
        time: 0.12
        value: -0.21875
        inSlope: Infinity
        outSlope: -Infinity
        tangentMode: 0
        weightedMode: 0
        inWeight: 0
        outWeight: 0
      - serializedVersion: 3
        time: 0.16
        value: -0.3125
        inSlope: Infinity
        outSlope: -Infinity
        tangentMode: 0
        weightedMode: 0
        inWeight: 0
        outWeight: 0
      - serializedVersion: 3
        time: 0.2
        value: -0.34375
        inSlope: Infinity
        outSlope: -Infinity
        tangentMode: 0
        weightedMode: 0
        inWeight: 0
        outWeight: 0
      - serializedVersion: 3
        time: 0.24000001
        value: -0.09375
        inSlope: Infinity
        outSlope: -Infinity
        tangentMode: 0
        weightedMode: 0
        inWeight: 0
        outWeight: 0
      - serializedVersion: 3
        time: 0.28
        value: 0.03125
        inSlope: Infinity
        outSlope: -Infinity
        tangentMode: 0
        weightedMode: 0
        inWeight: 0
        outWeight: 0
      - serializedVersion: 3
        time: 0.32
        value: 0.09375
        inSlope: Infinity
        outSlope: -Infinity
        tangentMode: 0
        weightedMode: 0
        inWeight: 0
        outWeight: 0
      - serializedVersion: 3
        time: 0.35999998
        value: 0.125
        inSlope: Infinity
        outSlope: -Infinity
        tangentMode: 0
        weightedMode: 0
        inWeight: 0
        outWeight: 0
      - serializedVersion: 3
        time: 0.39999998
        value: 0.09375
        inSlope: Infinity
        outSlope: -Infinity
        tangentMode: 0
        weightedMode: 0
        inWeight: 0
        outWeight: 0
      - serializedVersion: 3
        time: 0.43999997
        value: 0.09375
        inSlope: Infinity
        outSlope: -Infinity
        tangentMode: 0
        weightedMode: 0
        inWeight: 0
        outWeight: 0
      m_PreInfinity: 2
      m_PostInfinity: 2
      m_RotationOrder: 4
    attribute: m_LocalPosition.y
    path: Visual/Render
    classID: 4
    script: {fileID: 0}
  - curve:
      serializedVersion: 2
      m_Curve:
      - serializedVersion: 3
        time: 0
        value: -0.34375
        inSlope: Infinity
        outSlope: -Infinity
        tangentMode: 0
        weightedMode: 0
        inWeight: 0
        outWeight: 0
      - serializedVersion: 3
        time: 0.04
        value: -0.65625
        inSlope: Infinity
        outSlope: -Infinity
        tangentMode: 0
        weightedMode: 0
        inWeight: 0
        outWeight: 0
      - serializedVersion: 3
        time: 0.08
        value: -0.71875
        inSlope: Infinity
        outSlope: -Infinity
        tangentMode: 0
        weightedMode: 0
        inWeight: 0
        outWeight: 0
      - serializedVersion: 3
        time: 0.12
        value: -0.78125
        inSlope: Infinity
        outSlope: -Infinity
        tangentMode: 0
        weightedMode: 0
        inWeight: 0
        outWeight: 0
      - serializedVersion: 3
        time: 0.16
        value: -0.90625
        inSlope: Infinity
        outSlope: -Infinity
        tangentMode: 0
        weightedMode: 0
        inWeight: 0
        outWeight: 0
      - serializedVersion: 3
        time: 0.2
        value: -0.71875
        inSlope: Infinity
        outSlope: -Infinity
        tangentMode: 0
        weightedMode: 0
        inWeight: 0
        outWeight: 0
      - serializedVersion: 3
        time: 0.24000001
        value: -0.71875
        inSlope: Infinity
        outSlope: -Infinity
        tangentMode: 0
        weightedMode: 0
        inWeight: 0
        outWeight: 0
      - serializedVersion: 3
        time: 0.28
        value: -0.46875
        inSlope: Infinity
        outSlope: -Infinity
        tangentMode: 0
        weightedMode: 0
        inWeight: 0
        outWeight: 0
      - serializedVersion: 3
        time: 0.32
        value: -0.40625
        inSlope: Infinity
        outSlope: -Infinity
        tangentMode: 0
        weightedMode: 0
        inWeight: 0
        outWeight: 0
      - serializedVersion: 3
        time: 0.35999998
        value: -0.34375
        inSlope: Infinity
        outSlope: -Infinity
        tangentMode: 0
        weightedMode: 0
        inWeight: 0
        outWeight: 0
      - serializedVersion: 3
        time: 0.39999998
        value: -0.34375
        inSlope: Infinity
        outSlope: -Infinity
        tangentMode: 0
        weightedMode: 0
        inWeight: 0
        outWeight: 0
      - serializedVersion: 3
        time: 0.43999997
        value: -0.34375
        inSlope: Infinity
        outSlope: -Infinity
        tangentMode: 0
        weightedMode: 0
        inWeight: 0
        outWeight: 0
      m_PreInfinity: 2
      m_PostInfinity: 2
      m_RotationOrder: 4
    attribute: m_LocalPosition.x
    path: Visual/Pivot_Scarf
    classID: 4
    script: {fileID: 0}
  - curve:
      serializedVersion: 2
      m_Curve:
      - serializedVersion: 3
        time: 0
        value: 0.40625
        inSlope: Infinity
        outSlope: -Infinity
        tangentMode: 0
        weightedMode: 0
        inWeight: 0
        outWeight: 0
      - serializedVersion: 3
        time: 0.04
        value: 0.09375
        inSlope: Infinity
        outSlope: -Infinity
        tangentMode: 0
        weightedMode: 0
        inWeight: 0
        outWeight: 0
      - serializedVersion: 3
        time: 0.08
        value: 0.03125
        inSlope: Infinity
        outSlope: -Infinity
        tangentMode: 0
        weightedMode: 0
        inWeight: 0
        outWeight: 0
      - serializedVersion: 3
        time: 0.12
        value: -0.03125
        inSlope: Infinity
        outSlope: -Infinity
        tangentMode: 0
        weightedMode: 0
        inWeight: 0
        outWeight: 0
      - serializedVersion: 3
        time: 0.16
        value: -0.03125
        inSlope: Infinity
        outSlope: -Infinity
        tangentMode: 0
        weightedMode: 0
        inWeight: 0
        outWeight: 0
      - serializedVersion: 3
        time: 0.2
        value: 0.03125
        inSlope: Infinity
        outSlope: -Infinity
        tangentMode: 0
        weightedMode: 0
        inWeight: 0
        outWeight: 0
      - serializedVersion: 3
        time: 0.24000001
        value: 0.03125
        inSlope: Infinity
        outSlope: -Infinity
        tangentMode: 0
        weightedMode: 0
        inWeight: 0
        outWeight: 0
      - serializedVersion: 3
        time: 0.28
        value: 0.28125
        inSlope: Infinity
        outSlope: -Infinity
        tangentMode: 0
        weightedMode: 0
        inWeight: 0
        outWeight: 0
      - serializedVersion: 3
        time: 0.32
        value: 0.40625
        inSlope: Infinity
        outSlope: -Infinity
        tangentMode: 0
        weightedMode: 0
        inWeight: 0
        outWeight: 0
      - serializedVersion: 3
        time: 0.35999998
        value: 0.53125
        inSlope: Infinity
        outSlope: -Infinity
        tangentMode: 0
        weightedMode: 0
        inWeight: 0
        outWeight: 0
      - serializedVersion: 3
        time: 0.39999998
        value: 0.46875
        inSlope: Infinity
        outSlope: -Infinity
        tangentMode: 0
        weightedMode: 0
        inWeight: 0
        outWeight: 0
      - serializedVersion: 3
        time: 0.43999997
        value: 0.46875
        inSlope: Infinity
        outSlope: -Infinity
        tangentMode: 0
        weightedMode: 0
        inWeight: 0
        outWeight: 0
      m_PreInfinity: 2
      m_PostInfinity: 2
      m_RotationOrder: 4
    attribute: m_LocalPosition.y
    path: Visual/Pivot_Scarf
    classID: 4
    script: {fileID: 0}
  - curve:
      serializedVersion: 2
      m_Curve:
      - serializedVersion: 3
        time: 0
        value: 0
        inSlope: 0
        outSlope: 0
        tangentMode: 0
        weightedMode: 0
        inWeight: 0
        outWeight: 0
      - serializedVersion: 3
        time: 0.04
        value: 0
        inSlope: 0
        outSlope: 0
        tangentMode: 0
        weightedMode: 0
        inWeight: 0
        outWeight: 0
      - serializedVersion: 3
        time: 0.08
        value: 0
        inSlope: 0
        outSlope: 0
        tangentMode: 0
        weightedMode: 0
        inWeight: 0
        outWeight: 0
      - serializedVersion: 3
        time: 0.12
        value: 0
        inSlope: 0
        outSlope: 0
        tangentMode: 0
        weightedMode: 0
        inWeight: 0
        outWeight: 0
      - serializedVersion: 3
        time: 0.16
        value: 0
        inSlope: 0
        outSlope: 0
        tangentMode: 0
        weightedMode: 0
        inWeight: 0
        outWeight: 0
      - serializedVersion: 3
        time: 0.2
        value: 0
        inSlope: 0
        outSlope: 0
        tangentMode: 0
        weightedMode: 0
        inWeight: 0
        outWeight: 0
      - serializedVersion: 3
        time: 0.24000001
        value: 0
        inSlope: 0
        outSlope: 0
        tangentMode: 0
        weightedMode: 0
        inWeight: 0
        outWeight: 0
      - serializedVersion: 3
        time: 0.28
        value: 0
        inSlope: 0
        outSlope: 0
        tangentMode: 0
        weightedMode: 0
        inWeight: 0
        outWeight: 0
      - serializedVersion: 3
        time: 0.32
        value: 0
        inSlope: 0
        outSlope: 0
        tangentMode: 0
        weightedMode: 0
        inWeight: 0
        outWeight: 0
      - serializedVersion: 3
        time: 0.35999998
        value: 0
        inSlope: 0
        outSlope: 0
        tangentMode: 0
        weightedMode: 0
        inWeight: 0
        outWeight: 0
      - serializedVersion: 3
        time: 0.39999998
        value: 0
        inSlope: 0
        outSlope: 0
        tangentMode: 0
        weightedMode: 0
        inWeight: 0
        outWeight: 0
      - serializedVersion: 3
        time: 0.43999997
        value: 0
        inSlope: 0
        outSlope: 0
        tangentMode: 0
        weightedMode: 0
        inWeight: 0
        outWeight: 0
      m_PreInfinity: 2
      m_PostInfinity: 2
      m_RotationOrder: 4
    attribute: m_Offset.x
    path: Visual/Collider_Body
    classID: 61
    script: {fileID: 0}
  - curve:
      serializedVersion: 2
      m_Curve:
      - serializedVersion: 3
        time: 0
        value: -0
        inSlope: 0
        outSlope: 0
        tangentMode: 0
        weightedMode: 0
        inWeight: 0
        outWeight: 0
      - serializedVersion: 3
        time: 0.04
        value: -0
        inSlope: 0
        outSlope: 0
        tangentMode: 0
        weightedMode: 0
        inWeight: 0
        outWeight: 0
      - serializedVersion: 3
        time: 0.08
        value: -0
        inSlope: 0
        outSlope: 0
        tangentMode: 0
        weightedMode: 0
        inWeight: 0
        outWeight: 0
      - serializedVersion: 3
        time: 0.12
        value: -0
        inSlope: 0
        outSlope: 0
        tangentMode: 0
        weightedMode: 0
        inWeight: 0
        outWeight: 0
      - serializedVersion: 3
        time: 0.16
        value: -0
        inSlope: 0
        outSlope: 0
        tangentMode: 0
        weightedMode: 0
        inWeight: 0
        outWeight: 0
      - serializedVersion: 3
        time: 0.2
        value: -0
        inSlope: 0
        outSlope: 0
        tangentMode: 0
        weightedMode: 0
        inWeight: 0
        outWeight: 0
      - serializedVersion: 3
        time: 0.24000001
        value: -0
        inSlope: 0
        outSlope: 0
        tangentMode: 0
        weightedMode: 0
        inWeight: 0
        outWeight: 0
      - serializedVersion: 3
        time: 0.28
        value: -0
        inSlope: 0
        outSlope: 0
        tangentMode: 0
        weightedMode: 0
        inWeight: 0
        outWeight: 0
      - serializedVersion: 3
        time: 0.32
        value: -0
        inSlope: 0
        outSlope: 0
        tangentMode: 0
        weightedMode: 0
        inWeight: 0
        outWeight: 0
      - serializedVersion: 3
        time: 0.35999998
        value: -0
        inSlope: 0
        outSlope: 0
        tangentMode: 0
        weightedMode: 0
        inWeight: 0
        outWeight: 0
      - serializedVersion: 3
        time: 0.39999998
        value: -0
        inSlope: 0
        outSlope: 0
        tangentMode: 0
        weightedMode: 0
        inWeight: 0
        outWeight: 0
      - serializedVersion: 3
        time: 0.43999997
        value: -0
        inSlope: 0
        outSlope: 0
        tangentMode: 0
        weightedMode: 0
        inWeight: 0
        outWeight: 0
      m_PreInfinity: 2
      m_PostInfinity: 2
      m_RotationOrder: 4
    attribute: m_Offset.y
    path: Visual/Collider_Body
    classID: 61
    script: {fileID: 0}
  - curve:
      serializedVersion: 2
      m_Curve:
      - serializedVersion: 3
        time: 0
        value: 0.875
        inSlope: 0
        outSlope: 0
        tangentMode: 0
        weightedMode: 0
        inWeight: 0
        outWeight: 0
      - serializedVersion: 3
        time: 0.04
        value: 0.875
        inSlope: 0
        outSlope: 0
        tangentMode: 0
        weightedMode: 0
        inWeight: 0
        outWeight: 0
      - serializedVersion: 3
        time: 0.08
        value: 0.875
        inSlope: 0
        outSlope: 0
        tangentMode: 0
        weightedMode: 0
        inWeight: 0
        outWeight: 0
      - serializedVersion: 3
        time: 0.12
        value: 0.875
        inSlope: 0
        outSlope: 0
        tangentMode: 0
        weightedMode: 0
        inWeight: 0
        outWeight: 0
      - serializedVersion: 3
        time: 0.16
        value: 0.875
        inSlope: 0
        outSlope: 0
        tangentMode: 0
        weightedMode: 0
        inWeight: 0
        outWeight: 0
      - serializedVersion: 3
        time: 0.2
        value: 0.875
        inSlope: 0
        outSlope: 0
        tangentMode: 0
        weightedMode: 0
        inWeight: 0
        outWeight: 0
      - serializedVersion: 3
        time: 0.24000001
        value: 0.875
        inSlope: 0
        outSlope: 0
        tangentMode: 0
        weightedMode: 0
        inWeight: 0
        outWeight: 0
      - serializedVersion: 3
        time: 0.28
        value: 0.875
        inSlope: 0
        outSlope: 0
        tangentMode: 0
        weightedMode: 0
        inWeight: 0
        outWeight: 0
      - serializedVersion: 3
        time: 0.32
        value: 0.875
        inSlope: 0
        outSlope: 0
        tangentMode: 0
        weightedMode: 0
        inWeight: 0
        outWeight: 0
      - serializedVersion: 3
        time: 0.35999998
        value: 0.875
        inSlope: 0
        outSlope: 0
        tangentMode: 0
        weightedMode: 0
        inWeight: 0
        outWeight: 0
      - serializedVersion: 3
        time: 0.39999998
        value: 0.875
        inSlope: 0
        outSlope: 0
        tangentMode: 0
        weightedMode: 0
        inWeight: 0
        outWeight: 0
      - serializedVersion: 3
        time: 0.43999997
        value: 0.875
        inSlope: 0
        outSlope: 0
        tangentMode: 0
        weightedMode: 0
        inWeight: 0
        outWeight: 0
      m_PreInfinity: 2
      m_PostInfinity: 2
      m_RotationOrder: 4
    attribute: m_Size.x
    path: Visual/Collider_Body
    classID: 61
    script: {fileID: 0}
  - curve:
      serializedVersion: 2
      m_Curve:
      - serializedVersion: 3
        time: 0
        value: -0.875
        inSlope: 0
        outSlope: 0
        tangentMode: 0
        weightedMode: 0
        inWeight: 0
        outWeight: 0
      - serializedVersion: 3
        time: 0.04
        value: -0.875
        inSlope: 0
        outSlope: 0
        tangentMode: 0
        weightedMode: 0
        inWeight: 0
        outWeight: 0
      - serializedVersion: 3
        time: 0.08
        value: -0.875
        inSlope: 0
        outSlope: 0
        tangentMode: 0
        weightedMode: 0
        inWeight: 0
        outWeight: 0
      - serializedVersion: 3
        time: 0.12
        value: -0.875
        inSlope: 0
        outSlope: 0
        tangentMode: 0
        weightedMode: 0
        inWeight: 0
        outWeight: 0
      - serializedVersion: 3
        time: 0.16
        value: -0.875
        inSlope: 0
        outSlope: 0
        tangentMode: 0
        weightedMode: 0
        inWeight: 0
        outWeight: 0
      - serializedVersion: 3
        time: 0.2
        value: -0.875
        inSlope: 0
        outSlope: 0
        tangentMode: 0
        weightedMode: 0
        inWeight: 0
        outWeight: 0
      - serializedVersion: 3
        time: 0.24000001
        value: -0.875
        inSlope: 0
        outSlope: 0
        tangentMode: 0
        weightedMode: 0
        inWeight: 0
        outWeight: 0
      - serializedVersion: 3
        time: 0.28
        value: -0.875
        inSlope: 0
        outSlope: 0
        tangentMode: 0
        weightedMode: 0
        inWeight: 0
        outWeight: 0
      - serializedVersion: 3
        time: 0.32
        value: -0.875
        inSlope: 0
        outSlope: 0
        tangentMode: 0
        weightedMode: 0
        inWeight: 0
        outWeight: 0
      - serializedVersion: 3
        time: 0.35999998
        value: -0.875
        inSlope: 0
        outSlope: 0
        tangentMode: 0
        weightedMode: 0
        inWeight: 0
        outWeight: 0
      - serializedVersion: 3
        time: 0.39999998
        value: -0.875
        inSlope: 0
        outSlope: 0
        tangentMode: 0
        weightedMode: 0
        inWeight: 0
        outWeight: 0
      - serializedVersion: 3
        time: 0.43999997
        value: -0.875
        inSlope: 0
        outSlope: 0
        tangentMode: 0
        weightedMode: 0
        inWeight: 0
        outWeight: 0
      m_PreInfinity: 2
      m_PostInfinity: 2
      m_RotationOrder: 4
    attribute: m_Size.y
    path: Visual/Collider_Body
    classID: 61
    script: {fileID: 0}
  m_EulerEditorCurves: []
  m_HasGenericRootTransform: 0
  m_HasMotionFloatCurves: 0
  m_Events: []
