{ "frames": [
   {
    "filename": "Reborn 0.aseprite",
    "frame": { "x": 127, "y": 348, "w": 42, "h": 11 },
    "rotated": false,
    "trimmed": true,
    "spriteSourceSize": { "x": 35, "y": 82, "w": 42, "h": 11 },
    "sourceSize": { "w": 128, "h": 128 },
    "duration": 200
   },
   {
    "filename": "Reborn 1.aseprite",
    "frame": { "x": 43, "y": 336, "w": 42, "h": 11 },
    "rotated": false,
    "trimmed": true,
    "spriteSourceSize": { "x": 35, "y": 82, "w": 42, "h": 11 },
    "sourceSize": { "w": 128, "h": 128 },
    "duration": 160
   },
   {
    "filename": "Reborn 2.aseprite",
    "frame": { "x": 43, "y": 347, "w": 42, "h": 11 },
    "rotated": false,
    "trimmed": true,
    "spriteSourceSize": { "x": 35, "y": 82, "w": 42, "h": 11 },
    "sourceSize": { "w": 128, "h": 128 },
    "duration": 160
   },
   {
    "filename": "Reborn 3.aseprite",
    "frame": { "x": 85, "y": 347, "w": 42, "h": 11 },
    "rotated": false,
    "trimmed": true,
    "spriteSourceSize": { "x": 35, "y": 82, "w": 42, "h": 11 },
    "sourceSize": { "w": 128, "h": 128 },
    "duration": 160
   },
   {
    "filename": "Reborn 4.aseprite",
    "frame": { "x": 0, "y": 348, "w": 42, "h": 11 },
    "rotated": false,
    "trimmed": true,
    "spriteSourceSize": { "x": 35, "y": 82, "w": 42, "h": 11 },
    "sourceSize": { "w": 128, "h": 128 },
    "duration": 160
   },
   {
    "filename": "Reborn 5.aseprite",
    "frame": { "x": 86, "y": 335, "w": 43, "h": 12 },
    "rotated": false,
    "trimmed": true,
    "spriteSourceSize": { "x": 35, "y": 82, "w": 43, "h": 12 },
    "sourceSize": { "w": 128, "h": 128 },
    "duration": 160
   },
   {
    "filename": "Reborn 6.aseprite",
    "frame": { "x": 0, "y": 335, "w": 43, "h": 13 },
    "rotated": false,
    "trimmed": true,
    "spriteSourceSize": { "x": 35, "y": 82, "w": 43, "h": 13 },
    "sourceSize": { "w": 128, "h": 128 },
    "duration": 160
   },
   {
    "filename": "Reborn 7.aseprite",
    "frame": { "x": 129, "y": 334, "w": 43, "h": 14 },
    "rotated": false,
    "trimmed": true,
    "spriteSourceSize": { "x": 35, "y": 82, "w": 43, "h": 14 },
    "sourceSize": { "w": 128, "h": 128 },
    "duration": 160
   },
   {
    "filename": "Reborn 8.aseprite",
    "frame": { "x": 129, "y": 319, "w": 43, "h": 15 },
    "rotated": false,
    "trimmed": true,
    "spriteSourceSize": { "x": 35, "y": 82, "w": 43, "h": 15 },
    "sourceSize": { "w": 128, "h": 128 },
    "duration": 160
   },
   {
    "filename": "Reborn 9.aseprite",
    "frame": { "x": 0, "y": 319, "w": 43, "h": 16 },
    "rotated": false,
    "trimmed": true,
    "spriteSourceSize": { "x": 35, "y": 82, "w": 43, "h": 16 },
    "sourceSize": { "w": 128, "h": 128 },
    "duration": 160
   },
   {
    "filename": "Reborn 10.aseprite",
    "frame": { "x": 86, "y": 318, "w": 43, "h": 17 },
    "rotated": false,
    "trimmed": true,
    "spriteSourceSize": { "x": 35, "y": 82, "w": 43, "h": 17 },
    "sourceSize": { "w": 128, "h": 128 },
    "duration": 160
   },
   {
    "filename": "Reborn 11.aseprite",
    "frame": { "x": 43, "y": 318, "w": 43, "h": 18 },
    "rotated": false,
    "trimmed": true,
    "spriteSourceSize": { "x": 35, "y": 82, "w": 43, "h": 18 },
    "sourceSize": { "w": 128, "h": 128 },
    "duration": 160
   },
   {
    "filename": "Reborn 12.aseprite",
    "frame": { "x": 182, "y": 316, "w": 43, "h": 46 },
    "rotated": false,
    "trimmed": true,
    "spriteSourceSize": { "x": 35, "y": 82, "w": 43, "h": 46 },
    "sourceSize": { "w": 128, "h": 128 },
    "duration": 160
   },
   {
    "filename": "Reborn 13.aseprite",
    "frame": { "x": 139, "y": 273, "w": 43, "h": 46 },
    "rotated": false,
    "trimmed": true,
    "spriteSourceSize": { "x": 35, "y": 82, "w": 43, "h": 46 },
    "sourceSize": { "w": 128, "h": 128 },
    "duration": 160
   },
   {
    "filename": "Reborn 14.aseprite",
    "frame": { "x": 250, "y": 270, "w": 43, "h": 46 },
    "rotated": false,
    "trimmed": true,
    "spriteSourceSize": { "x": 35, "y": 82, "w": 43, "h": 46 },
    "sourceSize": { "w": 128, "h": 128 },
    "duration": 160
   },
   {
    "filename": "Reborn 15.aseprite",
    "frame": { "x": 0, "y": 273, "w": 43, "h": 46 },
    "rotated": false,
    "trimmed": true,
    "spriteSourceSize": { "x": 35, "y": 82, "w": 43, "h": 46 },
    "sourceSize": { "w": 128, "h": 128 },
    "duration": 160
   },
   {
    "filename": "Reborn 16.aseprite",
    "frame": { "x": 96, "y": 272, "w": 43, "h": 46 },
    "rotated": false,
    "trimmed": true,
    "spriteSourceSize": { "x": 35, "y": 82, "w": 43, "h": 46 },
    "sourceSize": { "w": 128, "h": 128 },
    "duration": 160
   },
   {
    "filename": "Reborn 17.aseprite",
    "frame": { "x": 53, "y": 272, "w": 43, "h": 46 },
    "rotated": false,
    "trimmed": true,
    "spriteSourceSize": { "x": 35, "y": 82, "w": 43, "h": 46 },
    "sourceSize": { "w": 128, "h": 128 },
    "duration": 160
   },
   {
    "filename": "Reborn 18.aseprite",
    "frame": { "x": 336, "y": 271, "w": 43, "h": 46 },
    "rotated": false,
    "trimmed": true,
    "spriteSourceSize": { "x": 35, "y": 82, "w": 43, "h": 46 },
    "sourceSize": { "w": 128, "h": 128 },
    "duration": 160
   },
   {
    "filename": "Reborn 19.aseprite",
    "frame": { "x": 293, "y": 270, "w": 43, "h": 46 },
    "rotated": false,
    "trimmed": true,
    "spriteSourceSize": { "x": 35, "y": 82, "w": 43, "h": 46 },
    "sourceSize": { "w": 128, "h": 128 },
    "duration": 160
   },
   {
    "filename": "Reborn 20.aseprite",
    "frame": { "x": 311, "y": 317, "w": 43, "h": 46 },
    "rotated": false,
    "trimmed": true,
    "spriteSourceSize": { "x": 35, "y": 82, "w": 43, "h": 46 },
    "sourceSize": { "w": 128, "h": 128 },
    "duration": 160
   },
   {
    "filename": "Reborn 21.aseprite",
    "frame": { "x": 268, "y": 316, "w": 43, "h": 46 },
    "rotated": false,
    "trimmed": true,
    "spriteSourceSize": { "x": 35, "y": 82, "w": 43, "h": 46 },
    "sourceSize": { "w": 128, "h": 128 },
    "duration": 160
   },
   {
    "filename": "Reborn 22.aseprite",
    "frame": { "x": 225, "y": 316, "w": 43, "h": 46 },
    "rotated": false,
    "trimmed": true,
    "spriteSourceSize": { "x": 35, "y": 82, "w": 43, "h": 46 },
    "sourceSize": { "w": 128, "h": 128 },
    "duration": 60
   },
   {
    "filename": "Reborn 23.aseprite",
    "frame": { "x": 225, "y": 316, "w": 43, "h": 46 },
    "rotated": false,
    "trimmed": true,
    "spriteSourceSize": { "x": 35, "y": 82, "w": 43, "h": 46 },
    "sourceSize": { "w": 128, "h": 128 },
    "duration": 60
   },
   {
    "filename": "Reborn 24.aseprite",
    "frame": { "x": 225, "y": 316, "w": 43, "h": 46 },
    "rotated": false,
    "trimmed": true,
    "spriteSourceSize": { "x": 35, "y": 82, "w": 43, "h": 46 },
    "sourceSize": { "w": 128, "h": 128 },
    "duration": 60
   },
   {
    "filename": "Reborn 25.aseprite",
    "frame": { "x": 225, "y": 316, "w": 43, "h": 46 },
    "rotated": false,
    "trimmed": true,
    "spriteSourceSize": { "x": 35, "y": 82, "w": 43, "h": 46 },
    "sourceSize": { "w": 128, "h": 128 },
    "duration": 60
   },
   {
    "filename": "Reborn 26.aseprite",
    "frame": { "x": 225, "y": 316, "w": 43, "h": 46 },
    "rotated": false,
    "trimmed": true,
    "spriteSourceSize": { "x": 35, "y": 82, "w": 43, "h": 46 },
    "sourceSize": { "w": 128, "h": 128 },
    "duration": 60
   },
   {
    "filename": "Reborn 27.aseprite",
    "frame": { "x": 225, "y": 316, "w": 43, "h": 46 },
    "rotated": false,
    "trimmed": true,
    "spriteSourceSize": { "x": 35, "y": 82, "w": 43, "h": 46 },
    "sourceSize": { "w": 128, "h": 128 },
    "duration": 60
   },
   {
    "filename": "Reborn 28.aseprite",
    "frame": { "x": 225, "y": 316, "w": 43, "h": 46 },
    "rotated": false,
    "trimmed": true,
    "spriteSourceSize": { "x": 35, "y": 82, "w": 43, "h": 46 },
    "sourceSize": { "w": 128, "h": 128 },
    "duration": 60
   },
   {
    "filename": "Reborn 29.aseprite",
    "frame": { "x": 225, "y": 316, "w": 43, "h": 46 },
    "rotated": false,
    "trimmed": true,
    "spriteSourceSize": { "x": 35, "y": 82, "w": 43, "h": 46 },
    "sourceSize": { "w": 128, "h": 128 },
    "duration": 60
   },
   {
    "filename": "Reborn 30.aseprite",
    "frame": { "x": 225, "y": 316, "w": 43, "h": 46 },
    "rotated": false,
    "trimmed": true,
    "spriteSourceSize": { "x": 35, "y": 82, "w": 43, "h": 46 },
    "sourceSize": { "w": 128, "h": 128 },
    "duration": 60
   },
   {
    "filename": "Reborn 31.aseprite",
    "frame": { "x": 225, "y": 316, "w": 43, "h": 46 },
    "rotated": false,
    "trimmed": true,
    "spriteSourceSize": { "x": 35, "y": 82, "w": 43, "h": 46 },
    "sourceSize": { "w": 128, "h": 128 },
    "duration": 80
   },
   {
    "filename": "Reborn 32.aseprite",
    "frame": { "x": 0, "y": 59, "w": 60, "h": 51 },
    "rotated": false,
    "trimmed": true,
    "spriteSourceSize": { "x": 35, "y": 77, "w": 60, "h": 51 },
    "sourceSize": { "w": 128, "h": 128 },
    "duration": 80
   },
   {
    "filename": "Reborn 33.aseprite",
    "frame": { "x": 0, "y": 0, "w": 59, "h": 58 },
    "rotated": false,
    "trimmed": true,
    "spriteSourceSize": { "x": 35, "y": 70, "w": 59, "h": 58 },
    "sourceSize": { "w": 128, "h": 128 },
    "duration": 80
   },
   {
    "filename": "Reborn 34.aseprite",
    "frame": { "x": 117, "y": 0, "w": 57, "h": 57 },
    "rotated": false,
    "trimmed": true,
    "spriteSourceSize": { "x": 35, "y": 71, "w": 57, "h": 57 },
    "sourceSize": { "w": 128, "h": 128 },
    "duration": 80
   },
   {
    "filename": "Reborn 35.aseprite",
    "frame": { "x": 343, "y": 0, "w": 56, "h": 56 },
    "rotated": false,
    "trimmed": true,
    "spriteSourceSize": { "x": 35, "y": 72, "w": 56, "h": 56 },
    "sourceSize": { "w": 128, "h": 128 },
    "duration": 80
   },
   {
    "filename": "Reborn 36.aseprite",
    "frame": { "x": 343, "y": 56, "w": 56, "h": 56 },
    "rotated": false,
    "trimmed": true,
    "spriteSourceSize": { "x": 35, "y": 72, "w": 56, "h": 56 },
    "sourceSize": { "w": 128, "h": 128 },
    "duration": 80
   },
   {
    "filename": "Reborn 37.aseprite",
    "frame": { "x": 0, "y": 110, "w": 57, "h": 53 },
    "rotated": false,
    "trimmed": true,
    "spriteSourceSize": { "x": 35, "y": 75, "w": 57, "h": 53 },
    "sourceSize": { "w": 128, "h": 128 },
    "duration": 80
   },
   {
    "filename": "Reborn 38.aseprite",
    "frame": { "x": 285, "y": 111, "w": 57, "h": 53 },
    "rotated": false,
    "trimmed": true,
    "spriteSourceSize": { "x": 35, "y": 75, "w": 57, "h": 53 },
    "sourceSize": { "w": 128, "h": 128 },
    "duration": 80
   },
   {
    "filename": "Reborn 39.aseprite",
    "frame": { "x": 223, "y": 165, "w": 57, "h": 51 },
    "rotated": false,
    "trimmed": true,
    "spriteSourceSize": { "x": 35, "y": 77, "w": 57, "h": 51 },
    "sourceSize": { "w": 128, "h": 128 },
    "duration": 80
   },
   {
    "filename": "Reborn 40.aseprite",
    "frame": { "x": 57, "y": 113, "w": 57, "h": 53 },
    "rotated": false,
    "trimmed": true,
    "spriteSourceSize": { "x": 35, "y": 75, "w": 57, "h": 53 },
    "sourceSize": { "w": 128, "h": 128 },
    "duration": 80
   },
   {
    "filename": "Reborn 41.aseprite",
    "frame": { "x": 173, "y": 57, "w": 56, "h": 56 },
    "rotated": false,
    "trimmed": true,
    "spriteSourceSize": { "x": 35, "y": 72, "w": 56, "h": 56 },
    "sourceSize": { "w": 128, "h": 128 },
    "duration": 80
   },
   {
    "filename": "Reborn 42.aseprite",
    "frame": { "x": 287, "y": 0, "w": 56, "h": 57 },
    "rotated": false,
    "trimmed": true,
    "spriteSourceSize": { "x": 35, "y": 71, "w": 56, "h": 57 },
    "sourceSize": { "w": 128, "h": 128 },
    "duration": 80
   },
   {
    "filename": "Reborn 43.aseprite",
    "frame": { "x": 174, "y": 0, "w": 57, "h": 57 },
    "rotated": false,
    "trimmed": true,
    "spriteSourceSize": { "x": 35, "y": 71, "w": 57, "h": 57 },
    "sourceSize": { "w": 128, "h": 128 },
    "duration": 80
   },
   {
    "filename": "Reborn 44.aseprite",
    "frame": { "x": 231, "y": 0, "w": 56, "h": 57 },
    "rotated": false,
    "trimmed": true,
    "spriteSourceSize": { "x": 35, "y": 71, "w": 56, "h": 57 },
    "sourceSize": { "w": 128, "h": 128 },
    "duration": 80
   },
   {
    "filename": "Reborn 45.aseprite",
    "frame": { "x": 117, "y": 57, "w": 56, "h": 56 },
    "rotated": false,
    "trimmed": true,
    "spriteSourceSize": { "x": 35, "y": 72, "w": 56, "h": 56 },
    "sourceSize": { "w": 128, "h": 128 },
    "duration": 80
   },
   {
    "filename": "Reborn 46.aseprite",
    "frame": { "x": 229, "y": 57, "w": 56, "h": 55 },
    "rotated": false,
    "trimmed": true,
    "spriteSourceSize": { "x": 35, "y": 73, "w": 56, "h": 55 },
    "sourceSize": { "w": 128, "h": 128 },
    "duration": 80
   },
   {
    "filename": "Reborn 47.aseprite",
    "frame": { "x": 60, "y": 59, "w": 56, "h": 54 },
    "rotated": false,
    "trimmed": true,
    "spriteSourceSize": { "x": 35, "y": 74, "w": 56, "h": 54 },
    "sourceSize": { "w": 128, "h": 128 },
    "duration": 80
   },
   {
    "filename": "Reborn 48.aseprite",
    "frame": { "x": 342, "y": 112, "w": 57, "h": 53 },
    "rotated": false,
    "trimmed": true,
    "spriteSourceSize": { "x": 35, "y": 75, "w": 57, "h": 53 },
    "sourceSize": { "w": 128, "h": 128 },
    "duration": 80
   },
   {
    "filename": "Reborn 49.aseprite",
    "frame": { "x": 285, "y": 57, "w": 56, "h": 54 },
    "rotated": false,
    "trimmed": true,
    "spriteSourceSize": { "x": 35, "y": 74, "w": 56, "h": 54 },
    "sourceSize": { "w": 128, "h": 128 },
    "duration": 200
   },
   {
    "filename": "Reborn 50.aseprite",
    "frame": { "x": 229, "y": 112, "w": 56, "h": 53 },
    "rotated": false,
    "trimmed": true,
    "spriteSourceSize": { "x": 35, "y": 75, "w": 56, "h": 53 },
    "sourceSize": { "w": 128, "h": 128 },
    "duration": 200
   },
   {
    "filename": "Reborn 51.aseprite",
    "frame": { "x": 221, "y": 216, "w": 55, "h": 52 },
    "rotated": false,
    "trimmed": true,
    "spriteSourceSize": { "x": 35, "y": 76, "w": 55, "h": 52 },
    "sourceSize": { "w": 128, "h": 128 },
    "duration": 200
   },
   {
    "filename": "Reborn 52.aseprite",
    "frame": { "x": 336, "y": 219, "w": 55, "h": 52 },
    "rotated": false,
    "trimmed": true,
    "spriteSourceSize": { "x": 35, "y": 76, "w": 55, "h": 52 },
    "sourceSize": { "w": 128, "h": 128 },
    "duration": 300
   },
   {
    "filename": "Reborn 53.aseprite",
    "frame": { "x": 104, "y": 167, "w": 54, "h": 53 },
    "rotated": false,
    "trimmed": true,
    "spriteSourceSize": { "x": 35, "y": 75, "w": 54, "h": 53 },
    "sourceSize": { "w": 128, "h": 128 },
    "duration": 200
   },
   {
    "filename": "Reborn 54.aseprite",
    "frame": { "x": 168, "y": 166, "w": 53, "h": 54 },
    "rotated": false,
    "trimmed": true,
    "spriteSourceSize": { "x": 35, "y": 74, "w": 53, "h": 54 },
    "sourceSize": { "w": 128, "h": 128 },
    "duration": 200
   },
   {
    "filename": "Reborn 55.aseprite",
    "frame": { "x": 336, "y": 165, "w": 53, "h": 54 },
    "rotated": false,
    "trimmed": true,
    "spriteSourceSize": { "x": 35, "y": 74, "w": 53, "h": 54 },
    "sourceSize": { "w": 128, "h": 128 },
    "duration": 300
   },
   {
    "filename": "Reborn 56.aseprite",
    "frame": { "x": 51, "y": 166, "w": 53, "h": 54 },
    "rotated": false,
    "trimmed": true,
    "spriteSourceSize": { "x": 35, "y": 74, "w": 53, "h": 54 },
    "sourceSize": { "w": 128, "h": 128 },
    "duration": 300
   },
   {
    "filename": "Reborn 57.aseprite",
    "frame": { "x": 336, "y": 165, "w": 53, "h": 54 },
    "rotated": false,
    "trimmed": true,
    "spriteSourceSize": { "x": 35, "y": 74, "w": 53, "h": 54 },
    "sourceSize": { "w": 128, "h": 128 },
    "duration": 200
   },
   {
    "filename": "Reborn 58.aseprite",
    "frame": { "x": 0, "y": 220, "w": 53, "h": 53 },
    "rotated": false,
    "trimmed": true,
    "spriteSourceSize": { "x": 35, "y": 75, "w": 53, "h": 53 },
    "sourceSize": { "w": 128, "h": 128 },
    "duration": 200
   },
   {
    "filename": "Reborn 59.aseprite",
    "frame": { "x": 53, "y": 220, "w": 54, "h": 52 },
    "rotated": false,
    "trimmed": true,
    "spriteSourceSize": { "x": 35, "y": 76, "w": 54, "h": 52 },
    "sourceSize": { "w": 128, "h": 128 },
    "duration": 200
   },
   {
    "filename": "Reborn 60.aseprite",
    "frame": { "x": 107, "y": 220, "w": 54, "h": 52 },
    "rotated": false,
    "trimmed": true,
    "spriteSourceSize": { "x": 35, "y": 76, "w": 54, "h": 52 },
    "sourceSize": { "w": 128, "h": 128 },
    "duration": 300
   },
   {
    "filename": "Reborn 61.aseprite",
    "frame": { "x": 168, "y": 113, "w": 55, "h": 53 },
    "rotated": false,
    "trimmed": true,
    "spriteSourceSize": { "x": 35, "y": 75, "w": 55, "h": 53 },
    "sourceSize": { "w": 128, "h": 128 },
    "duration": 200
   },
   {
    "filename": "Reborn 62.aseprite",
    "frame": { "x": 114, "y": 113, "w": 54, "h": 54 },
    "rotated": false,
    "trimmed": true,
    "spriteSourceSize": { "x": 35, "y": 74, "w": 54, "h": 54 },
    "sourceSize": { "w": 128, "h": 128 },
    "duration": 200
   },
   {
    "filename": "Reborn 63.aseprite",
    "frame": { "x": 168, "y": 166, "w": 53, "h": 54 },
    "rotated": false,
    "trimmed": true,
    "spriteSourceSize": { "x": 35, "y": 74, "w": 53, "h": 54 },
    "sourceSize": { "w": 128, "h": 128 },
    "duration": 200
   },
   {
    "filename": "Reborn 64.aseprite",
    "frame": { "x": 336, "y": 165, "w": 53, "h": 54 },
    "rotated": false,
    "trimmed": true,
    "spriteSourceSize": { "x": 35, "y": 74, "w": 53, "h": 54 },
    "sourceSize": { "w": 128, "h": 128 },
    "duration": 300
   },
   {
    "filename": "Reborn 65.aseprite",
    "frame": { "x": 51, "y": 166, "w": 53, "h": 54 },
    "rotated": false,
    "trimmed": true,
    "spriteSourceSize": { "x": 35, "y": 74, "w": 53, "h": 54 },
    "sourceSize": { "w": 128, "h": 128 },
    "duration": 300
   },
   {
    "filename": "Reborn 66.aseprite",
    "frame": { "x": 51, "y": 166, "w": 53, "h": 54 },
    "rotated": false,
    "trimmed": true,
    "spriteSourceSize": { "x": 35, "y": 74, "w": 53, "h": 54 },
    "sourceSize": { "w": 128, "h": 128 },
    "duration": 300
   },
   {
    "filename": "Reborn 67.aseprite",
    "frame": { "x": 285, "y": 164, "w": 51, "h": 57 },
    "rotated": false,
    "trimmed": true,
    "spriteSourceSize": { "x": 35, "y": 71, "w": 51, "h": 57 },
    "sourceSize": { "w": 128, "h": 128 },
    "duration": 300
   },
   {
    "filename": "Reborn 68.aseprite",
    "frame": { "x": 0, "y": 163, "w": 51, "h": 57 },
    "rotated": false,
    "trimmed": true,
    "spriteSourceSize": { "x": 35, "y": 71, "w": 51, "h": 57 },
    "sourceSize": { "w": 128, "h": 128 },
    "duration": 300
   },
   {
    "filename": "Reborn 69.aseprite",
    "frame": { "x": 59, "y": 0, "w": 58, "h": 59 },
    "rotated": false,
    "trimmed": true,
    "spriteSourceSize": { "x": 35, "y": 69, "w": 58, "h": 59 },
    "sourceSize": { "w": 128, "h": 128 },
    "duration": 300
   },
   {
    "filename": "Reborn 70.aseprite",
    "frame": { "x": 161, "y": 220, "w": 46, "h": 53 },
    "rotated": false,
    "trimmed": true,
    "spriteSourceSize": { "x": 35, "y": 75, "w": 46, "h": 53 },
    "sourceSize": { "w": 128, "h": 128 },
    "duration": 300
   },
   {
    "filename": "Reborn 71.aseprite",
    "frame": { "x": 207, "y": 268, "w": 43, "h": 48 },
    "rotated": false,
    "trimmed": true,
    "spriteSourceSize": { "x": 35, "y": 80, "w": 43, "h": 48 },
    "sourceSize": { "w": 128, "h": 128 },
    "duration": 300
   },
   {
    "filename": "Reborn 72.aseprite",
    "frame": { "x": 276, "y": 221, "w": 47, "h": 49 },
    "rotated": false,
    "trimmed": true,
    "spriteSourceSize": { "x": 35, "y": 79, "w": 47, "h": 49 },
    "sourceSize": { "w": 128, "h": 128 },
    "duration": 300
   },
   {
    "filename": "Reborn 73.aseprite",
    "frame": { "x": 354, "y": 317, "w": 43, "h": 45 },
    "rotated": false,
    "trimmed": true,
    "spriteSourceSize": { "x": 35, "y": 83, "w": 43, "h": 45 },
    "sourceSize": { "w": 128, "h": 128 },
    "duration": 300
   },
   {
    "filename": "Reborn 74.aseprite",
    "frame": { "x": 354, "y": 317, "w": 43, "h": 45 },
    "rotated": false,
    "trimmed": true,
    "spriteSourceSize": { "x": 35, "y": 83, "w": 43, "h": 45 },
    "sourceSize": { "w": 128, "h": 128 },
    "duration": 300
   },
   {
    "filename": "Reborn 75.aseprite",
    "frame": { "x": 354, "y": 317, "w": 43, "h": 45 },
    "rotated": false,
    "trimmed": true,
    "spriteSourceSize": { "x": 35, "y": 83, "w": 43, "h": 45 },
    "sourceSize": { "w": 128, "h": 128 },
    "duration": 300
   },
   {
    "filename": "Reborn 76.aseprite",
    "frame": { "x": 354, "y": 317, "w": 43, "h": 45 },
    "rotated": false,
    "trimmed": true,
    "spriteSourceSize": { "x": 35, "y": 83, "w": 43, "h": 45 },
    "sourceSize": { "w": 128, "h": 128 },
    "duration": 300
   },
   {
    "filename": "Reborn 77.aseprite",
    "frame": { "x": 354, "y": 317, "w": 43, "h": 45 },
    "rotated": false,
    "trimmed": true,
    "spriteSourceSize": { "x": 35, "y": 83, "w": 43, "h": 45 },
    "sourceSize": { "w": 128, "h": 128 },
    "duration": 300
   }
 ],
 "meta": {
  "app": "http://www.aseprite.org/",
  "version": "1.2.21-x64",
  "image": "Cinematic_Consumed_Body.png",
  "format": "RGBA8888",
  "size": { "w": 399, "h": 363 },
  "scale": "1",
  "frameTags": [
   { "name": "Blood_Spread", "from": 0, "to": 21, "direction": "forward" },
   { "name": "Shadow_Appear", "from": 22, "to": 55, "direction": "forward" },
   { "name": "Idle", "from": 56, "to": 65, "direction": "forward" },
   { "name": "Consume", "from": 66, "to": 77, "direction": "forward" }
  ],
  "slices": [
  ]
 }
}
