%YAML 1.1
%TAG !u! tag:unity3d.com,2011:
--- !u!74 &7400000
AnimationClip:
  m_ObjectHideFlags: 0
  m_CorrespondingSourceObject: {fileID: 0}
  m_PrefabInstance: {fileID: 0}
  m_PrefabAsset: {fileID: 0}
  m_Name: Clip_Cinematic_Consumed_Background_Shadow_Appear
  serializedVersion: 6
  m_Legacy: 0
  m_Compressed: 0
  m_UseHighQualityCurve: 1
  m_RotationCurves: []
  m_CompressedRotationCurves: []
  m_EulerCurves: []
  m_PositionCurves:
  - curve:
      serializedVersion: 2
      m_Curve:
      - serializedVersion: 3
        time: 0
        value: {x: 0, y: -0, z: 0}
        inSlope: {x: Infinity, y: Infinity, z: 0}
        outSlope: {x: -Infinity, y: -Infinity, z: 0}
        tangentMode: 0
        weightedMode: 0
        inWeight: {x: 0, y: 0, z: 0.33333334}
        outWeight: {x: 0, y: 0, z: 0.33333334}
      - serializedVersion: 3
        time: 0.06
        value: {x: 0, y: -0, z: 0}
        inSlope: {x: Infinity, y: Infinity, z: 0}
        outSlope: {x: -Infinity, y: -Infinity, z: 0}
        tangentMode: 0
        weightedMode: 0
        inWeight: {x: 0, y: 0, z: 0.33333334}
        outWeight: {x: 0, y: 0, z: 0.33333334}
      - serializedVersion: 3
        time: 0.12
        value: {x: 0, y: -0, z: 0}
        inSlope: {x: Infinity, y: Infinity, z: 0}
        outSlope: {x: -Infinity, y: -Infinity, z: 0}
        tangentMode: 0
        weightedMode: 0
        inWeight: {x: 0, y: 0, z: 0.33333334}
        outWeight: {x: 0, y: 0, z: 0.33333334}
      - serializedVersion: 3
        time: 0.17999999
        value: {x: 0, y: -0, z: 0}
        inSlope: {x: Infinity, y: Infinity, z: 0}
        outSlope: {x: -Infinity, y: -Infinity, z: 0}
        tangentMode: 0
        weightedMode: 0
        inWeight: {x: 0, y: 0, z: 0.33333334}
        outWeight: {x: 0, y: 0, z: 0.33333334}
      - serializedVersion: 3
        time: 0.24
        value: {x: 0, y: -0, z: 0}
        inSlope: {x: Infinity, y: Infinity, z: 0}
        outSlope: {x: -Infinity, y: -Infinity, z: 0}
        tangentMode: 0
        weightedMode: 0
        inWeight: {x: 0, y: 0, z: 0.33333334}
        outWeight: {x: 0, y: 0, z: 0.33333334}
      - serializedVersion: 3
        time: 0.29999998
        value: {x: 0, y: -0, z: 0}
        inSlope: {x: Infinity, y: Infinity, z: 0}
        outSlope: {x: -Infinity, y: -Infinity, z: 0}
        tangentMode: 0
        weightedMode: 0
        inWeight: {x: 0, y: 0, z: 0.33333334}
        outWeight: {x: 0, y: 0, z: 0.33333334}
      - serializedVersion: 3
        time: 0.35999998
        value: {x: 0, y: -0, z: 0}
        inSlope: {x: Infinity, y: Infinity, z: 0}
        outSlope: {x: -Infinity, y: -Infinity, z: 0}
        tangentMode: 0
        weightedMode: 0
        inWeight: {x: 0, y: 0, z: 0.33333334}
        outWeight: {x: 0, y: 0, z: 0.33333334}
      - serializedVersion: 3
        time: 0.42
        value: {x: 0, y: -0, z: 0}
        inSlope: {x: Infinity, y: Infinity, z: 0}
        outSlope: {x: -Infinity, y: -Infinity, z: 0}
        tangentMode: 0
        weightedMode: 0
        inWeight: {x: 0, y: 0, z: 0.33333334}
        outWeight: {x: 0, y: 0, z: 0.33333334}
      - serializedVersion: 3
        time: 0.48
        value: {x: 0, y: -0, z: 0}
        inSlope: {x: Infinity, y: Infinity, z: 0}
        outSlope: {x: -Infinity, y: -Infinity, z: 0}
        tangentMode: 0
        weightedMode: 0
        inWeight: {x: 0, y: 0, z: 0.33333334}
        outWeight: {x: 0, y: 0, z: 0.33333334}
      - serializedVersion: 3
        time: 0.53999996
        value: {x: 0, y: -0, z: 0}
        inSlope: {x: Infinity, y: Infinity, z: 0}
        outSlope: {x: -Infinity, y: -Infinity, z: 0}
        tangentMode: 0
        weightedMode: 0
        inWeight: {x: 0, y: 0, z: 0.33333334}
        outWeight: {x: 0, y: 0, z: 0.33333334}
      - serializedVersion: 3
        time: 0.61999995
        value: {x: 0, y: -0, z: 0}
        inSlope: {x: Infinity, y: Infinity, z: 0}
        outSlope: {x: -Infinity, y: -Infinity, z: 0}
        tangentMode: 0
        weightedMode: 0
        inWeight: {x: 0, y: 0, z: 0.33333334}
        outWeight: {x: 0, y: 0, z: 0.33333334}
      - serializedVersion: 3
        time: 0.6999999
        value: {x: 0, y: -0, z: 0}
        inSlope: {x: Infinity, y: Infinity, z: 0}
        outSlope: {x: -Infinity, y: -Infinity, z: 0}
        tangentMode: 0
        weightedMode: 0
        inWeight: {x: 0, y: 0, z: 0.33333334}
        outWeight: {x: 0, y: 0, z: 0.33333334}
      - serializedVersion: 3
        time: 0.7799999
        value: {x: 0, y: -0, z: 0}
        inSlope: {x: Infinity, y: Infinity, z: 0}
        outSlope: {x: -Infinity, y: -Infinity, z: 0}
        tangentMode: 0
        weightedMode: 0
        inWeight: {x: 0, y: 0, z: 0.33333334}
        outWeight: {x: 0, y: 0, z: 0.33333334}
      - serializedVersion: 3
        time: 0.8599999
        value: {x: 0, y: -0, z: 0}
        inSlope: {x: Infinity, y: Infinity, z: 0}
        outSlope: {x: -Infinity, y: -Infinity, z: 0}
        tangentMode: 0
        weightedMode: 0
        inWeight: {x: 0, y: 0, z: 0.33333334}
        outWeight: {x: 0, y: 0, z: 0.33333334}
      - serializedVersion: 3
        time: 0.9399999
        value: {x: 0, y: -0, z: 0}
        inSlope: {x: Infinity, y: Infinity, z: 0}
        outSlope: {x: -Infinity, y: -Infinity, z: 0}
        tangentMode: 0
        weightedMode: 0
        inWeight: {x: 0, y: 0, z: 0.33333334}
        outWeight: {x: 0, y: 0, z: 0.33333334}
      - serializedVersion: 3
        time: 1.0199999
        value: {x: 0, y: -0, z: 0}
        inSlope: {x: Infinity, y: Infinity, z: 0}
        outSlope: {x: -Infinity, y: -Infinity, z: 0}
        tangentMode: 0
        weightedMode: 0
        inWeight: {x: 0, y: 0, z: 0.33333334}
        outWeight: {x: 0, y: 0, z: 0.33333334}
      - serializedVersion: 3
        time: 1.0999999
        value: {x: 0, y: -0, z: 0}
        inSlope: {x: Infinity, y: Infinity, z: 0}
        outSlope: {x: -Infinity, y: -Infinity, z: 0}
        tangentMode: 0
        weightedMode: 0
        inWeight: {x: 0, y: 0, z: 0.33333334}
        outWeight: {x: 0, y: 0, z: 0.33333334}
      - serializedVersion: 3
        time: 1.18
        value: {x: 0, y: -0, z: 0}
        inSlope: {x: Infinity, y: Infinity, z: 0}
        outSlope: {x: -Infinity, y: -Infinity, z: 0}
        tangentMode: 0
        weightedMode: 0
        inWeight: {x: 0, y: 0, z: 0.33333334}
        outWeight: {x: 0, y: 0, z: 0.33333334}
      - serializedVersion: 3
        time: 1.26
        value: {x: 0, y: -0, z: 0}
        inSlope: {x: Infinity, y: Infinity, z: 0}
        outSlope: {x: -Infinity, y: -Infinity, z: 0}
        tangentMode: 0
        weightedMode: 0
        inWeight: {x: 0, y: 0, z: 0.33333334}
        outWeight: {x: 0, y: 0, z: 0.33333334}
      - serializedVersion: 3
        time: 1.34
        value: {x: 0, y: -0, z: 0}
        inSlope: {x: Infinity, y: Infinity, z: 0}
        outSlope: {x: -Infinity, y: -Infinity, z: 0}
        tangentMode: 0
        weightedMode: 0
        inWeight: {x: 0, y: 0, z: 0.33333334}
        outWeight: {x: 0, y: 0, z: 0.33333334}
      - serializedVersion: 3
        time: 1.4200001
        value: {x: 0, y: -0, z: 0}
        inSlope: {x: Infinity, y: Infinity, z: 0}
        outSlope: {x: -Infinity, y: -Infinity, z: 0}
        tangentMode: 0
        weightedMode: 0
        inWeight: {x: 0, y: 0, z: 0.33333334}
        outWeight: {x: 0, y: 0, z: 0.33333334}
      - serializedVersion: 3
        time: 1.5000001
        value: {x: 0, y: -0, z: 0}
        inSlope: {x: Infinity, y: Infinity, z: 0}
        outSlope: {x: -Infinity, y: -Infinity, z: 0}
        tangentMode: 0
        weightedMode: 0
        inWeight: {x: 0, y: 0, z: 0.33333334}
        outWeight: {x: 0, y: 0, z: 0.33333334}
      - serializedVersion: 3
        time: 1.5800002
        value: {x: 0, y: -0, z: 0}
        inSlope: {x: Infinity, y: Infinity, z: 0}
        outSlope: {x: -Infinity, y: -Infinity, z: 0}
        tangentMode: 0
        weightedMode: 0
        inWeight: {x: 0, y: 0, z: 0.33333334}
        outWeight: {x: 0, y: 0, z: 0.33333334}
      - serializedVersion: 3
        time: 1.6600002
        value: {x: 0, y: -0, z: 0}
        inSlope: {x: Infinity, y: Infinity, z: 0}
        outSlope: {x: -Infinity, y: -Infinity, z: 0}
        tangentMode: 0
        weightedMode: 0
        inWeight: {x: 0, y: 0, z: 0.33333334}
        outWeight: {x: 0, y: 0, z: 0.33333334}
      - serializedVersion: 3
        time: 1.7400002
        value: {x: 0, y: -0, z: 0}
        inSlope: {x: Infinity, y: Infinity, z: 0}
        outSlope: {x: -Infinity, y: -Infinity, z: 0}
        tangentMode: 0
        weightedMode: 0
        inWeight: {x: 0, y: 0, z: 0.33333334}
        outWeight: {x: 0, y: 0, z: 0.33333334}
      - serializedVersion: 3
        time: 1.8200003
        value: {x: 0, y: -0, z: 0}
        inSlope: {x: Infinity, y: Infinity, z: 0}
        outSlope: {x: -Infinity, y: -Infinity, z: 0}
        tangentMode: 0
        weightedMode: 0
        inWeight: {x: 0, y: 0, z: 0.33333334}
        outWeight: {x: 0, y: 0, z: 0.33333334}
      - serializedVersion: 3
        time: 1.9000003
        value: {x: 0, y: -0, z: 0}
        inSlope: {x: Infinity, y: Infinity, z: 0}
        outSlope: {x: -Infinity, y: -Infinity, z: 0}
        tangentMode: 0
        weightedMode: 0
        inWeight: {x: 0, y: 0, z: 0.33333334}
        outWeight: {x: 0, y: 0, z: 0.33333334}
      - serializedVersion: 3
        time: 1.9800004
        value: {x: 0, y: -0, z: 0}
        inSlope: {x: Infinity, y: Infinity, z: 0}
        outSlope: {x: -Infinity, y: -Infinity, z: 0}
        tangentMode: 0
        weightedMode: 0
        inWeight: {x: 0, y: 0, z: 0.33333334}
        outWeight: {x: 0, y: 0, z: 0.33333334}
      - serializedVersion: 3
        time: 2.1800003
        value: {x: 0, y: -0, z: 0}
        inSlope: {x: Infinity, y: Infinity, z: 0}
        outSlope: {x: -Infinity, y: -Infinity, z: 0}
        tangentMode: 0
        weightedMode: 0
        inWeight: {x: 0, y: 0, z: 0.33333334}
        outWeight: {x: 0, y: 0, z: 0.33333334}
      - serializedVersion: 3
        time: 2.3800004
        value: {x: 0, y: -0, z: 0}
        inSlope: {x: Infinity, y: Infinity, z: 0}
        outSlope: {x: -Infinity, y: -Infinity, z: 0}
        tangentMode: 0
        weightedMode: 0
        inWeight: {x: 0, y: 0, z: 0.33333334}
        outWeight: {x: 0, y: 0, z: 0.33333334}
      - serializedVersion: 3
        time: 2.5800004
        value: {x: 0, y: -0, z: 0}
        inSlope: {x: Infinity, y: Infinity, z: 0}
        outSlope: {x: -Infinity, y: -Infinity, z: 0}
        tangentMode: 0
        weightedMode: 0
        inWeight: {x: 0, y: 0, z: 0.33333334}
        outWeight: {x: 0, y: 0, z: 0.33333334}
      - serializedVersion: 3
        time: 2.8800004
        value: {x: 0, y: -0, z: 0}
        inSlope: {x: Infinity, y: Infinity, z: 0}
        outSlope: {x: -Infinity, y: -Infinity, z: 0}
        tangentMode: 0
        weightedMode: 0
        inWeight: {x: 0, y: 0, z: 0.33333334}
        outWeight: {x: 0, y: 0, z: 0.33333334}
      - serializedVersion: 3
        time: 3.0800004
        value: {x: 0, y: -0, z: 0}
        inSlope: {x: Infinity, y: Infinity, z: 0}
        outSlope: {x: -Infinity, y: -Infinity, z: 0}
        tangentMode: 0
        weightedMode: 0
        inWeight: {x: 0, y: 0, z: 0.33333334}
        outWeight: {x: 0, y: 0, z: 0.33333334}
      - serializedVersion: 3
        time: 3.2800004
        value: {x: 0, y: -0, z: 0}
        inSlope: {x: Infinity, y: Infinity, z: 0}
        outSlope: {x: -Infinity, y: -Infinity, z: 0}
        tangentMode: 0
        weightedMode: 0
        inWeight: {x: 0, y: 0, z: 0.33333334}
        outWeight: {x: 0, y: 0, z: 0.33333334}
      m_PreInfinity: 2
      m_PostInfinity: 2
      m_RotationOrder: 4
    path: Visual/Render
  m_ScaleCurves: []
  m_FloatCurves: []
  m_PPtrCurves:
  - curve:
    - time: 0
      value: {fileID: 2175635737873850143, guid: ee52c1ebbfa596c4db8a21b3e5784e49,
        type: 3}
    - time: 0.06
      value: {fileID: 2948075606173015488, guid: ee52c1ebbfa596c4db8a21b3e5784e49,
        type: 3}
    - time: 0.12
      value: {fileID: 1592036263803846390, guid: ee52c1ebbfa596c4db8a21b3e5784e49,
        type: 3}
    - time: 0.17999999
      value: {fileID: -7778873678808713852, guid: ee52c1ebbfa596c4db8a21b3e5784e49,
        type: 3}
    - time: 0.24
      value: {fileID: 2008103858765990480, guid: ee52c1ebbfa596c4db8a21b3e5784e49,
        type: 3}
    - time: 0.29999998
      value: {fileID: 2409427005314981593, guid: ee52c1ebbfa596c4db8a21b3e5784e49,
        type: 3}
    - time: 0.35999998
      value: {fileID: 1439993960552891174, guid: ee52c1ebbfa596c4db8a21b3e5784e49,
        type: 3}
    - time: 0.42
      value: {fileID: 8554745949801760995, guid: ee52c1ebbfa596c4db8a21b3e5784e49,
        type: 3}
    - time: 0.48
      value: {fileID: -5802081261719135969, guid: ee52c1ebbfa596c4db8a21b3e5784e49,
        type: 3}
    - time: 0.53999996
      value: {fileID: 6863734786905781174, guid: ee52c1ebbfa596c4db8a21b3e5784e49,
        type: 3}
    - time: 0.61999995
      value: {fileID: 5519116698524910232, guid: ee52c1ebbfa596c4db8a21b3e5784e49,
        type: 3}
    - time: 0.6999999
      value: {fileID: -2276184007062652006, guid: ee52c1ebbfa596c4db8a21b3e5784e49,
        type: 3}
    - time: 0.7799999
      value: {fileID: -7388694040204764107, guid: ee52c1ebbfa596c4db8a21b3e5784e49,
        type: 3}
    - time: 0.8599999
      value: {fileID: 4870959772629462318, guid: ee52c1ebbfa596c4db8a21b3e5784e49,
        type: 3}
    - time: 0.9399999
      value: {fileID: 9027493374970625526, guid: ee52c1ebbfa596c4db8a21b3e5784e49,
        type: 3}
    - time: 1.0199999
      value: {fileID: 6901592069012219565, guid: ee52c1ebbfa596c4db8a21b3e5784e49,
        type: 3}
    - time: 1.0999999
      value: {fileID: -4191853159417658923, guid: ee52c1ebbfa596c4db8a21b3e5784e49,
        type: 3}
    - time: 1.18
      value: {fileID: 8234075886927207511, guid: ee52c1ebbfa596c4db8a21b3e5784e49,
        type: 3}
    - time: 1.26
      value: {fileID: 41555325408179257, guid: ee52c1ebbfa596c4db8a21b3e5784e49, type: 3}
    - time: 1.34
      value: {fileID: -2486915869199899513, guid: ee52c1ebbfa596c4db8a21b3e5784e49,
        type: 3}
    - time: 1.4200001
      value: {fileID: -1868535458425894161, guid: ee52c1ebbfa596c4db8a21b3e5784e49,
        type: 3}
    - time: 1.5000001
      value: {fileID: -7610619090461963770, guid: ee52c1ebbfa596c4db8a21b3e5784e49,
        type: 3}
    - time: 1.5800002
      value: {fileID: -4819318516022412983, guid: ee52c1ebbfa596c4db8a21b3e5784e49,
        type: 3}
    - time: 1.6600002
      value: {fileID: -192294230679044160, guid: ee52c1ebbfa596c4db8a21b3e5784e49,
        type: 3}
    - time: 1.7400002
      value: {fileID: 9114769534404851216, guid: ee52c1ebbfa596c4db8a21b3e5784e49,
        type: 3}
    - time: 1.8200003
      value: {fileID: 5722964322510427264, guid: ee52c1ebbfa596c4db8a21b3e5784e49,
        type: 3}
    - time: 1.9000003
      value: {fileID: 1793054330853391722, guid: ee52c1ebbfa596c4db8a21b3e5784e49,
        type: 3}
    - time: 1.9800004
      value: {fileID: 5975768875304403610, guid: ee52c1ebbfa596c4db8a21b3e5784e49,
        type: 3}
    - time: 2.1800003
      value: {fileID: -3909436005386639248, guid: ee52c1ebbfa596c4db8a21b3e5784e49,
        type: 3}
    - time: 2.3800004
      value: {fileID: 8307623603790160162, guid: ee52c1ebbfa596c4db8a21b3e5784e49,
        type: 3}
    - time: 2.5800004
      value: {fileID: -4156862125942945494, guid: ee52c1ebbfa596c4db8a21b3e5784e49,
        type: 3}
    - time: 2.8800004
      value: {fileID: -8541792116599345420, guid: ee52c1ebbfa596c4db8a21b3e5784e49,
        type: 3}
    - time: 3.0800004
      value: {fileID: 7402291163629176736, guid: ee52c1ebbfa596c4db8a21b3e5784e49,
        type: 3}
    - time: 3.2800004
      value: {fileID: 7402291163629176736, guid: ee52c1ebbfa596c4db8a21b3e5784e49,
        type: 3}
    attribute: m_Sprite
    path: Visual/Render
    classID: 212
    script: {fileID: 0}
  m_SampleRate: 60
  m_WrapMode: 0
  m_Bounds:
    m_Center: {x: 0, y: 0, z: 0}
    m_Extent: {x: 0, y: 0, z: 0}
  m_ClipBindingConstant:
    genericBindings:
    - serializedVersion: 2
      path: 3017528832
      attribute: 1
      script: {fileID: 0}
      typeID: 4
      customType: 0
      isPPtrCurve: 0
    - serializedVersion: 2
      path: 3017528832
      attribute: 0
      script: {fileID: 0}
      typeID: 212
      customType: 23
      isPPtrCurve: 1
    pptrCurveMapping:
    - {fileID: 2175635737873850143, guid: ee52c1ebbfa596c4db8a21b3e5784e49, type: 3}
    - {fileID: 2948075606173015488, guid: ee52c1ebbfa596c4db8a21b3e5784e49, type: 3}
    - {fileID: 1592036263803846390, guid: ee52c1ebbfa596c4db8a21b3e5784e49, type: 3}
    - {fileID: -7778873678808713852, guid: ee52c1ebbfa596c4db8a21b3e5784e49, type: 3}
    - {fileID: 2008103858765990480, guid: ee52c1ebbfa596c4db8a21b3e5784e49, type: 3}
    - {fileID: 2409427005314981593, guid: ee52c1ebbfa596c4db8a21b3e5784e49, type: 3}
    - {fileID: 1439993960552891174, guid: ee52c1ebbfa596c4db8a21b3e5784e49, type: 3}
    - {fileID: 8554745949801760995, guid: ee52c1ebbfa596c4db8a21b3e5784e49, type: 3}
    - {fileID: -5802081261719135969, guid: ee52c1ebbfa596c4db8a21b3e5784e49, type: 3}
    - {fileID: 6863734786905781174, guid: ee52c1ebbfa596c4db8a21b3e5784e49, type: 3}
    - {fileID: 5519116698524910232, guid: ee52c1ebbfa596c4db8a21b3e5784e49, type: 3}
    - {fileID: -2276184007062652006, guid: ee52c1ebbfa596c4db8a21b3e5784e49, type: 3}
    - {fileID: -7388694040204764107, guid: ee52c1ebbfa596c4db8a21b3e5784e49, type: 3}
    - {fileID: 4870959772629462318, guid: ee52c1ebbfa596c4db8a21b3e5784e49, type: 3}
    - {fileID: 9027493374970625526, guid: ee52c1ebbfa596c4db8a21b3e5784e49, type: 3}
    - {fileID: 6901592069012219565, guid: ee52c1ebbfa596c4db8a21b3e5784e49, type: 3}
    - {fileID: -4191853159417658923, guid: ee52c1ebbfa596c4db8a21b3e5784e49, type: 3}
    - {fileID: 8234075886927207511, guid: ee52c1ebbfa596c4db8a21b3e5784e49, type: 3}
    - {fileID: 41555325408179257, guid: ee52c1ebbfa596c4db8a21b3e5784e49, type: 3}
    - {fileID: -2486915869199899513, guid: ee52c1ebbfa596c4db8a21b3e5784e49, type: 3}
    - {fileID: -1868535458425894161, guid: ee52c1ebbfa596c4db8a21b3e5784e49, type: 3}
    - {fileID: -7610619090461963770, guid: ee52c1ebbfa596c4db8a21b3e5784e49, type: 3}
    - {fileID: -4819318516022412983, guid: ee52c1ebbfa596c4db8a21b3e5784e49, type: 3}
    - {fileID: -192294230679044160, guid: ee52c1ebbfa596c4db8a21b3e5784e49, type: 3}
    - {fileID: 9114769534404851216, guid: ee52c1ebbfa596c4db8a21b3e5784e49, type: 3}
    - {fileID: 5722964322510427264, guid: ee52c1ebbfa596c4db8a21b3e5784e49, type: 3}
    - {fileID: 1793054330853391722, guid: ee52c1ebbfa596c4db8a21b3e5784e49, type: 3}
    - {fileID: 5975768875304403610, guid: ee52c1ebbfa596c4db8a21b3e5784e49, type: 3}
    - {fileID: -3909436005386639248, guid: ee52c1ebbfa596c4db8a21b3e5784e49, type: 3}
    - {fileID: 8307623603790160162, guid: ee52c1ebbfa596c4db8a21b3e5784e49, type: 3}
    - {fileID: -4156862125942945494, guid: ee52c1ebbfa596c4db8a21b3e5784e49, type: 3}
    - {fileID: -8541792116599345420, guid: ee52c1ebbfa596c4db8a21b3e5784e49, type: 3}
    - {fileID: 7402291163629176736, guid: ee52c1ebbfa596c4db8a21b3e5784e49, type: 3}
    - {fileID: 7402291163629176736, guid: ee52c1ebbfa596c4db8a21b3e5784e49, type: 3}
  m_AnimationClipSettings:
    serializedVersion: 2
    m_AdditiveReferencePoseClip: {fileID: 0}
    m_AdditiveReferencePoseTime: 0
    m_StartTime: 0
    m_StopTime: 3.296667
    m_OrientationOffsetY: 0
    m_Level: 0
    m_CycleOffset: 0
    m_HasAdditiveReferencePose: 0
    m_LoopTime: 0
    m_LoopBlend: 0
    m_LoopBlendOrientation: 0
    m_LoopBlendPositionY: 0
    m_LoopBlendPositionXZ: 0
    m_KeepOriginalOrientation: 0
    m_KeepOriginalPositionY: 1
    m_KeepOriginalPositionXZ: 0
    m_HeightFromFeet: 0
    m_Mirror: 0
  m_EditorCurves:
  - curve:
      serializedVersion: 2
      m_Curve:
      - serializedVersion: 3
        time: 0
        value: 0
        inSlope: Infinity
        outSlope: -Infinity
        tangentMode: 0
        weightedMode: 0
        inWeight: 0
        outWeight: 0
      - serializedVersion: 3
        time: 0.06
        value: 0
        inSlope: Infinity
        outSlope: -Infinity
        tangentMode: 0
        weightedMode: 0
        inWeight: 0
        outWeight: 0
      - serializedVersion: 3
        time: 0.12
        value: 0
        inSlope: Infinity
        outSlope: -Infinity
        tangentMode: 0
        weightedMode: 0
        inWeight: 0
        outWeight: 0
      - serializedVersion: 3
        time: 0.17999999
        value: 0
        inSlope: Infinity
        outSlope: -Infinity
        tangentMode: 0
        weightedMode: 0
        inWeight: 0
        outWeight: 0
      - serializedVersion: 3
        time: 0.24
        value: 0
        inSlope: Infinity
        outSlope: -Infinity
        tangentMode: 0
        weightedMode: 0
        inWeight: 0
        outWeight: 0
      - serializedVersion: 3
        time: 0.29999998
        value: 0
        inSlope: Infinity
        outSlope: -Infinity
        tangentMode: 0
        weightedMode: 0
        inWeight: 0
        outWeight: 0
      - serializedVersion: 3
        time: 0.35999998
        value: 0
        inSlope: Infinity
        outSlope: -Infinity
        tangentMode: 0
        weightedMode: 0
        inWeight: 0
        outWeight: 0
      - serializedVersion: 3
        time: 0.42
        value: 0
        inSlope: Infinity
        outSlope: -Infinity
        tangentMode: 0
        weightedMode: 0
        inWeight: 0
        outWeight: 0
      - serializedVersion: 3
        time: 0.48
        value: 0
        inSlope: Infinity
        outSlope: -Infinity
        tangentMode: 0
        weightedMode: 0
        inWeight: 0
        outWeight: 0
      - serializedVersion: 3
        time: 0.53999996
        value: 0
        inSlope: Infinity
        outSlope: -Infinity
        tangentMode: 0
        weightedMode: 0
        inWeight: 0
        outWeight: 0
      - serializedVersion: 3
        time: 0.61999995
        value: 0
        inSlope: Infinity
        outSlope: -Infinity
        tangentMode: 0
        weightedMode: 0
        inWeight: 0
        outWeight: 0
      - serializedVersion: 3
        time: 0.6999999
        value: 0
        inSlope: Infinity
        outSlope: -Infinity
        tangentMode: 0
        weightedMode: 0
        inWeight: 0
        outWeight: 0
      - serializedVersion: 3
        time: 0.7799999
        value: 0
        inSlope: Infinity
        outSlope: -Infinity
        tangentMode: 0
        weightedMode: 0
        inWeight: 0
        outWeight: 0
      - serializedVersion: 3
        time: 0.8599999
        value: 0
        inSlope: Infinity
        outSlope: -Infinity
        tangentMode: 0
        weightedMode: 0
        inWeight: 0
        outWeight: 0
      - serializedVersion: 3
        time: 0.9399999
        value: 0
        inSlope: Infinity
        outSlope: -Infinity
        tangentMode: 0
        weightedMode: 0
        inWeight: 0
        outWeight: 0
      - serializedVersion: 3
        time: 1.0199999
        value: 0
        inSlope: Infinity
        outSlope: -Infinity
        tangentMode: 0
        weightedMode: 0
        inWeight: 0
        outWeight: 0
      - serializedVersion: 3
        time: 1.0999999
        value: 0
        inSlope: Infinity
        outSlope: -Infinity
        tangentMode: 0
        weightedMode: 0
        inWeight: 0
        outWeight: 0
      - serializedVersion: 3
        time: 1.18
        value: 0
        inSlope: Infinity
        outSlope: -Infinity
        tangentMode: 0
        weightedMode: 0
        inWeight: 0
        outWeight: 0
      - serializedVersion: 3
        time: 1.26
        value: 0
        inSlope: Infinity
        outSlope: -Infinity
        tangentMode: 0
        weightedMode: 0
        inWeight: 0
        outWeight: 0
      - serializedVersion: 3
        time: 1.34
        value: 0
        inSlope: Infinity
        outSlope: -Infinity
        tangentMode: 0
        weightedMode: 0
        inWeight: 0
        outWeight: 0
      - serializedVersion: 3
        time: 1.4200001
        value: 0
        inSlope: Infinity
        outSlope: -Infinity
        tangentMode: 0
        weightedMode: 0
        inWeight: 0
        outWeight: 0
      - serializedVersion: 3
        time: 1.5000001
        value: 0
        inSlope: Infinity
        outSlope: -Infinity
        tangentMode: 0
        weightedMode: 0
        inWeight: 0
        outWeight: 0
      - serializedVersion: 3
        time: 1.5800002
        value: 0
        inSlope: Infinity
        outSlope: -Infinity
        tangentMode: 0
        weightedMode: 0
        inWeight: 0
        outWeight: 0
      - serializedVersion: 3
        time: 1.6600002
        value: 0
        inSlope: Infinity
        outSlope: -Infinity
        tangentMode: 0
        weightedMode: 0
        inWeight: 0
        outWeight: 0
      - serializedVersion: 3
        time: 1.7400002
        value: 0
        inSlope: Infinity
        outSlope: -Infinity
        tangentMode: 0
        weightedMode: 0
        inWeight: 0
        outWeight: 0
      - serializedVersion: 3
        time: 1.8200003
        value: 0
        inSlope: Infinity
        outSlope: -Infinity
        tangentMode: 0
        weightedMode: 0
        inWeight: 0
        outWeight: 0
      - serializedVersion: 3
        time: 1.9000003
        value: 0
        inSlope: Infinity
        outSlope: -Infinity
        tangentMode: 0
        weightedMode: 0
        inWeight: 0
        outWeight: 0
      - serializedVersion: 3
        time: 1.9800004
        value: 0
        inSlope: Infinity
        outSlope: -Infinity
        tangentMode: 0
        weightedMode: 0
        inWeight: 0
        outWeight: 0
      - serializedVersion: 3
        time: 2.1800003
        value: 0
        inSlope: Infinity
        outSlope: -Infinity
        tangentMode: 0
        weightedMode: 0
        inWeight: 0
        outWeight: 0
      - serializedVersion: 3
        time: 2.3800004
        value: 0
        inSlope: Infinity
        outSlope: -Infinity
        tangentMode: 0
        weightedMode: 0
        inWeight: 0
        outWeight: 0
      - serializedVersion: 3
        time: 2.5800004
        value: 0
        inSlope: Infinity
        outSlope: -Infinity
        tangentMode: 0
        weightedMode: 0
        inWeight: 0
        outWeight: 0
      - serializedVersion: 3
        time: 2.8800004
        value: 0
        inSlope: Infinity
        outSlope: -Infinity
        tangentMode: 0
        weightedMode: 0
        inWeight: 0
        outWeight: 0
      - serializedVersion: 3
        time: 3.0800004
        value: 0
        inSlope: Infinity
        outSlope: -Infinity
        tangentMode: 0
        weightedMode: 0
        inWeight: 0
        outWeight: 0
      - serializedVersion: 3
        time: 3.2800004
        value: 0
        inSlope: Infinity
        outSlope: -Infinity
        tangentMode: 0
        weightedMode: 0
        inWeight: 0
        outWeight: 0
      m_PreInfinity: 2
      m_PostInfinity: 2
      m_RotationOrder: 4
    attribute: m_LocalPosition.x
    path: Visual/Render
    classID: 4
    script: {fileID: 0}
  - curve:
      serializedVersion: 2
      m_Curve:
      - serializedVersion: 3
        time: 0
        value: -0
        inSlope: Infinity
        outSlope: -Infinity
        tangentMode: 0
        weightedMode: 0
        inWeight: 0
        outWeight: 0
      - serializedVersion: 3
        time: 0.06
        value: -0
        inSlope: Infinity
        outSlope: -Infinity
        tangentMode: 0
        weightedMode: 0
        inWeight: 0
        outWeight: 0
      - serializedVersion: 3
        time: 0.12
        value: -0
        inSlope: Infinity
        outSlope: -Infinity
        tangentMode: 0
        weightedMode: 0
        inWeight: 0
        outWeight: 0
      - serializedVersion: 3
        time: 0.17999999
        value: -0
        inSlope: Infinity
        outSlope: -Infinity
        tangentMode: 0
        weightedMode: 0
        inWeight: 0
        outWeight: 0
      - serializedVersion: 3
        time: 0.24
        value: -0
        inSlope: Infinity
        outSlope: -Infinity
        tangentMode: 0
        weightedMode: 0
        inWeight: 0
        outWeight: 0
      - serializedVersion: 3
        time: 0.29999998
        value: -0
        inSlope: Infinity
        outSlope: -Infinity
        tangentMode: 0
        weightedMode: 0
        inWeight: 0
        outWeight: 0
      - serializedVersion: 3
        time: 0.35999998
        value: -0
        inSlope: Infinity
        outSlope: -Infinity
        tangentMode: 0
        weightedMode: 0
        inWeight: 0
        outWeight: 0
      - serializedVersion: 3
        time: 0.42
        value: -0
        inSlope: Infinity
        outSlope: -Infinity
        tangentMode: 0
        weightedMode: 0
        inWeight: 0
        outWeight: 0
      - serializedVersion: 3
        time: 0.48
        value: -0
        inSlope: Infinity
        outSlope: -Infinity
        tangentMode: 0
        weightedMode: 0
        inWeight: 0
        outWeight: 0
      - serializedVersion: 3
        time: 0.53999996
        value: -0
        inSlope: Infinity
        outSlope: -Infinity
        tangentMode: 0
        weightedMode: 0
        inWeight: 0
        outWeight: 0
      - serializedVersion: 3
        time: 0.61999995
        value: -0
        inSlope: Infinity
        outSlope: -Infinity
        tangentMode: 0
        weightedMode: 0
        inWeight: 0
        outWeight: 0
      - serializedVersion: 3
        time: 0.6999999
        value: -0
        inSlope: Infinity
        outSlope: -Infinity
        tangentMode: 0
        weightedMode: 0
        inWeight: 0
        outWeight: 0
      - serializedVersion: 3
        time: 0.7799999
        value: -0
        inSlope: Infinity
        outSlope: -Infinity
        tangentMode: 0
        weightedMode: 0
        inWeight: 0
        outWeight: 0
      - serializedVersion: 3
        time: 0.8599999
        value: -0
        inSlope: Infinity
        outSlope: -Infinity
        tangentMode: 0
        weightedMode: 0
        inWeight: 0
        outWeight: 0
      - serializedVersion: 3
        time: 0.9399999
        value: -0
        inSlope: Infinity
        outSlope: -Infinity
        tangentMode: 0
        weightedMode: 0
        inWeight: 0
        outWeight: 0
      - serializedVersion: 3
        time: 1.0199999
        value: -0
        inSlope: Infinity
        outSlope: -Infinity
        tangentMode: 0
        weightedMode: 0
        inWeight: 0
        outWeight: 0
      - serializedVersion: 3
        time: 1.0999999
        value: -0
        inSlope: Infinity
        outSlope: -Infinity
        tangentMode: 0
        weightedMode: 0
        inWeight: 0
        outWeight: 0
      - serializedVersion: 3
        time: 1.18
        value: -0
        inSlope: Infinity
        outSlope: -Infinity
        tangentMode: 0
        weightedMode: 0
        inWeight: 0
        outWeight: 0
      - serializedVersion: 3
        time: 1.26
        value: -0
        inSlope: Infinity
        outSlope: -Infinity
        tangentMode: 0
        weightedMode: 0
        inWeight: 0
        outWeight: 0
      - serializedVersion: 3
        time: 1.34
        value: -0
        inSlope: Infinity
        outSlope: -Infinity
        tangentMode: 0
        weightedMode: 0
        inWeight: 0
        outWeight: 0
      - serializedVersion: 3
        time: 1.4200001
        value: -0
        inSlope: Infinity
        outSlope: -Infinity
        tangentMode: 0
        weightedMode: 0
        inWeight: 0
        outWeight: 0
      - serializedVersion: 3
        time: 1.5000001
        value: -0
        inSlope: Infinity
        outSlope: -Infinity
        tangentMode: 0
        weightedMode: 0
        inWeight: 0
        outWeight: 0
      - serializedVersion: 3
        time: 1.5800002
        value: -0
        inSlope: Infinity
        outSlope: -Infinity
        tangentMode: 0
        weightedMode: 0
        inWeight: 0
        outWeight: 0
      - serializedVersion: 3
        time: 1.6600002
        value: -0
        inSlope: Infinity
        outSlope: -Infinity
        tangentMode: 0
        weightedMode: 0
        inWeight: 0
        outWeight: 0
      - serializedVersion: 3
        time: 1.7400002
        value: -0
        inSlope: Infinity
        outSlope: -Infinity
        tangentMode: 0
        weightedMode: 0
        inWeight: 0
        outWeight: 0
      - serializedVersion: 3
        time: 1.8200003
        value: -0
        inSlope: Infinity
        outSlope: -Infinity
        tangentMode: 0
        weightedMode: 0
        inWeight: 0
        outWeight: 0
      - serializedVersion: 3
        time: 1.9000003
        value: -0
        inSlope: Infinity
        outSlope: -Infinity
        tangentMode: 0
        weightedMode: 0
        inWeight: 0
        outWeight: 0
      - serializedVersion: 3
        time: 1.9800004
        value: -0
        inSlope: Infinity
        outSlope: -Infinity
        tangentMode: 0
        weightedMode: 0
        inWeight: 0
        outWeight: 0
      - serializedVersion: 3
        time: 2.1800003
        value: -0
        inSlope: Infinity
        outSlope: -Infinity
        tangentMode: 0
        weightedMode: 0
        inWeight: 0
        outWeight: 0
      - serializedVersion: 3
        time: 2.3800004
        value: -0
        inSlope: Infinity
        outSlope: -Infinity
        tangentMode: 0
        weightedMode: 0
        inWeight: 0
        outWeight: 0
      - serializedVersion: 3
        time: 2.5800004
        value: -0
        inSlope: Infinity
        outSlope: -Infinity
        tangentMode: 0
        weightedMode: 0
        inWeight: 0
        outWeight: 0
      - serializedVersion: 3
        time: 2.8800004
        value: -0
        inSlope: Infinity
        outSlope: -Infinity
        tangentMode: 0
        weightedMode: 0
        inWeight: 0
        outWeight: 0
      - serializedVersion: 3
        time: 3.0800004
        value: -0
        inSlope: Infinity
        outSlope: -Infinity
        tangentMode: 0
        weightedMode: 0
        inWeight: 0
        outWeight: 0
      - serializedVersion: 3
        time: 3.2800004
        value: -0
        inSlope: Infinity
        outSlope: -Infinity
        tangentMode: 0
        weightedMode: 0
        inWeight: 0
        outWeight: 0
      m_PreInfinity: 2
      m_PostInfinity: 2
      m_RotationOrder: 4
    attribute: m_LocalPosition.y
    path: Visual/Render
    classID: 4
    script: {fileID: 0}
  m_EulerEditorCurves: []
  m_HasGenericRootTransform: 0
  m_HasMotionFloatCurves: 0
  m_Events: []
