{ "frames": [
   {
    "filename": "GrandMaster_Squared 0.aseprite",
    "frame": { "x": 0, "y": 0, "w": 48, "h": 48 },
    "rotated": false,
    "trimmed": false,
    "spriteSourceSize": { "x": 0, "y": 0, "w": 48, "h": 48 },
    "sourceSize": { "w": 48, "h": 48 },
    "duration": 100
   },
   {
    "filename": "GrandMaster_Squared 1.aseprite",
    "frame": { "x": 48, "y": 0, "w": 48, "h": 48 },
    "rotated": false,
    "trimmed": false,
    "spriteSourceSize": { "x": 0, "y": 0, "w": 48, "h": 48 },
    "sourceSize": { "w": 48, "h": 48 },
    "duration": 10
   },
   {
    "filename": "GrandMaster_Squared 2.aseprite",
    "frame": { "x": 96, "y": 0, "w": 48, "h": 48 },
    "rotated": false,
    "trimmed": false,
    "spriteSourceSize": { "x": 0, "y": 0, "w": 48, "h": 48 },
    "sourceSize": { "w": 48, "h": 48 },
    "duration": 10
   },
   {
    "filename": "GrandMaster_Squared 3.aseprite",
    "frame": { "x": 144, "y": 0, "w": 48, "h": 48 },
    "rotated": false,
    "trimmed": false,
    "spriteSourceSize": { "x": 0, "y": 0, "w": 48, "h": 48 },
    "sourceSize": { "w": 48, "h": 48 },
    "duration": 10
   },
   {
    "filename": "GrandMaster_Squared 4.aseprite",
    "frame": { "x": 192, "y": 0, "w": 48, "h": 48 },
    "rotated": false,
    "trimmed": false,
    "spriteSourceSize": { "x": 0, "y": 0, "w": 48, "h": 48 },
    "sourceSize": { "w": 48, "h": 48 },
    "duration": 10
   },
   {
    "filename": "GrandMaster_Squared 5.aseprite",
    "frame": { "x": 0, "y": 48, "w": 48, "h": 48 },
    "rotated": false,
    "trimmed": false,
    "spriteSourceSize": { "x": 0, "y": 0, "w": 48, "h": 48 },
    "sourceSize": { "w": 48, "h": 48 },
    "duration": 10
   },
   {
    "filename": "GrandMaster_Squared 6.aseprite",
    "frame": { "x": 48, "y": 48, "w": 48, "h": 48 },
    "rotated": false,
    "trimmed": false,
    "spriteSourceSize": { "x": 0, "y": 0, "w": 48, "h": 48 },
    "sourceSize": { "w": 48, "h": 48 },
    "duration": 10
   },
   {
    "filename": "GrandMaster_Squared 7.aseprite",
    "frame": { "x": 96, "y": 48, "w": 48, "h": 48 },
    "rotated": false,
    "trimmed": false,
    "spriteSourceSize": { "x": 0, "y": 0, "w": 48, "h": 48 },
    "sourceSize": { "w": 48, "h": 48 },
    "duration": 10
   },
   {
    "filename": "GrandMaster_Squared 8.aseprite",
    "frame": { "x": 144, "y": 48, "w": 48, "h": 48 },
    "rotated": false,
    "trimmed": false,
    "spriteSourceSize": { "x": 0, "y": 0, "w": 48, "h": 48 },
    "sourceSize": { "w": 48, "h": 48 },
    "duration": 10
   },
   {
    "filename": "GrandMaster_Squared 9.aseprite",
    "frame": { "x": 192, "y": 48, "w": 48, "h": 48 },
    "rotated": false,
    "trimmed": false,
    "spriteSourceSize": { "x": 0, "y": 0, "w": 48, "h": 48 },
    "sourceSize": { "w": 48, "h": 48 },
    "duration": 10
   },
   {
    "filename": "GrandMaster_Squared 10.aseprite",
    "frame": { "x": 0, "y": 96, "w": 48, "h": 48 },
    "rotated": false,
    "trimmed": false,
    "spriteSourceSize": { "x": 0, "y": 0, "w": 48, "h": 48 },
    "sourceSize": { "w": 48, "h": 48 },
    "duration": 30
   },
   {
    "filename": "GrandMaster_Squared 11.aseprite",
    "frame": { "x": 48, "y": 96, "w": 48, "h": 48 },
    "rotated": false,
    "trimmed": false,
    "spriteSourceSize": { "x": 0, "y": 0, "w": 48, "h": 48 },
    "sourceSize": { "w": 48, "h": 48 },
    "duration": 30
   },
   {
    "filename": "GrandMaster_Squared 12.aseprite",
    "frame": { "x": 96, "y": 96, "w": 48, "h": 48 },
    "rotated": false,
    "trimmed": false,
    "spriteSourceSize": { "x": 0, "y": 0, "w": 48, "h": 48 },
    "sourceSize": { "w": 48, "h": 48 },
    "duration": 30
   },
   {
    "filename": "GrandMaster_Squared 13.aseprite",
    "frame": { "x": 144, "y": 96, "w": 48, "h": 48 },
    "rotated": false,
    "trimmed": false,
    "spriteSourceSize": { "x": 0, "y": 0, "w": 48, "h": 48 },
    "sourceSize": { "w": 48, "h": 48 },
    "duration": 30
   },
   {
    "filename": "GrandMaster_Squared 14.aseprite",
    "frame": { "x": 192, "y": 96, "w": 48, "h": 48 },
    "rotated": false,
    "trimmed": false,
    "spriteSourceSize": { "x": 0, "y": 0, "w": 48, "h": 48 },
    "sourceSize": { "w": 48, "h": 48 },
    "duration": 30
   },
   {
    "filename": "GrandMaster_Squared 15.aseprite",
    "frame": { "x": 0, "y": 144, "w": 48, "h": 48 },
    "rotated": false,
    "trimmed": false,
    "spriteSourceSize": { "x": 0, "y": 0, "w": 48, "h": 48 },
    "sourceSize": { "w": 48, "h": 48 },
    "duration": 30
   },
   {
    "filename": "GrandMaster_Squared 16.aseprite",
    "frame": { "x": 48, "y": 144, "w": 48, "h": 48 },
    "rotated": false,
    "trimmed": false,
    "spriteSourceSize": { "x": 0, "y": 0, "w": 48, "h": 48 },
    "sourceSize": { "w": 48, "h": 48 },
    "duration": 30
   },
   {
    "filename": "GrandMaster_Squared 17.aseprite",
    "frame": { "x": 96, "y": 144, "w": 48, "h": 48 },
    "rotated": false,
    "trimmed": false,
    "spriteSourceSize": { "x": 0, "y": 0, "w": 48, "h": 48 },
    "sourceSize": { "w": 48, "h": 48 },
    "duration": 30
   },
   {
    "filename": "GrandMaster_Squared 18.aseprite",
    "frame": { "x": 144, "y": 144, "w": 48, "h": 48 },
    "rotated": false,
    "trimmed": false,
    "spriteSourceSize": { "x": 0, "y": 0, "w": 48, "h": 48 },
    "sourceSize": { "w": 48, "h": 48 },
    "duration": 30
   },
   {
    "filename": "GrandMaster_Squared 19.aseprite",
    "frame": { "x": 192, "y": 144, "w": 48, "h": 48 },
    "rotated": false,
    "trimmed": false,
    "spriteSourceSize": { "x": 0, "y": 0, "w": 48, "h": 48 },
    "sourceSize": { "w": 48, "h": 48 },
    "duration": 30
   }
 ],
 "meta": {
  "app": "http://www.aseprite.org/",
  "version": "1.2.17-x64",
  "image": "GrandMaster_Squared.png",
  "format": "RGBA8888",
  "size": { "w": 240, "h": 192 },
  "scale": "1",
  "frameTags": [
   { "name": "Idle", "from": 0, "to": 0, "direction": "forward" },
   { "name": "Dissapear", "from": 1, "to": 19, "direction": "forward" }
  ],
  "layers": [
   { "name": "Flattened Copy", "opacity": 145, "blendMode": "normal" },
   { "name": "Flattened", "opacity": 255, "blendMode": "normal" }
  ],
  "slices": [
  ]
 }
}
