%YAML 1.1
%TAG !u! tag:unity3d.com,2011:
--- !u!74 &7400000
AnimationClip:
  m_ObjectHideFlags: 0
  m_CorrespondingSourceObject: {fileID: 0}
  m_PrefabInstance: {fileID: 0}
  m_PrefabAsset: {fileID: 0}
  m_Name: Clip_Cinematic_Consumed_Idle
  serializedVersion: 6
  m_Legacy: 0
  m_Compressed: 0
  m_UseHighQualityCurve: 1
  m_RotationCurves: []
  m_CompressedRotationCurves: []
  m_EulerCurves: []
  m_PositionCurves:
  - curve:
      serializedVersion: 2
      m_Curve:
      - serializedVersion: 3
        time: 0
        value: {x: 0, y: -0, z: 0}
        inSlope: {x: Infinity, y: Infinity, z: 0}
        outSlope: {x: -Infinity, y: -Infinity, z: 0}
        tangentMode: 0
        weightedMode: 0
        inWeight: {x: 0, y: 0, z: 0.33333334}
        outWeight: {x: 0, y: 0, z: 0.33333334}
      - serializedVersion: 3
        time: 0.2
        value: {x: 0, y: -0, z: 0}
        inSlope: {x: Infinity, y: Infinity, z: 0}
        outSlope: {x: -Infinity, y: -Infinity, z: 0}
        tangentMode: 0
        weightedMode: 0
        inWeight: {x: 0, y: 0, z: 0.33333334}
        outWeight: {x: 0, y: 0, z: 0.33333334}
      - serializedVersion: 3
        time: 0.4
        value: {x: 0, y: -0, z: 0}
        inSlope: {x: Infinity, y: Infinity, z: 0}
        outSlope: {x: -Infinity, y: -Infinity, z: 0}
        tangentMode: 0
        weightedMode: 0
        inWeight: {x: 0, y: 0, z: 0.33333334}
        outWeight: {x: 0, y: 0, z: 0.33333334}
      - serializedVersion: 3
        time: 0.6
        value: {x: 0, y: -0, z: 0}
        inSlope: {x: Infinity, y: Infinity, z: 0}
        outSlope: {x: -Infinity, y: -Infinity, z: 0}
        tangentMode: 0
        weightedMode: 0
        inWeight: {x: 0, y: 0, z: 0.33333334}
        outWeight: {x: 0, y: 0, z: 0.33333334}
      - serializedVersion: 3
        time: 0.90000004
        value: {x: 0, y: -0, z: 0}
        inSlope: {x: Infinity, y: Infinity, z: 0}
        outSlope: {x: -Infinity, y: -Infinity, z: 0}
        tangentMode: 0
        weightedMode: 0
        inWeight: {x: 0, y: 0, z: 0.33333334}
        outWeight: {x: 0, y: 0, z: 0.33333334}
      - serializedVersion: 3
        time: 1.1
        value: {x: 0, y: -0, z: 0}
        inSlope: {x: Infinity, y: Infinity, z: 0}
        outSlope: {x: -Infinity, y: -Infinity, z: 0}
        tangentMode: 0
        weightedMode: 0
        inWeight: {x: 0, y: 0, z: 0.33333334}
        outWeight: {x: 0, y: 0, z: 0.33333334}
      - serializedVersion: 3
        time: 1.3000001
        value: {x: 0, y: -0, z: 0}
        inSlope: {x: Infinity, y: Infinity, z: 0}
        outSlope: {x: -Infinity, y: -Infinity, z: 0}
        tangentMode: 0
        weightedMode: 0
        inWeight: {x: 0, y: 0, z: 0.33333334}
        outWeight: {x: 0, y: 0, z: 0.33333334}
      m_PreInfinity: 2
      m_PostInfinity: 2
      m_RotationOrder: 4
    path: Visual/Render
  m_ScaleCurves: []
  m_FloatCurves: []
  m_PPtrCurves:
  - curve:
    - time: 0
      value: {fileID: 5975768875304403610, guid: d4bd7e89daa420544bd1aab58ad75089,
        type: 3}
    - time: 0.2
      value: {fileID: -3909436005386639248, guid: d4bd7e89daa420544bd1aab58ad75089,
        type: 3}
    - time: 0.4
      value: {fileID: 8307623603790160162, guid: d4bd7e89daa420544bd1aab58ad75089,
        type: 3}
    - time: 0.6
      value: {fileID: -4156862125942945494, guid: d4bd7e89daa420544bd1aab58ad75089,
        type: 3}
    - time: 0.90000004
      value: {fileID: -8541792116599345420, guid: d4bd7e89daa420544bd1aab58ad75089,
        type: 3}
    - time: 1.1
      value: {fileID: 7402291163629176736, guid: d4bd7e89daa420544bd1aab58ad75089,
        type: 3}
    - time: 1.3000001
      value: {fileID: 7402291163629176736, guid: d4bd7e89daa420544bd1aab58ad75089,
        type: 3}
    attribute: m_Sprite
    path: Visual/Render
    classID: 212
    script: {fileID: 0}
  m_SampleRate: 60
  m_WrapMode: 0
  m_Bounds:
    m_Center: {x: 0, y: 0, z: 0}
    m_Extent: {x: 0, y: 0, z: 0}
  m_ClipBindingConstant:
    genericBindings:
    - serializedVersion: 2
      path: 3017528832
      attribute: 1
      script: {fileID: 0}
      typeID: 4
      customType: 0
      isPPtrCurve: 0
    - serializedVersion: 2
      path: 3017528832
      attribute: 0
      script: {fileID: 0}
      typeID: 212
      customType: 23
      isPPtrCurve: 1
    pptrCurveMapping:
    - {fileID: 5975768875304403610, guid: d4bd7e89daa420544bd1aab58ad75089, type: 3}
    - {fileID: -3909436005386639248, guid: d4bd7e89daa420544bd1aab58ad75089, type: 3}
    - {fileID: 8307623603790160162, guid: d4bd7e89daa420544bd1aab58ad75089, type: 3}
    - {fileID: -4156862125942945494, guid: d4bd7e89daa420544bd1aab58ad75089, type: 3}
    - {fileID: -8541792116599345420, guid: d4bd7e89daa420544bd1aab58ad75089, type: 3}
    - {fileID: 7402291163629176736, guid: d4bd7e89daa420544bd1aab58ad75089, type: 3}
    - {fileID: 7402291163629176736, guid: d4bd7e89daa420544bd1aab58ad75089, type: 3}
  m_AnimationClipSettings:
    serializedVersion: 2
    m_AdditiveReferencePoseClip: {fileID: 0}
    m_AdditiveReferencePoseTime: 0
    m_StartTime: 0
    m_StopTime: 1.3166667
    m_OrientationOffsetY: 0
    m_Level: 0
    m_CycleOffset: 0
    m_HasAdditiveReferencePose: 0
    m_LoopTime: 0
    m_LoopBlend: 0
    m_LoopBlendOrientation: 0
    m_LoopBlendPositionY: 0
    m_LoopBlendPositionXZ: 0
    m_KeepOriginalOrientation: 0
    m_KeepOriginalPositionY: 1
    m_KeepOriginalPositionXZ: 0
    m_HeightFromFeet: 0
    m_Mirror: 0
  m_EditorCurves:
  - curve:
      serializedVersion: 2
      m_Curve:
      - serializedVersion: 3
        time: 0
        value: 0
        inSlope: Infinity
        outSlope: -Infinity
        tangentMode: 0
        weightedMode: 0
        inWeight: 0
        outWeight: 0
      - serializedVersion: 3
        time: 0.2
        value: 0
        inSlope: Infinity
        outSlope: -Infinity
        tangentMode: 0
        weightedMode: 0
        inWeight: 0
        outWeight: 0
      - serializedVersion: 3
        time: 0.4
        value: 0
        inSlope: Infinity
        outSlope: -Infinity
        tangentMode: 0
        weightedMode: 0
        inWeight: 0
        outWeight: 0
      - serializedVersion: 3
        time: 0.6
        value: 0
        inSlope: Infinity
        outSlope: -Infinity
        tangentMode: 0
        weightedMode: 0
        inWeight: 0
        outWeight: 0
      - serializedVersion: 3
        time: 0.90000004
        value: 0
        inSlope: Infinity
        outSlope: -Infinity
        tangentMode: 0
        weightedMode: 0
        inWeight: 0
        outWeight: 0
      - serializedVersion: 3
        time: 1.1
        value: 0
        inSlope: Infinity
        outSlope: -Infinity
        tangentMode: 0
        weightedMode: 0
        inWeight: 0
        outWeight: 0
      - serializedVersion: 3
        time: 1.3000001
        value: 0
        inSlope: Infinity
        outSlope: -Infinity
        tangentMode: 0
        weightedMode: 0
        inWeight: 0
        outWeight: 0
      m_PreInfinity: 2
      m_PostInfinity: 2
      m_RotationOrder: 4
    attribute: m_LocalPosition.x
    path: Visual/Render
    classID: 4
    script: {fileID: 0}
  - curve:
      serializedVersion: 2
      m_Curve:
      - serializedVersion: 3
        time: 0
        value: -0
        inSlope: Infinity
        outSlope: -Infinity
        tangentMode: 0
        weightedMode: 0
        inWeight: 0
        outWeight: 0
      - serializedVersion: 3
        time: 0.2
        value: -0
        inSlope: Infinity
        outSlope: -Infinity
        tangentMode: 0
        weightedMode: 0
        inWeight: 0
        outWeight: 0
      - serializedVersion: 3
        time: 0.4
        value: -0
        inSlope: Infinity
        outSlope: -Infinity
        tangentMode: 0
        weightedMode: 0
        inWeight: 0
        outWeight: 0
      - serializedVersion: 3
        time: 0.6
        value: -0
        inSlope: Infinity
        outSlope: -Infinity
        tangentMode: 0
        weightedMode: 0
        inWeight: 0
        outWeight: 0
      - serializedVersion: 3
        time: 0.90000004
        value: -0
        inSlope: Infinity
        outSlope: -Infinity
        tangentMode: 0
        weightedMode: 0
        inWeight: 0
        outWeight: 0
      - serializedVersion: 3
        time: 1.1
        value: -0
        inSlope: Infinity
        outSlope: -Infinity
        tangentMode: 0
        weightedMode: 0
        inWeight: 0
        outWeight: 0
      - serializedVersion: 3
        time: 1.3000001
        value: -0
        inSlope: Infinity
        outSlope: -Infinity
        tangentMode: 0
        weightedMode: 0
        inWeight: 0
        outWeight: 0
      m_PreInfinity: 2
      m_PostInfinity: 2
      m_RotationOrder: 4
    attribute: m_LocalPosition.y
    path: Visual/Render
    classID: 4
    script: {fileID: 0}
  m_EulerEditorCurves: []
  m_HasGenericRootTransform: 0
  m_HasMotionFloatCurves: 0
  m_Events: []
