%YAML 1.1
%TAG !u! tag:unity3d.com,2011:
--- !u!74 &7400000
AnimationClip:
  m_ObjectHideFlags: 0
  m_CorrespondingSourceObject: {fileID: 0}
  m_PrefabInstance: {fileID: 0}
  m_PrefabAsset: {fileID: 0}
  m_Name: Clip_Player_WithBandana-VFX_Appear
  serializedVersion: 6
  m_Legacy: 0
  m_Compressed: 0
  m_UseHighQualityCurve: 1
  m_RotationCurves: []
  m_CompressedRotationCurves: []
  m_EulerCurves: []
  m_PositionCurves: []
  m_ScaleCurves: []
  m_FloatCurves: []
  m_PPtrCurves:
  - curve:
    - time: 0
      value: {fileID: -2990158264351308174, guid: fdef58d5a2e3dd74a9801a810872028a,
        type: 3}
    - time: 0.04
      value: {fileID: 1200368168625209029, guid: fdef58d5a2e3dd74a9801a810872028a,
        type: 3}
    - time: 0.08
      value: {fileID: -3158427004120571055, guid: fdef58d5a2e3dd74a9801a810872028a,
        type: 3}
    - time: 0.12
      value: {fileID: -1841642477674597547, guid: fdef58d5a2e3dd74a9801a810872028a,
        type: 3}
    - time: 0.16
      value: {fileID: 3529933293000163691, guid: fdef58d5a2e3dd74a9801a810872028a,
        type: 3}
    - time: 0.2
      value: {fileID: 2667594773079206947, guid: fdef58d5a2e3dd74a9801a810872028a,
        type: 3}
    - time: 0.24000001
      value: {fileID: 4085356588103866669, guid: fdef58d5a2e3dd74a9801a810872028a,
        type: 3}
    - time: 0.28
      value: {fileID: 2881970164919860631, guid: fdef58d5a2e3dd74a9801a810872028a,
        type: 3}
    - time: 0.32
      value: {fileID: -103919602105708644, guid: fdef58d5a2e3dd74a9801a810872028a,
        type: 3}
    - time: 0.35999998
      value: {fileID: -1122410443059980894, guid: fdef58d5a2e3dd74a9801a810872028a,
        type: 3}
    - time: 0.39999998
      value: {fileID: -1835281869042024545, guid: fdef58d5a2e3dd74a9801a810872028a,
        type: 3}
    - time: 0.43999997
      value: {fileID: 1109391747411154484, guid: fdef58d5a2e3dd74a9801a810872028a,
        type: 3}
    - time: 0.47999996
      value: {fileID: 3123409293631747681, guid: fdef58d5a2e3dd74a9801a810872028a,
        type: 3}
    - time: 0.52
      value: {fileID: 3123409293631747681, guid: fdef58d5a2e3dd74a9801a810872028a,
        type: 3}
    attribute: m_Sprite
    path: Visual/Render
    classID: 212
    script: {fileID: 0}
  m_SampleRate: 60
  m_WrapMode: 0
  m_Bounds:
    m_Center: {x: 0, y: 0, z: 0}
    m_Extent: {x: 0, y: 0, z: 0}
  m_ClipBindingConstant:
    genericBindings:
    - serializedVersion: 2
      path: 3017528832
      attribute: 0
      script: {fileID: 0}
      typeID: 212
      customType: 23
      isPPtrCurve: 1
    pptrCurveMapping:
    - {fileID: -2990158264351308174, guid: fdef58d5a2e3dd74a9801a810872028a, type: 3}
    - {fileID: 1200368168625209029, guid: fdef58d5a2e3dd74a9801a810872028a, type: 3}
    - {fileID: -3158427004120571055, guid: fdef58d5a2e3dd74a9801a810872028a, type: 3}
    - {fileID: -1841642477674597547, guid: fdef58d5a2e3dd74a9801a810872028a, type: 3}
    - {fileID: 3529933293000163691, guid: fdef58d5a2e3dd74a9801a810872028a, type: 3}
    - {fileID: 2667594773079206947, guid: fdef58d5a2e3dd74a9801a810872028a, type: 3}
    - {fileID: 4085356588103866669, guid: fdef58d5a2e3dd74a9801a810872028a, type: 3}
    - {fileID: 2881970164919860631, guid: fdef58d5a2e3dd74a9801a810872028a, type: 3}
    - {fileID: -103919602105708644, guid: fdef58d5a2e3dd74a9801a810872028a, type: 3}
    - {fileID: -1122410443059980894, guid: fdef58d5a2e3dd74a9801a810872028a, type: 3}
    - {fileID: -1835281869042024545, guid: fdef58d5a2e3dd74a9801a810872028a, type: 3}
    - {fileID: 1109391747411154484, guid: fdef58d5a2e3dd74a9801a810872028a, type: 3}
    - {fileID: 3123409293631747681, guid: fdef58d5a2e3dd74a9801a810872028a, type: 3}
    - {fileID: 3123409293631747681, guid: fdef58d5a2e3dd74a9801a810872028a, type: 3}
  m_AnimationClipSettings:
    serializedVersion: 2
    m_AdditiveReferencePoseClip: {fileID: 0}
    m_AdditiveReferencePoseTime: 0
    m_StartTime: 0
    m_StopTime: 0.53666663
    m_OrientationOffsetY: 0
    m_Level: 0
    m_CycleOffset: 0
    m_HasAdditiveReferencePose: 0
    m_LoopTime: 0
    m_LoopBlend: 0
    m_LoopBlendOrientation: 0
    m_LoopBlendPositionY: 0
    m_LoopBlendPositionXZ: 0
    m_KeepOriginalOrientation: 0
    m_KeepOriginalPositionY: 1
    m_KeepOriginalPositionXZ: 0
    m_HeightFromFeet: 0
    m_Mirror: 0
  m_EditorCurves: []
  m_EulerEditorCurves: []
  m_HasGenericRootTransform: 0
  m_HasMotionFloatCurves: 0
  m_Events: []
