%YAML 1.1
%TAG !u! tag:unity3d.com,2011:
--- !u!74 &7400000
AnimationClip:
  m_ObjectHideFlags: 0
  m_CorrespondingSourceObject: {fileID: 0}
  m_PrefabInstance: {fileID: 0}
  m_PrefabAsset: {fileID: 0}
  m_Name: Clip_Player_WithBandanaAndWeapon-Run
  serializedVersion: 6
  m_Legacy: 0
  m_Compressed: 0
  m_UseHighQualityCurve: 1
  m_RotationCurves: []
  m_CompressedRotationCurves: []
  m_EulerCurves: []
  m_PositionCurves: []
  m_ScaleCurves: []
  m_FloatCurves: []
  m_PPtrCurves:
  - curve:
    - time: 0
      value: {fileID: 2055975190236594880, guid: 79ac661e73806d84e9a339c54f1c1ea5,
        type: 3}
    - time: 0.035
      value: {fileID: 2148399926734763216, guid: 79ac661e73806d84e9a339c54f1c1ea5,
        type: 3}
    - time: 0.07
      value: {fileID: -6680769808761912540, guid: 79ac661e73806d84e9a339c54f1c1ea5,
        type: 3}
    - time: 0.105
      value: {fileID: 96692282250834909, guid: 79ac661e73806d84e9a339c54f1c1ea5, type: 3}
    - time: 0.14
      value: {fileID: 6197369749152278151, guid: 79ac661e73806d84e9a339c54f1c1ea5,
        type: 3}
    - time: 0.175
      value: {fileID: 4923912093670182536, guid: 79ac661e73806d84e9a339c54f1c1ea5,
        type: 3}
    - time: 0.21
      value: {fileID: 1516757055393884998, guid: 79ac661e73806d84e9a339c54f1c1ea5,
        type: 3}
    - time: 0.24499999
      value: {fileID: -494944349852476441, guid: 79ac661e73806d84e9a339c54f1c1ea5,
        type: 3}
    - time: 0.28
      value: {fileID: -685900214361192833, guid: 79ac661e73806d84e9a339c54f1c1ea5,
        type: 3}
    - time: 0.315
      value: {fileID: -8240093350456559190, guid: 79ac661e73806d84e9a339c54f1c1ea5,
        type: 3}
    - time: 0.35
      value: {fileID: -224598257112158816, guid: 79ac661e73806d84e9a339c54f1c1ea5,
        type: 3}
    - time: 0.385
      value: {fileID: -224598257112158816, guid: 79ac661e73806d84e9a339c54f1c1ea5,
        type: 3}
    attribute: m_Sprite
    path: Visual/Render
    classID: 212
    script: {fileID: 0}
  m_SampleRate: 60
  m_WrapMode: 0
  m_Bounds:
    m_Center: {x: 0, y: 0, z: 0}
    m_Extent: {x: 0, y: 0, z: 0}
  m_ClipBindingConstant:
    genericBindings:
    - serializedVersion: 2
      path: 3017528832
      attribute: 0
      script: {fileID: 0}
      typeID: 212
      customType: 23
      isPPtrCurve: 1
    pptrCurveMapping:
    - {fileID: 2055975190236594880, guid: 79ac661e73806d84e9a339c54f1c1ea5, type: 3}
    - {fileID: 2148399926734763216, guid: 79ac661e73806d84e9a339c54f1c1ea5, type: 3}
    - {fileID: -6680769808761912540, guid: 79ac661e73806d84e9a339c54f1c1ea5, type: 3}
    - {fileID: 96692282250834909, guid: 79ac661e73806d84e9a339c54f1c1ea5, type: 3}
    - {fileID: 6197369749152278151, guid: 79ac661e73806d84e9a339c54f1c1ea5, type: 3}
    - {fileID: 4923912093670182536, guid: 79ac661e73806d84e9a339c54f1c1ea5, type: 3}
    - {fileID: 1516757055393884998, guid: 79ac661e73806d84e9a339c54f1c1ea5, type: 3}
    - {fileID: -494944349852476441, guid: 79ac661e73806d84e9a339c54f1c1ea5, type: 3}
    - {fileID: -685900214361192833, guid: 79ac661e73806d84e9a339c54f1c1ea5, type: 3}
    - {fileID: -8240093350456559190, guid: 79ac661e73806d84e9a339c54f1c1ea5, type: 3}
    - {fileID: -224598257112158816, guid: 79ac661e73806d84e9a339c54f1c1ea5, type: 3}
    - {fileID: -224598257112158816, guid: 79ac661e73806d84e9a339c54f1c1ea5, type: 3}
  m_AnimationClipSettings:
    serializedVersion: 2
    m_AdditiveReferencePoseClip: {fileID: 0}
    m_AdditiveReferencePoseTime: 0
    m_StartTime: 0
    m_StopTime: 0.40166667
    m_OrientationOffsetY: 0
    m_Level: 0
    m_CycleOffset: 0
    m_HasAdditiveReferencePose: 0
    m_LoopTime: 0
    m_LoopBlend: 0
    m_LoopBlendOrientation: 0
    m_LoopBlendPositionY: 0
    m_LoopBlendPositionXZ: 0
    m_KeepOriginalOrientation: 0
    m_KeepOriginalPositionY: 1
    m_KeepOriginalPositionXZ: 0
    m_HeightFromFeet: 0
    m_Mirror: 0
  m_EditorCurves: []
  m_EulerEditorCurves: []
  m_HasGenericRootTransform: 0
  m_HasMotionFloatCurves: 0
  m_Events: []
