%YAML 1.1
%TAG !u! tag:unity3d.com,2011:
--- !u!74 &7400000
AnimationClip:
  m_ObjectHideFlags: 0
  m_CorrespondingSourceObject: {fileID: 0}
  m_PrefabInstance: {fileID: 0}
  m_PrefabAsset: {fileID: 0}
  m_Name: Clip_Player_WithBandanaAndWeapon-VFX_Appear
  serializedVersion: 6
  m_Legacy: 0
  m_Compressed: 0
  m_UseHighQualityCurve: 1
  m_RotationCurves: []
  m_CompressedRotationCurves: []
  m_EulerCurves: []
  m_PositionCurves: []
  m_ScaleCurves: []
  m_FloatCurves: []
  m_PPtrCurves:
  - curve:
    - time: 0
      value: {fileID: -7757563644521053082, guid: e44a1bdf797c5204fb9f06a75d77f6f9,
        type: 3}
    - time: 0.04
      value: {fileID: -6072634704601264613, guid: e44a1bdf797c5204fb9f06a75d77f6f9,
        type: 3}
    - time: 0.08
      value: {fileID: -7692418820093863767, guid: e44a1bdf797c5204fb9f06a75d77f6f9,
        type: 3}
    - time: 0.12
      value: {fileID: 7797725014191829979, guid: e44a1bdf797c5204fb9f06a75d77f6f9,
        type: 3}
    - time: 0.16
      value: {fileID: 6926647574388463124, guid: e44a1bdf797c5204fb9f06a75d77f6f9,
        type: 3}
    - time: 0.2
      value: {fileID: -370937616951673531, guid: e44a1bdf797c5204fb9f06a75d77f6f9,
        type: 3}
    - time: 0.24000001
      value: {fileID: 4409586137968081829, guid: e44a1bdf797c5204fb9f06a75d77f6f9,
        type: 3}
    - time: 0.28
      value: {fileID: -4348988177164325383, guid: e44a1bdf797c5204fb9f06a75d77f6f9,
        type: 3}
    - time: 0.32
      value: {fileID: 3299871820703837485, guid: e44a1bdf797c5204fb9f06a75d77f6f9,
        type: 3}
    - time: 0.35999998
      value: {fileID: 2200223509455490355, guid: e44a1bdf797c5204fb9f06a75d77f6f9,
        type: 3}
    - time: 0.39999998
      value: {fileID: -2864122103139144867, guid: e44a1bdf797c5204fb9f06a75d77f6f9,
        type: 3}
    - time: 0.43999997
      value: {fileID: -9039385154977246145, guid: e44a1bdf797c5204fb9f06a75d77f6f9,
        type: 3}
    - time: 0.47999996
      value: {fileID: -2581252894402027384, guid: e44a1bdf797c5204fb9f06a75d77f6f9,
        type: 3}
    - time: 0.52
      value: {fileID: -2581252894402027384, guid: e44a1bdf797c5204fb9f06a75d77f6f9,
        type: 3}
    attribute: m_Sprite
    path: Visual/Render
    classID: 212
    script: {fileID: 0}
  m_SampleRate: 60
  m_WrapMode: 0
  m_Bounds:
    m_Center: {x: 0, y: 0, z: 0}
    m_Extent: {x: 0, y: 0, z: 0}
  m_ClipBindingConstant:
    genericBindings:
    - serializedVersion: 2
      path: 3017528832
      attribute: 0
      script: {fileID: 0}
      typeID: 212
      customType: 23
      isPPtrCurve: 1
    pptrCurveMapping:
    - {fileID: -7757563644521053082, guid: e44a1bdf797c5204fb9f06a75d77f6f9, type: 3}
    - {fileID: -6072634704601264613, guid: e44a1bdf797c5204fb9f06a75d77f6f9, type: 3}
    - {fileID: -7692418820093863767, guid: e44a1bdf797c5204fb9f06a75d77f6f9, type: 3}
    - {fileID: 7797725014191829979, guid: e44a1bdf797c5204fb9f06a75d77f6f9, type: 3}
    - {fileID: 6926647574388463124, guid: e44a1bdf797c5204fb9f06a75d77f6f9, type: 3}
    - {fileID: -370937616951673531, guid: e44a1bdf797c5204fb9f06a75d77f6f9, type: 3}
    - {fileID: 4409586137968081829, guid: e44a1bdf797c5204fb9f06a75d77f6f9, type: 3}
    - {fileID: -4348988177164325383, guid: e44a1bdf797c5204fb9f06a75d77f6f9, type: 3}
    - {fileID: 3299871820703837485, guid: e44a1bdf797c5204fb9f06a75d77f6f9, type: 3}
    - {fileID: 2200223509455490355, guid: e44a1bdf797c5204fb9f06a75d77f6f9, type: 3}
    - {fileID: -2864122103139144867, guid: e44a1bdf797c5204fb9f06a75d77f6f9, type: 3}
    - {fileID: -9039385154977246145, guid: e44a1bdf797c5204fb9f06a75d77f6f9, type: 3}
    - {fileID: -2581252894402027384, guid: e44a1bdf797c5204fb9f06a75d77f6f9, type: 3}
    - {fileID: -2581252894402027384, guid: e44a1bdf797c5204fb9f06a75d77f6f9, type: 3}
  m_AnimationClipSettings:
    serializedVersion: 2
    m_AdditiveReferencePoseClip: {fileID: 0}
    m_AdditiveReferencePoseTime: 0
    m_StartTime: 0
    m_StopTime: 0.53666663
    m_OrientationOffsetY: 0
    m_Level: 0
    m_CycleOffset: 0
    m_HasAdditiveReferencePose: 0
    m_LoopTime: 0
    m_LoopBlend: 0
    m_LoopBlendOrientation: 0
    m_LoopBlendPositionY: 0
    m_LoopBlendPositionXZ: 0
    m_KeepOriginalOrientation: 0
    m_KeepOriginalPositionY: 1
    m_KeepOriginalPositionXZ: 0
    m_HeightFromFeet: 0
    m_Mirror: 0
  m_EditorCurves: []
  m_EulerEditorCurves: []
  m_HasGenericRootTransform: 0
  m_HasMotionFloatCurves: 0
  m_Events: []
