{ "frames": [
   {
    "filename": "Player_WithBandana #Squash 0.ase",
    "frame": { "x": 0, "y": 0, "w": 96, "h": 48 },
    "rotated": false,
    "trimmed": false,
    "spriteSourceSize": { "x": 0, "y": 0, "w": 96, "h": 48 },
    "sourceSize": { "w": 96, "h": 48 },
    "duration": 20
   },
   {
    "filename": "Player_WithBandana #Squash 1.ase",
    "frame": { "x": 96, "y": 0, "w": 96, "h": 48 },
    "rotated": false,
    "trimmed": false,
    "spriteSourceSize": { "x": 0, "y": 0, "w": 96, "h": 48 },
    "sourceSize": { "w": 96, "h": 48 },
    "duration": 20
   },
   {
    "filename": "Player_WithBandana #Squash 2.ase",
    "frame": { "x": 192, "y": 0, "w": 96, "h": 48 },
    "rotated": false,
    "trimmed": false,
    "spriteSourceSize": { "x": 0, "y": 0, "w": 96, "h": 48 },
    "sourceSize": { "w": 96, "h": 48 },
    "duration": 20
   },
   {
    "filename": "Player_WithBandana #Squash 3.ase",
    "frame": { "x": 288, "y": 0, "w": 96, "h": 48 },
    "rotated": false,
    "trimmed": false,
    "spriteSourceSize": { "x": 0, "y": 0, "w": 96, "h": 48 },
    "sourceSize": { "w": 96, "h": 48 },
    "duration": 20
   },
   {
    "filename": "Player_WithBandana #Squash 4.ase",
    "frame": { "x": 0, "y": 48, "w": 96, "h": 48 },
    "rotated": false,
    "trimmed": false,
    "spriteSourceSize": { "x": 0, "y": 0, "w": 96, "h": 48 },
    "sourceSize": { "w": 96, "h": 48 },
    "duration": 30
   },
   {
    "filename": "Player_WithBandana #Squash 5.ase",
    "frame": { "x": 96, "y": 48, "w": 96, "h": 48 },
    "rotated": false,
    "trimmed": false,
    "spriteSourceSize": { "x": 0, "y": 0, "w": 96, "h": 48 },
    "sourceSize": { "w": 96, "h": 48 },
    "duration": 30
   },
   {
    "filename": "Player_WithBandana #Squash 6.ase",
    "frame": { "x": 96, "y": 48, "w": 96, "h": 48 },
    "rotated": false,
    "trimmed": false,
    "spriteSourceSize": { "x": 0, "y": 0, "w": 96, "h": 48 },
    "sourceSize": { "w": 96, "h": 48 },
    "duration": 60
   },
   {
    "filename": "Player_WithBandana #Squash 7.ase",
    "frame": { "x": 192, "y": 48, "w": 96, "h": 48 },
    "rotated": false,
    "trimmed": false,
    "spriteSourceSize": { "x": 0, "y": 0, "w": 96, "h": 48 },
    "sourceSize": { "w": 96, "h": 48 },
    "duration": 60
   },
   {
    "filename": "Player_WithBandana #Squash 8.ase",
    "frame": { "x": 288, "y": 48, "w": 96, "h": 48 },
    "rotated": false,
    "trimmed": false,
    "spriteSourceSize": { "x": 0, "y": 0, "w": 96, "h": 48 },
    "sourceSize": { "w": 96, "h": 48 },
    "duration": 40
   },
   {
    "filename": "Player_WithBandana #Squash 9.ase",
    "frame": { "x": 0, "y": 96, "w": 96, "h": 48 },
    "rotated": false,
    "trimmed": false,
    "spriteSourceSize": { "x": 0, "y": 0, "w": 96, "h": 48 },
    "sourceSize": { "w": 96, "h": 48 },
    "duration": 40
   },
   {
    "filename": "Player_WithBandana #Squash 10.ase",
    "frame": { "x": 96, "y": 96, "w": 96, "h": 48 },
    "rotated": false,
    "trimmed": false,
    "spriteSourceSize": { "x": 0, "y": 0, "w": 96, "h": 48 },
    "sourceSize": { "w": 96, "h": 48 },
    "duration": 40
   },
   {
    "filename": "Player_WithBandana #Squash 11.ase",
    "frame": { "x": 192, "y": 96, "w": 96, "h": 48 },
    "rotated": false,
    "trimmed": false,
    "spriteSourceSize": { "x": 0, "y": 0, "w": 96, "h": 48 },
    "sourceSize": { "w": 96, "h": 48 },
    "duration": 40
   },
   {
    "filename": "Player_WithBandana #Squash 12.ase",
    "frame": { "x": 288, "y": 96, "w": 96, "h": 48 },
    "rotated": false,
    "trimmed": false,
    "spriteSourceSize": { "x": 0, "y": 0, "w": 96, "h": 48 },
    "sourceSize": { "w": 96, "h": 48 },
    "duration": 80
   },
   {
    "filename": "Player_WithBandana #Squash 13.ase",
    "frame": { "x": 0, "y": 0, "w": 96, "h": 48 },
    "rotated": false,
    "trimmed": false,
    "spriteSourceSize": { "x": 0, "y": 0, "w": 96, "h": 48 },
    "sourceSize": { "w": 96, "h": 48 },
    "duration": 40
   },
   {
    "filename": "Player_WithBandana #Squash 14.ase",
    "frame": { "x": 0, "y": 0, "w": 96, "h": 48 },
    "rotated": false,
    "trimmed": false,
    "spriteSourceSize": { "x": 0, "y": 0, "w": 96, "h": 48 },
    "sourceSize": { "w": 96, "h": 48 },
    "duration": 35
   }
 ],
 "meta": {
  "app": "http://www.aseprite.org/",
  "version": "1.2.21-x64",
  "image": "Player_WithBandana-Squash.png",
  "format": "RGBA8888",
  "size": { "w": 384, "h": 144 },
  "scale": "1",
  "slices": [
  ]
 }
}
