{ "frames": [
   {
    "filename": "Player_WithBandanaAndWeapon #Hang_Idle 0.ase",
    "frame": { "x": 0, "y": 0, "w": 96, "h": 48 },
    "rotated": false,
    "trimmed": false,
    "spriteSourceSize": { "x": 0, "y": 0, "w": 96, "h": 48 },
    "sourceSize": { "w": 96, "h": 48 },
    "duration": 100
   },
   {
    "filename": "Player_WithBandanaAndWeapon #Hang_Idle 1.ase",
    "frame": { "x": 96, "y": 0, "w": 96, "h": 48 },
    "rotated": false,
    "trimmed": false,
    "spriteSourceSize": { "x": 0, "y": 0, "w": 96, "h": 48 },
    "sourceSize": { "w": 96, "h": 48 },
    "duration": 80
   },
   {
    "filename": "Player_WithBandanaAndWeapon #Hang_Idle 2.ase",
    "frame": { "x": 192, "y": 0, "w": 96, "h": 48 },
    "rotated": false,
    "trimmed": false,
    "spriteSourceSize": { "x": 0, "y": 0, "w": 96, "h": 48 },
    "sourceSize": { "w": 96, "h": 48 },
    "duration": 80
   },
   {
    "filename": "Player_WithBandanaAndWeapon #Hang_Idle 3.ase",
    "frame": { "x": 288, "y": 0, "w": 96, "h": 48 },
    "rotated": false,
    "trimmed": false,
    "spriteSourceSize": { "x": 0, "y": 0, "w": 96, "h": 48 },
    "sourceSize": { "w": 96, "h": 48 },
    "duration": 80
   },
   {
    "filename": "Player_WithBandanaAndWeapon #Hang_Idle 4.ase",
    "frame": { "x": 384, "y": 0, "w": 96, "h": 48 },
    "rotated": false,
    "trimmed": false,
    "spriteSourceSize": { "x": 0, "y": 0, "w": 96, "h": 48 },
    "sourceSize": { "w": 96, "h": 48 },
    "duration": 80
   },
   {
    "filename": "Player_WithBandanaAndWeapon #Hang_Idle 5.ase",
    "frame": { "x": 0, "y": 48, "w": 96, "h": 48 },
    "rotated": false,
    "trimmed": false,
    "spriteSourceSize": { "x": 0, "y": 0, "w": 96, "h": 48 },
    "sourceSize": { "w": 96, "h": 48 },
    "duration": 80
   },
   {
    "filename": "Player_WithBandanaAndWeapon #Hang_Idle 6.ase",
    "frame": { "x": 96, "y": 48, "w": 96, "h": 48 },
    "rotated": false,
    "trimmed": false,
    "spriteSourceSize": { "x": 0, "y": 0, "w": 96, "h": 48 },
    "sourceSize": { "w": 96, "h": 48 },
    "duration": 80
   },
   {
    "filename": "Player_WithBandanaAndWeapon #Hang_Idle 7.ase",
    "frame": { "x": 192, "y": 48, "w": 96, "h": 48 },
    "rotated": false,
    "trimmed": false,
    "spriteSourceSize": { "x": 0, "y": 0, "w": 96, "h": 48 },
    "sourceSize": { "w": 96, "h": 48 },
    "duration": 80
   },
   {
    "filename": "Player_WithBandanaAndWeapon #Hang_Idle 8.ase",
    "frame": { "x": 288, "y": 48, "w": 96, "h": 48 },
    "rotated": false,
    "trimmed": false,
    "spriteSourceSize": { "x": 0, "y": 0, "w": 96, "h": 48 },
    "sourceSize": { "w": 96, "h": 48 },
    "duration": 80
   },
   {
    "filename": "Player_WithBandanaAndWeapon #Hang_Idle 9.ase",
    "frame": { "x": 384, "y": 48, "w": 96, "h": 48 },
    "rotated": false,
    "trimmed": false,
    "spriteSourceSize": { "x": 0, "y": 0, "w": 96, "h": 48 },
    "sourceSize": { "w": 96, "h": 48 },
    "duration": 120
   },
   {
    "filename": "Player_WithBandanaAndWeapon #Hang_Idle 10.ase",
    "frame": { "x": 0, "y": 96, "w": 96, "h": 48 },
    "rotated": false,
    "trimmed": false,
    "spriteSourceSize": { "x": 0, "y": 0, "w": 96, "h": 48 },
    "sourceSize": { "w": 96, "h": 48 },
    "duration": 100
   },
   {
    "filename": "Player_WithBandanaAndWeapon #Hang_Idle 11.ase",
    "frame": { "x": 96, "y": 96, "w": 96, "h": 48 },
    "rotated": false,
    "trimmed": false,
    "spriteSourceSize": { "x": 0, "y": 0, "w": 96, "h": 48 },
    "sourceSize": { "w": 96, "h": 48 },
    "duration": 100
   },
   {
    "filename": "Player_WithBandanaAndWeapon #Hang_Idle 12.ase",
    "frame": { "x": 192, "y": 96, "w": 96, "h": 48 },
    "rotated": false,
    "trimmed": false,
    "spriteSourceSize": { "x": 0, "y": 0, "w": 96, "h": 48 },
    "sourceSize": { "w": 96, "h": 48 },
    "duration": 80
   },
   {
    "filename": "Player_WithBandanaAndWeapon #Hang_Idle 13.ase",
    "frame": { "x": 288, "y": 96, "w": 96, "h": 48 },
    "rotated": false,
    "trimmed": false,
    "spriteSourceSize": { "x": 0, "y": 0, "w": 96, "h": 48 },
    "sourceSize": { "w": 96, "h": 48 },
    "duration": 80
   },
   {
    "filename": "Player_WithBandanaAndWeapon #Hang_Idle 14.ase",
    "frame": { "x": 384, "y": 96, "w": 96, "h": 48 },
    "rotated": false,
    "trimmed": false,
    "spriteSourceSize": { "x": 0, "y": 0, "w": 96, "h": 48 },
    "sourceSize": { "w": 96, "h": 48 },
    "duration": 80
   },
   {
    "filename": "Player_WithBandanaAndWeapon #Hang_Idle 15.ase",
    "frame": { "x": 0, "y": 144, "w": 96, "h": 48 },
    "rotated": false,
    "trimmed": false,
    "spriteSourceSize": { "x": 0, "y": 0, "w": 96, "h": 48 },
    "sourceSize": { "w": 96, "h": 48 },
    "duration": 80
   },
   {
    "filename": "Player_WithBandanaAndWeapon #Hang_Idle 16.ase",
    "frame": { "x": 96, "y": 144, "w": 96, "h": 48 },
    "rotated": false,
    "trimmed": false,
    "spriteSourceSize": { "x": 0, "y": 0, "w": 96, "h": 48 },
    "sourceSize": { "w": 96, "h": 48 },
    "duration": 80
   },
   {
    "filename": "Player_WithBandanaAndWeapon #Hang_Idle 17.ase",
    "frame": { "x": 96, "y": 144, "w": 96, "h": 48 },
    "rotated": false,
    "trimmed": false,
    "spriteSourceSize": { "x": 0, "y": 0, "w": 96, "h": 48 },
    "sourceSize": { "w": 96, "h": 48 },
    "duration": 100
   }
 ],
 "meta": {
  "app": "http://www.aseprite.org/",
  "version": "1.2.21-x64",
  "image": "Player_WithBandanaAndWeapon-Hang_Idle.png",
  "format": "RGBA8888",
  "size": { "w": 480, "h": 192 },
  "scale": "1",
  "slices": [
  ]
 }
}
