%YAML 1.1
%TAG !u! tag:unity3d.com,2011:
--- !u!74 &7400000
AnimationClip:
  m_ObjectHideFlags: 0
  m_CorrespondingSourceObject: {fileID: 0}
  m_PrefabInstance: {fileID: 0}
  m_PrefabAsset: {fileID: 0}
  m_Name: Clip_Door_Close
  serializedVersion: 6
  m_Legacy: 0
  m_Compressed: 0
  m_UseHighQualityCurve: 1
  m_RotationCurves: []
  m_CompressedRotationCurves: []
  m_EulerCurves: []
  m_PositionCurves: []
  m_ScaleCurves: []
  m_FloatCurves: []
  m_PPtrCurves:
  - curve:
    - time: 0
      value: {fileID: 5992068941986603086, guid: 29b4c0dc86f3e3e4792ae54f620df963,
        type: 3}
    - time: 0.1
      value: {fileID: -5328379771277732750, guid: 29b4c0dc86f3e3e4792ae54f620df963,
        type: 3}
    - time: 0.2
      value: {fileID: 8903196441064125955, guid: 29b4c0dc86f3e3e4792ae54f620df963,
        type: 3}
    - time: 0.3
      value: {fileID: 2425686556317644341, guid: 29b4c0dc86f3e3e4792ae54f620df963,
        type: 3}
    - time: 0.4
      value: {fileID: -2906268822883541665, guid: 29b4c0dc86f3e3e4792ae54f620df963,
        type: 3}
    - time: 0.5
      value: {fileID: -3224284842743696743, guid: 29b4c0dc86f3e3e4792ae54f620df963,
        type: 3}
    - time: 0.6
      value: {fileID: -8541914675006619702, guid: 29b4c0dc86f3e3e4792ae54f620df963,
        type: 3}
    - time: 0.70000005
      value: {fileID: -1376703954272313836, guid: 29b4c0dc86f3e3e4792ae54f620df963,
        type: 3}
    - time: 0.8000001
      value: {fileID: -5270504795811619888, guid: 29b4c0dc86f3e3e4792ae54f620df963,
        type: 3}
    - time: 0.9000001
      value: {fileID: 1087470026018773510, guid: 29b4c0dc86f3e3e4792ae54f620df963,
        type: 3}
    - time: 1.0000001
      value: {fileID: -1064271771093418317, guid: 29b4c0dc86f3e3e4792ae54f620df963,
        type: 3}
    - time: 1.1000001
      value: {fileID: -2638899816612406, guid: 29b4c0dc86f3e3e4792ae54f620df963, type: 3}
    - time: 1.2000002
      value: {fileID: 558202012184975702, guid: 29b4c0dc86f3e3e4792ae54f620df963,
        type: 3}
    - time: 1.3000002
      value: {fileID: 2982570453570162577, guid: 29b4c0dc86f3e3e4792ae54f620df963,
        type: 3}
    - time: 1.4000002
      value: {fileID: -6535291538412563071, guid: 29b4c0dc86f3e3e4792ae54f620df963,
        type: 3}
    - time: 1.5000002
      value: {fileID: -7835260649456304969, guid: 29b4c0dc86f3e3e4792ae54f620df963,
        type: 3}
    - time: 1.6000003
      value: {fileID: 2934186648454128820, guid: 29b4c0dc86f3e3e4792ae54f620df963,
        type: 3}
    - time: 1.7000003
      value: {fileID: -6964847511053938017, guid: 29b4c0dc86f3e3e4792ae54f620df963,
        type: 3}
    - time: 1.8000003
      value: {fileID: -6964847511053938017, guid: 29b4c0dc86f3e3e4792ae54f620df963,
        type: 3}
    attribute: m_Sprite
    path: Visual/Render
    classID: 212
    script: {fileID: 0}
  m_SampleRate: 60
  m_WrapMode: 0
  m_Bounds:
    m_Center: {x: 0, y: 0, z: 0}
    m_Extent: {x: 0, y: 0, z: 0}
  m_ClipBindingConstant:
    genericBindings:
    - serializedVersion: 2
      path: 3017528832
      attribute: 0
      script: {fileID: 0}
      typeID: 212
      customType: 23
      isPPtrCurve: 1
    pptrCurveMapping:
    - {fileID: 5992068941986603086, guid: 29b4c0dc86f3e3e4792ae54f620df963, type: 3}
    - {fileID: -5328379771277732750, guid: 29b4c0dc86f3e3e4792ae54f620df963, type: 3}
    - {fileID: 8903196441064125955, guid: 29b4c0dc86f3e3e4792ae54f620df963, type: 3}
    - {fileID: 2425686556317644341, guid: 29b4c0dc86f3e3e4792ae54f620df963, type: 3}
    - {fileID: -2906268822883541665, guid: 29b4c0dc86f3e3e4792ae54f620df963, type: 3}
    - {fileID: -3224284842743696743, guid: 29b4c0dc86f3e3e4792ae54f620df963, type: 3}
    - {fileID: -8541914675006619702, guid: 29b4c0dc86f3e3e4792ae54f620df963, type: 3}
    - {fileID: -1376703954272313836, guid: 29b4c0dc86f3e3e4792ae54f620df963, type: 3}
    - {fileID: -5270504795811619888, guid: 29b4c0dc86f3e3e4792ae54f620df963, type: 3}
    - {fileID: 1087470026018773510, guid: 29b4c0dc86f3e3e4792ae54f620df963, type: 3}
    - {fileID: -1064271771093418317, guid: 29b4c0dc86f3e3e4792ae54f620df963, type: 3}
    - {fileID: -2638899816612406, guid: 29b4c0dc86f3e3e4792ae54f620df963, type: 3}
    - {fileID: 558202012184975702, guid: 29b4c0dc86f3e3e4792ae54f620df963, type: 3}
    - {fileID: 2982570453570162577, guid: 29b4c0dc86f3e3e4792ae54f620df963, type: 3}
    - {fileID: -6535291538412563071, guid: 29b4c0dc86f3e3e4792ae54f620df963, type: 3}
    - {fileID: -7835260649456304969, guid: 29b4c0dc86f3e3e4792ae54f620df963, type: 3}
    - {fileID: 2934186648454128820, guid: 29b4c0dc86f3e3e4792ae54f620df963, type: 3}
    - {fileID: -6964847511053938017, guid: 29b4c0dc86f3e3e4792ae54f620df963, type: 3}
    - {fileID: -6964847511053938017, guid: 29b4c0dc86f3e3e4792ae54f620df963, type: 3}
  m_AnimationClipSettings:
    serializedVersion: 2
    m_AdditiveReferencePoseClip: {fileID: 0}
    m_AdditiveReferencePoseTime: 0
    m_StartTime: 0
    m_StopTime: 1.816667
    m_OrientationOffsetY: 0
    m_Level: 0
    m_CycleOffset: 0
    m_HasAdditiveReferencePose: 0
    m_LoopTime: 0
    m_LoopBlend: 0
    m_LoopBlendOrientation: 0
    m_LoopBlendPositionY: 0
    m_LoopBlendPositionXZ: 0
    m_KeepOriginalOrientation: 0
    m_KeepOriginalPositionY: 1
    m_KeepOriginalPositionXZ: 0
    m_HeightFromFeet: 0
    m_Mirror: 0
  m_EditorCurves: []
  m_EulerEditorCurves: []
  m_HasGenericRootTransform: 0
  m_HasMotionFloatCurves: 0
  m_Events: []
