%YAML 1.1
%TAG !u! tag:unity3d.com,2011:
--- !u!74 &7400000
AnimationClip:
  m_ObjectHideFlags: 0
  m_CorrespondingSourceObject: {fileID: 0}
  m_PrefabInstance: {fileID: 0}
  m_PrefabAsset: {fileID: 0}
  m_Name: Clip_Player_Ninja-Jump
  serializedVersion: 6
  m_Legacy: 0
  m_Compressed: 0
  m_UseHighQualityCurve: 1
  m_RotationCurves: []
  m_CompressedRotationCurves: []
  m_EulerCurves: []
  m_PositionCurves: []
  m_ScaleCurves: []
  m_FloatCurves: []
  m_PPtrCurves:
  - curve:
    - time: 0
      value: {fileID: -3667838065181565996, guid: 770d5edf969b5ac489036ae9fa20f133,
        type: 3}
    - time: 0.015
      value: {fileID: -8059353460142329629, guid: 770d5edf969b5ac489036ae9fa20f133,
        type: 3}
    - time: 0.03
      value: {fileID: 8472789613575034501, guid: 770d5edf969b5ac489036ae9fa20f133,
        type: 3}
    - time: 0.044999998
      value: {fileID: -4800006774794699042, guid: 770d5edf969b5ac489036ae9fa20f133,
        type: 3}
    - time: 0.06
      value: {fileID: 4726736438651776412, guid: 770d5edf969b5ac489036ae9fa20f133,
        type: 3}
    - time: 0.074999996
      value: {fileID: 1801133146542056593, guid: 770d5edf969b5ac489036ae9fa20f133,
        type: 3}
    - time: 0.089999996
      value: {fileID: 640034259486302034, guid: 770d5edf969b5ac489036ae9fa20f133,
        type: 3}
    - time: 0.105
      value: {fileID: 4759659452280487556, guid: 770d5edf969b5ac489036ae9fa20f133,
        type: 3}
    - time: 0.12
      value: {fileID: 1700921697765243327, guid: 770d5edf969b5ac489036ae9fa20f133,
        type: 3}
    - time: 0.16
      value: {fileID: 17975068677821464, guid: 770d5edf969b5ac489036ae9fa20f133, type: 3}
    - time: 0.2
      value: {fileID: -7107357771316735300, guid: 770d5edf969b5ac489036ae9fa20f133,
        type: 3}
    - time: 0.24000001
      value: {fileID: -4685453478975352286, guid: 770d5edf969b5ac489036ae9fa20f133,
        type: 3}
    - time: 0.28
      value: {fileID: 2013192124609195035, guid: 770d5edf969b5ac489036ae9fa20f133,
        type: 3}
    - time: 0.32
      value: {fileID: -7447226355491820194, guid: 770d5edf969b5ac489036ae9fa20f133,
        type: 3}
    - time: 0.35999998
      value: {fileID: 2379310132747793872, guid: 770d5edf969b5ac489036ae9fa20f133,
        type: 3}
    - time: 0.39999998
      value: {fileID: 7852046350763618403, guid: 770d5edf969b5ac489036ae9fa20f133,
        type: 3}
    - time: 0.43999997
      value: {fileID: -3681111864564275758, guid: 770d5edf969b5ac489036ae9fa20f133,
        type: 3}
    - time: 0.47999996
      value: {fileID: 126709651721208588, guid: 770d5edf969b5ac489036ae9fa20f133,
        type: 3}
    - time: 0.52
      value: {fileID: -5127166476413317326, guid: 770d5edf969b5ac489036ae9fa20f133,
        type: 3}
    - time: 0.56
      value: {fileID: 4720422548714104200, guid: 770d5edf969b5ac489036ae9fa20f133,
        type: 3}
    - time: 0.6
      value: {fileID: -2608865692310373199, guid: 770d5edf969b5ac489036ae9fa20f133,
        type: 3}
    - time: 0.64000005
      value: {fileID: -7031132581240200243, guid: 770d5edf969b5ac489036ae9fa20f133,
        type: 3}
    - time: 0.68000007
      value: {fileID: 2223333634835968456, guid: 770d5edf969b5ac489036ae9fa20f133,
        type: 3}
    - time: 0.7200001
      value: {fileID: 2223333634835968456, guid: 770d5edf969b5ac489036ae9fa20f133,
        type: 3}
    attribute: m_Sprite
    path: Visual/Render
    classID: 212
    script: {fileID: 0}
  m_SampleRate: 60
  m_WrapMode: 0
  m_Bounds:
    m_Center: {x: 0, y: 0, z: 0}
    m_Extent: {x: 0, y: 0, z: 0}
  m_ClipBindingConstant:
    genericBindings:
    - serializedVersion: 2
      path: 3017528832
      attribute: 0
      script: {fileID: 0}
      typeID: 212
      customType: 23
      isPPtrCurve: 1
    pptrCurveMapping:
    - {fileID: -3667838065181565996, guid: 770d5edf969b5ac489036ae9fa20f133, type: 3}
    - {fileID: -8059353460142329629, guid: 770d5edf969b5ac489036ae9fa20f133, type: 3}
    - {fileID: 8472789613575034501, guid: 770d5edf969b5ac489036ae9fa20f133, type: 3}
    - {fileID: -4800006774794699042, guid: 770d5edf969b5ac489036ae9fa20f133, type: 3}
    - {fileID: 4726736438651776412, guid: 770d5edf969b5ac489036ae9fa20f133, type: 3}
    - {fileID: 1801133146542056593, guid: 770d5edf969b5ac489036ae9fa20f133, type: 3}
    - {fileID: 640034259486302034, guid: 770d5edf969b5ac489036ae9fa20f133, type: 3}
    - {fileID: 4759659452280487556, guid: 770d5edf969b5ac489036ae9fa20f133, type: 3}
    - {fileID: 1700921697765243327, guid: 770d5edf969b5ac489036ae9fa20f133, type: 3}
    - {fileID: 17975068677821464, guid: 770d5edf969b5ac489036ae9fa20f133, type: 3}
    - {fileID: -7107357771316735300, guid: 770d5edf969b5ac489036ae9fa20f133, type: 3}
    - {fileID: -4685453478975352286, guid: 770d5edf969b5ac489036ae9fa20f133, type: 3}
    - {fileID: 2013192124609195035, guid: 770d5edf969b5ac489036ae9fa20f133, type: 3}
    - {fileID: -7447226355491820194, guid: 770d5edf969b5ac489036ae9fa20f133, type: 3}
    - {fileID: 2379310132747793872, guid: 770d5edf969b5ac489036ae9fa20f133, type: 3}
    - {fileID: 7852046350763618403, guid: 770d5edf969b5ac489036ae9fa20f133, type: 3}
    - {fileID: -3681111864564275758, guid: 770d5edf969b5ac489036ae9fa20f133, type: 3}
    - {fileID: 126709651721208588, guid: 770d5edf969b5ac489036ae9fa20f133, type: 3}
    - {fileID: -5127166476413317326, guid: 770d5edf969b5ac489036ae9fa20f133, type: 3}
    - {fileID: 4720422548714104200, guid: 770d5edf969b5ac489036ae9fa20f133, type: 3}
    - {fileID: -2608865692310373199, guid: 770d5edf969b5ac489036ae9fa20f133, type: 3}
    - {fileID: -7031132581240200243, guid: 770d5edf969b5ac489036ae9fa20f133, type: 3}
    - {fileID: 2223333634835968456, guid: 770d5edf969b5ac489036ae9fa20f133, type: 3}
    - {fileID: 2223333634835968456, guid: 770d5edf969b5ac489036ae9fa20f133, type: 3}
  m_AnimationClipSettings:
    serializedVersion: 2
    m_AdditiveReferencePoseClip: {fileID: 0}
    m_AdditiveReferencePoseTime: 0
    m_StartTime: 0
    m_StopTime: 0.73666674
    m_OrientationOffsetY: 0
    m_Level: 0
    m_CycleOffset: 0
    m_HasAdditiveReferencePose: 0
    m_LoopTime: 0
    m_LoopBlend: 0
    m_LoopBlendOrientation: 0
    m_LoopBlendPositionY: 0
    m_LoopBlendPositionXZ: 0
    m_KeepOriginalOrientation: 0
    m_KeepOriginalPositionY: 1
    m_KeepOriginalPositionXZ: 0
    m_HeightFromFeet: 0
    m_Mirror: 0
  m_EditorCurves: []
  m_EulerEditorCurves: []
  m_HasGenericRootTransform: 0
  m_HasMotionFloatCurves: 0
  m_Events: []
