%YAML 1.1
%TAG !u! tag:unity3d.com,2011:
--- !u!74 &7400000
AnimationClip:
  m_ObjectHideFlags: 0
  m_CorrespondingSourceObject: {fileID: 0}
  m_PrefabInstance: {fileID: 0}
  m_PrefabAsset: {fileID: 0}
  m_Name: Clip_Player_Ninja-Dash
  serializedVersion: 6
  m_Legacy: 0
  m_Compressed: 0
  m_UseHighQualityCurve: 1
  m_RotationCurves: []
  m_CompressedRotationCurves: []
  m_EulerCurves: []
  m_PositionCurves: []
  m_ScaleCurves: []
  m_FloatCurves: []
  m_PPtrCurves:
  - curve:
    - time: 0
      value: {fileID: -7391412406059890085, guid: c71342b0eb5e19a408cf2c1317cc958c,
        type: 3}
    - time: 0.04
      value: {fileID: 1552132429063426148, guid: c71342b0eb5e19a408cf2c1317cc958c,
        type: 3}
    - time: 0.08
      value: {fileID: 1041758238224405444, guid: c71342b0eb5e19a408cf2c1317cc958c,
        type: 3}
    - time: 0.12
      value: {fileID: -1432815913935314851, guid: c71342b0eb5e19a408cf2c1317cc958c,
        type: 3}
    - time: 0.16
      value: {fileID: -337625955951713379, guid: c71342b0eb5e19a408cf2c1317cc958c,
        type: 3}
    - time: 0.2
      value: {fileID: -1188868683102600266, guid: c71342b0eb5e19a408cf2c1317cc958c,
        type: 3}
    - time: 0.24000001
      value: {fileID: -5224481132162056554, guid: c71342b0eb5e19a408cf2c1317cc958c,
        type: 3}
    - time: 0.28
      value: {fileID: 619066560262636731, guid: c71342b0eb5e19a408cf2c1317cc958c,
        type: 3}
    - time: 0.32
      value: {fileID: -7413836353872781707, guid: c71342b0eb5e19a408cf2c1317cc958c,
        type: 3}
    - time: 0.35999998
      value: {fileID: -1724713221988226179, guid: c71342b0eb5e19a408cf2c1317cc958c,
        type: 3}
    - time: 0.39999998
      value: {fileID: -6379219908805418023, guid: c71342b0eb5e19a408cf2c1317cc958c,
        type: 3}
    - time: 0.43999997
      value: {fileID: -2014684228822664008, guid: c71342b0eb5e19a408cf2c1317cc958c,
        type: 3}
    - time: 0.47999996
      value: {fileID: -2014684228822664008, guid: c71342b0eb5e19a408cf2c1317cc958c,
        type: 3}
    attribute: m_Sprite
    path: Visual/Render
    classID: 212
    script: {fileID: 0}
  m_SampleRate: 60
  m_WrapMode: 0
  m_Bounds:
    m_Center: {x: 0, y: 0, z: 0}
    m_Extent: {x: 0, y: 0, z: 0}
  m_ClipBindingConstant:
    genericBindings:
    - serializedVersion: 2
      path: 3017528832
      attribute: 0
      script: {fileID: 0}
      typeID: 212
      customType: 23
      isPPtrCurve: 1
    pptrCurveMapping:
    - {fileID: -7391412406059890085, guid: c71342b0eb5e19a408cf2c1317cc958c, type: 3}
    - {fileID: 1552132429063426148, guid: c71342b0eb5e19a408cf2c1317cc958c, type: 3}
    - {fileID: 1041758238224405444, guid: c71342b0eb5e19a408cf2c1317cc958c, type: 3}
    - {fileID: -1432815913935314851, guid: c71342b0eb5e19a408cf2c1317cc958c, type: 3}
    - {fileID: -337625955951713379, guid: c71342b0eb5e19a408cf2c1317cc958c, type: 3}
    - {fileID: -1188868683102600266, guid: c71342b0eb5e19a408cf2c1317cc958c, type: 3}
    - {fileID: -5224481132162056554, guid: c71342b0eb5e19a408cf2c1317cc958c, type: 3}
    - {fileID: 619066560262636731, guid: c71342b0eb5e19a408cf2c1317cc958c, type: 3}
    - {fileID: -7413836353872781707, guid: c71342b0eb5e19a408cf2c1317cc958c, type: 3}
    - {fileID: -1724713221988226179, guid: c71342b0eb5e19a408cf2c1317cc958c, type: 3}
    - {fileID: -6379219908805418023, guid: c71342b0eb5e19a408cf2c1317cc958c, type: 3}
    - {fileID: -2014684228822664008, guid: c71342b0eb5e19a408cf2c1317cc958c, type: 3}
    - {fileID: -2014684228822664008, guid: c71342b0eb5e19a408cf2c1317cc958c, type: 3}
  m_AnimationClipSettings:
    serializedVersion: 2
    m_AdditiveReferencePoseClip: {fileID: 0}
    m_AdditiveReferencePoseTime: 0
    m_StartTime: 0
    m_StopTime: 0.49666664
    m_OrientationOffsetY: 0
    m_Level: 0
    m_CycleOffset: 0
    m_HasAdditiveReferencePose: 0
    m_LoopTime: 0
    m_LoopBlend: 0
    m_LoopBlendOrientation: 0
    m_LoopBlendPositionY: 0
    m_LoopBlendPositionXZ: 0
    m_KeepOriginalOrientation: 0
    m_KeepOriginalPositionY: 1
    m_KeepOriginalPositionXZ: 0
    m_HeightFromFeet: 0
    m_Mirror: 0
  m_EditorCurves: []
  m_EulerEditorCurves: []
  m_HasGenericRootTransform: 0
  m_HasMotionFloatCurves: 0
  m_Events: []
