%YAML 1.1
%TAG !u! tag:unity3d.com,2011:
--- !u!74 &7400000
AnimationClip:
  m_ObjectHideFlags: 0
  m_CorrespondingSourceObject: {fileID: 0}
  m_PrefabInstance: {fileID: 0}
  m_PrefabAsset: {fileID: 0}
  m_Name: Clip_Player_Ninja-Hang_In
  serializedVersion: 6
  m_Legacy: 0
  m_Compressed: 0
  m_UseHighQualityCurve: 1
  m_RotationCurves: []
  m_CompressedRotationCurves: []
  m_EulerCurves: []
  m_PositionCurves: []
  m_ScaleCurves: []
  m_FloatCurves: []
  m_PPtrCurves:
  - curve:
    - time: 0
      value: {fileID: -203132391070418804, guid: 993c1a1b413a23f46977cf29b4c5eb7b,
        type: 3}
    - time: 0.04
      value: {fileID: -7891323324236117601, guid: 993c1a1b413a23f46977cf29b4c5eb7b,
        type: 3}
    - time: 0.08
      value: {fileID: -5112940087277163158, guid: 993c1a1b413a23f46977cf29b4c5eb7b,
        type: 3}
    - time: 0.12
      value: {fileID: -2753237433151035313, guid: 993c1a1b413a23f46977cf29b4c5eb7b,
        type: 3}
    - time: 0.16
      value: {fileID: 5569552202839802589, guid: 993c1a1b413a23f46977cf29b4c5eb7b,
        type: 3}
    - time: 0.22999999
      value: {fileID: -5250885126585574890, guid: 993c1a1b413a23f46977cf29b4c5eb7b,
        type: 3}
    - time: 0.29
      value: {fileID: 3953307268013304568, guid: 993c1a1b413a23f46977cf29b4c5eb7b,
        type: 3}
    - time: 0.35
      value: {fileID: 5435017042341794729, guid: 993c1a1b413a23f46977cf29b4c5eb7b,
        type: 3}
    - time: 0.43
      value: {fileID: -8475030520460603902, guid: 993c1a1b413a23f46977cf29b4c5eb7b,
        type: 3}
    - time: 0.49
      value: {fileID: 9168814447561627816, guid: 993c1a1b413a23f46977cf29b4c5eb7b,
        type: 3}
    - time: 0.55
      value: {fileID: -4084333764225751163, guid: 993c1a1b413a23f46977cf29b4c5eb7b,
        type: 3}
    - time: 0.61
      value: {fileID: 4275063825513480499, guid: 993c1a1b413a23f46977cf29b4c5eb7b,
        type: 3}
    - time: 0.67
      value: {fileID: -5997684628086172041, guid: 993c1a1b413a23f46977cf29b4c5eb7b,
        type: 3}
    - time: 0.73
      value: {fileID: 8075954300351363089, guid: 993c1a1b413a23f46977cf29b4c5eb7b,
        type: 3}
    - time: 0.86
      value: {fileID: 8075954300351363089, guid: 993c1a1b413a23f46977cf29b4c5eb7b,
        type: 3}
    attribute: m_Sprite
    path: Visual/Render
    classID: 212
    script: {fileID: 0}
  m_SampleRate: 60
  m_WrapMode: 0
  m_Bounds:
    m_Center: {x: 0, y: 0, z: 0}
    m_Extent: {x: 0, y: 0, z: 0}
  m_ClipBindingConstant:
    genericBindings:
    - serializedVersion: 2
      path: 3017528832
      attribute: 0
      script: {fileID: 0}
      typeID: 212
      customType: 23
      isPPtrCurve: 1
    pptrCurveMapping:
    - {fileID: -203132391070418804, guid: 993c1a1b413a23f46977cf29b4c5eb7b, type: 3}
    - {fileID: -7891323324236117601, guid: 993c1a1b413a23f46977cf29b4c5eb7b, type: 3}
    - {fileID: -5112940087277163158, guid: 993c1a1b413a23f46977cf29b4c5eb7b, type: 3}
    - {fileID: -2753237433151035313, guid: 993c1a1b413a23f46977cf29b4c5eb7b, type: 3}
    - {fileID: 5569552202839802589, guid: 993c1a1b413a23f46977cf29b4c5eb7b, type: 3}
    - {fileID: -5250885126585574890, guid: 993c1a1b413a23f46977cf29b4c5eb7b, type: 3}
    - {fileID: 3953307268013304568, guid: 993c1a1b413a23f46977cf29b4c5eb7b, type: 3}
    - {fileID: 5435017042341794729, guid: 993c1a1b413a23f46977cf29b4c5eb7b, type: 3}
    - {fileID: -8475030520460603902, guid: 993c1a1b413a23f46977cf29b4c5eb7b, type: 3}
    - {fileID: 9168814447561627816, guid: 993c1a1b413a23f46977cf29b4c5eb7b, type: 3}
    - {fileID: -4084333764225751163, guid: 993c1a1b413a23f46977cf29b4c5eb7b, type: 3}
    - {fileID: 4275063825513480499, guid: 993c1a1b413a23f46977cf29b4c5eb7b, type: 3}
    - {fileID: -5997684628086172041, guid: 993c1a1b413a23f46977cf29b4c5eb7b, type: 3}
    - {fileID: 8075954300351363089, guid: 993c1a1b413a23f46977cf29b4c5eb7b, type: 3}
    - {fileID: 8075954300351363089, guid: 993c1a1b413a23f46977cf29b4c5eb7b, type: 3}
  m_AnimationClipSettings:
    serializedVersion: 2
    m_AdditiveReferencePoseClip: {fileID: 0}
    m_AdditiveReferencePoseTime: 0
    m_StartTime: 0
    m_StopTime: 0.87666667
    m_OrientationOffsetY: 0
    m_Level: 0
    m_CycleOffset: 0
    m_HasAdditiveReferencePose: 0
    m_LoopTime: 0
    m_LoopBlend: 0
    m_LoopBlendOrientation: 0
    m_LoopBlendPositionY: 0
    m_LoopBlendPositionXZ: 0
    m_KeepOriginalOrientation: 0
    m_KeepOriginalPositionY: 1
    m_KeepOriginalPositionXZ: 0
    m_HeightFromFeet: 0
    m_Mirror: 0
  m_EditorCurves: []
  m_EulerEditorCurves: []
  m_HasGenericRootTransform: 0
  m_HasMotionFloatCurves: 0
  m_Events: []
