{ "frames": [
   {
    "filename": "Player_Ninja #Run 0.ase",
    "frame": { "x": 0, "y": 0, "w": 96, "h": 48 },
    "rotated": false,
    "trimmed": false,
    "spriteSourceSize": { "x": 0, "y": 0, "w": 96, "h": 48 },
    "sourceSize": { "w": 96, "h": 48 },
    "duration": 35
   },
   {
    "filename": "Player_Ninja #Run 1.ase",
    "frame": { "x": 96, "y": 0, "w": 96, "h": 48 },
    "rotated": false,
    "trimmed": false,
    "spriteSourceSize": { "x": 0, "y": 0, "w": 96, "h": 48 },
    "sourceSize": { "w": 96, "h": 48 },
    "duration": 35
   },
   {
    "filename": "Player_Ninja #Run 2.ase",
    "frame": { "x": 192, "y": 0, "w": 96, "h": 48 },
    "rotated": false,
    "trimmed": false,
    "spriteSourceSize": { "x": 0, "y": 0, "w": 96, "h": 48 },
    "sourceSize": { "w": 96, "h": 48 },
    "duration": 35
   },
   {
    "filename": "Player_Ninja #Run 3.ase",
    "frame": { "x": 288, "y": 0, "w": 96, "h": 48 },
    "rotated": false,
    "trimmed": false,
    "spriteSourceSize": { "x": 0, "y": 0, "w": 96, "h": 48 },
    "sourceSize": { "w": 96, "h": 48 },
    "duration": 35
   },
   {
    "filename": "Player_Ninja #Run 4.ase",
    "frame": { "x": 0, "y": 48, "w": 96, "h": 48 },
    "rotated": false,
    "trimmed": false,
    "spriteSourceSize": { "x": 0, "y": 0, "w": 96, "h": 48 },
    "sourceSize": { "w": 96, "h": 48 },
    "duration": 35
   },
   {
    "filename": "Player_Ninja #Run 5.ase",
    "frame": { "x": 96, "y": 48, "w": 96, "h": 48 },
    "rotated": false,
    "trimmed": false,
    "spriteSourceSize": { "x": 0, "y": 0, "w": 96, "h": 48 },
    "sourceSize": { "w": 96, "h": 48 },
    "duration": 35
   },
   {
    "filename": "Player_Ninja #Run 6.ase",
    "frame": { "x": 192, "y": 48, "w": 96, "h": 48 },
    "rotated": false,
    "trimmed": false,
    "spriteSourceSize": { "x": 0, "y": 0, "w": 96, "h": 48 },
    "sourceSize": { "w": 96, "h": 48 },
    "duration": 35
   },
   {
    "filename": "Player_Ninja #Run 7.ase",
    "frame": { "x": 288, "y": 48, "w": 96, "h": 48 },
    "rotated": false,
    "trimmed": false,
    "spriteSourceSize": { "x": 0, "y": 0, "w": 96, "h": 48 },
    "sourceSize": { "w": 96, "h": 48 },
    "duration": 35
   },
   {
    "filename": "Player_Ninja #Run 8.ase",
    "frame": { "x": 0, "y": 96, "w": 96, "h": 48 },
    "rotated": false,
    "trimmed": false,
    "spriteSourceSize": { "x": 0, "y": 0, "w": 96, "h": 48 },
    "sourceSize": { "w": 96, "h": 48 },
    "duration": 35
   },
   {
    "filename": "Player_Ninja #Run 9.ase",
    "frame": { "x": 96, "y": 96, "w": 96, "h": 48 },
    "rotated": false,
    "trimmed": false,
    "spriteSourceSize": { "x": 0, "y": 0, "w": 96, "h": 48 },
    "sourceSize": { "w": 96, "h": 48 },
    "duration": 35
   },
   {
    "filename": "Player_Ninja #Run 10.ase",
    "frame": { "x": 288, "y": 48, "w": 96, "h": 48 },
    "rotated": false,
    "trimmed": false,
    "spriteSourceSize": { "x": 0, "y": 0, "w": 96, "h": 48 },
    "sourceSize": { "w": 96, "h": 48 },
    "duration": 35
   }
 ],
 "meta": {
  "app": "http://www.aseprite.org/",
  "version": "1.2.21-x64",
  "image": "Player_Ninja-Run.png",
  "format": "RGBA8888",
  "size": { "w": 384, "h": 144 },
  "scale": "1",
  "slices": [
  ]
 }
}
