%YAML 1.1
%TAG !u! tag:unity3d.com,2011:
--- !u!74 &7400000
AnimationClip:
  m_ObjectHideFlags: 0
  m_CorrespondingSourceObject: {fileID: 0}
  m_PrefabInstance: {fileID: 0}
  m_PrefabAsset: {fileID: 0}
  m_Name: Clip_Ninja_AppearVFX
  serializedVersion: 6
  m_Legacy: 0
  m_Compressed: 0
  m_UseHighQualityCurve: 1
  m_RotationCurves: []
  m_CompressedRotationCurves: []
  m_EulerCurves: []
  m_PositionCurves: []
  m_ScaleCurves: []
  m_FloatCurves: []
  m_PPtrCurves:
  - curve:
    - time: 0
      value: {fileID: -8508599984469734650, guid: be709c1101423934b86a5a85993170a3,
        type: 3}
    - time: 0.03
      value: {fileID: 610782055065076437, guid: be709c1101423934b86a5a85993170a3,
        type: 3}
    - time: 0.06
      value: {fileID: 8199590870366585303, guid: be709c1101423934b86a5a85993170a3,
        type: 3}
    - time: 0.089999996
      value: {fileID: -601822870846713600, guid: be709c1101423934b86a5a85993170a3,
        type: 3}
    - time: 0.12
      value: {fileID: -7204563178977358074, guid: be709c1101423934b86a5a85993170a3,
        type: 3}
    - time: 0.14999999
      value: {fileID: -9134693530466762397, guid: be709c1101423934b86a5a85993170a3,
        type: 3}
    - time: 0.17999999
      value: {fileID: -4683774308122162726, guid: be709c1101423934b86a5a85993170a3,
        type: 3}
    - time: 0.21
      value: {fileID: -4008547585122473720, guid: be709c1101423934b86a5a85993170a3,
        type: 3}
    - time: 0.24
      value: {fileID: -4248768551635426765, guid: be709c1101423934b86a5a85993170a3,
        type: 3}
    - time: 0.26999998
      value: {fileID: 8822600807889623747, guid: be709c1101423934b86a5a85993170a3,
        type: 3}
    - time: 0.29999998
      value: {fileID: -8156205526820718883, guid: be709c1101423934b86a5a85993170a3,
        type: 3}
    - time: 0.32999998
      value: {fileID: 3760432111565230384, guid: be709c1101423934b86a5a85993170a3,
        type: 3}
    - time: 0.35999998
      value: {fileID: 5204161260298521205, guid: be709c1101423934b86a5a85993170a3,
        type: 3}
    - time: 0.39
      value: {fileID: -40972770618409599, guid: be709c1101423934b86a5a85993170a3,
        type: 3}
    - time: 0.42
      value: {fileID: 7430294466206236372, guid: be709c1101423934b86a5a85993170a3,
        type: 3}
    - time: 0.45
      value: {fileID: 121033016640911932, guid: be709c1101423934b86a5a85993170a3,
        type: 3}
    - time: 0.48
      value: {fileID: -5228217909321664974, guid: be709c1101423934b86a5a85993170a3,
        type: 3}
    - time: 0.51
      value: {fileID: 2560458655411684010, guid: be709c1101423934b86a5a85993170a3,
        type: 3}
    - time: 0.53999996
      value: {fileID: -4412130327050081817, guid: be709c1101423934b86a5a85993170a3,
        type: 3}
    - time: 0.56999993
      value: {fileID: -5321567050840421884, guid: be709c1101423934b86a5a85993170a3,
        type: 3}
    - time: 0.5999999
      value: {fileID: 4011941149568299179, guid: be709c1101423934b86a5a85993170a3,
        type: 3}
    - time: 1.5999999
      value: {fileID: -5321567050840421884, guid: be709c1101423934b86a5a85993170a3,
        type: 3}
    attribute: m_Sprite
    path: Visual/VFX_Render
    classID: 212
    script: {fileID: 0}
  m_SampleRate: 60
  m_WrapMode: 0
  m_Bounds:
    m_Center: {x: 0, y: 0, z: 0}
    m_Extent: {x: 0, y: 0, z: 0}
  m_ClipBindingConstant:
    genericBindings:
    - serializedVersion: 2
      path: 984403339
      attribute: 0
      script: {fileID: 0}
      typeID: 212
      customType: 23
      isPPtrCurve: 1
    pptrCurveMapping:
    - {fileID: -8508599984469734650, guid: be709c1101423934b86a5a85993170a3, type: 3}
    - {fileID: 610782055065076437, guid: be709c1101423934b86a5a85993170a3, type: 3}
    - {fileID: 8199590870366585303, guid: be709c1101423934b86a5a85993170a3, type: 3}
    - {fileID: -601822870846713600, guid: be709c1101423934b86a5a85993170a3, type: 3}
    - {fileID: -7204563178977358074, guid: be709c1101423934b86a5a85993170a3, type: 3}
    - {fileID: -9134693530466762397, guid: be709c1101423934b86a5a85993170a3, type: 3}
    - {fileID: -4683774308122162726, guid: be709c1101423934b86a5a85993170a3, type: 3}
    - {fileID: -4008547585122473720, guid: be709c1101423934b86a5a85993170a3, type: 3}
    - {fileID: -4248768551635426765, guid: be709c1101423934b86a5a85993170a3, type: 3}
    - {fileID: 8822600807889623747, guid: be709c1101423934b86a5a85993170a3, type: 3}
    - {fileID: -8156205526820718883, guid: be709c1101423934b86a5a85993170a3, type: 3}
    - {fileID: 3760432111565230384, guid: be709c1101423934b86a5a85993170a3, type: 3}
    - {fileID: 5204161260298521205, guid: be709c1101423934b86a5a85993170a3, type: 3}
    - {fileID: -40972770618409599, guid: be709c1101423934b86a5a85993170a3, type: 3}
    - {fileID: 7430294466206236372, guid: be709c1101423934b86a5a85993170a3, type: 3}
    - {fileID: 121033016640911932, guid: be709c1101423934b86a5a85993170a3, type: 3}
    - {fileID: -5228217909321664974, guid: be709c1101423934b86a5a85993170a3, type: 3}
    - {fileID: 2560458655411684010, guid: be709c1101423934b86a5a85993170a3, type: 3}
    - {fileID: -4412130327050081817, guid: be709c1101423934b86a5a85993170a3, type: 3}
    - {fileID: -5321567050840421884, guid: be709c1101423934b86a5a85993170a3, type: 3}
    - {fileID: 4011941149568299179, guid: be709c1101423934b86a5a85993170a3, type: 3}
    - {fileID: -5321567050840421884, guid: be709c1101423934b86a5a85993170a3, type: 3}
  m_AnimationClipSettings:
    serializedVersion: 2
    m_AdditiveReferencePoseClip: {fileID: 0}
    m_AdditiveReferencePoseTime: 0
    m_StartTime: 0
    m_StopTime: 1.6166666
    m_OrientationOffsetY: 0
    m_Level: 0
    m_CycleOffset: 0
    m_HasAdditiveReferencePose: 0
    m_LoopTime: 0
    m_LoopBlend: 0
    m_LoopBlendOrientation: 0
    m_LoopBlendPositionY: 0
    m_LoopBlendPositionXZ: 0
    m_KeepOriginalOrientation: 0
    m_KeepOriginalPositionY: 1
    m_KeepOriginalPositionXZ: 0
    m_HeightFromFeet: 0
    m_Mirror: 0
  m_EditorCurves: []
  m_EulerEditorCurves: []
  m_HasGenericRootTransform: 0
  m_HasMotionFloatCurves: 0
  m_Events: []
