%YAML 1.1
%TAG !u! tag:unity3d.com,2011:
--- !u!78 &1
TagManager:
  serializedVersion: 2
  tags:
  - Kunai
  - Stage
  layers:
  - Default
  - TransparentFX
  - Ignore Raycast
  - 
  - Water
  - UI
  - 
  - 
  - Terrain
  - Player
  - Enemy
  - AttackCollider
  - OneWayTerrain
  - Obstacle
  - Proyectile
  - Hook
  - LevelProp
  - 
  - 
  - 
  - 
  - 
  - 
  - 
  - 
  - 
  - 
  - 
  - 
  - 
  - 
  - 
  m_SortingLayers:
  - name: BG
    uniqueID: 725981833
    locked: 0
  - name: Back
    uniqueID: 262793541
    locked: 0
  - name: Default
    uniqueID: 0
    locked: 0
  - name: Front
    uniqueID: 1845965353
    locked: 0
  - name: FG
    uniqueID: 3512337175
    locked: 0
  - name: UI
    uniqueID: 3827378919
    locked: 0
