{ "frames": [
   {
    "filename": "Killing First Samurai 0.aseprite",
    "frame": { "x": 0, "y": 0, "w": 160, "h": 64 },
    "rotated": false,
    "trimmed": false,
    "spriteSourceSize": { "x": 0, "y": 0, "w": 160, "h": 64 },
    "sourceSize": { "w": 160, "h": 64 },
    "duration": 40
   },
   {
    "filename": "Killing First Samurai 1.aseprite",
    "frame": { "x": 160, "y": 0, "w": 160, "h": 64 },
    "rotated": false,
    "trimmed": false,
    "spriteSourceSize": { "x": 0, "y": 0, "w": 160, "h": 64 },
    "sourceSize": { "w": 160, "h": 64 },
    "duration": 40
   },
   {
    "filename": "Killing First Samurai 2.aseprite",
    "frame": { "x": 320, "y": 0, "w": 160, "h": 64 },
    "rotated": false,
    "trimmed": false,
    "spriteSourceSize": { "x": 0, "y": 0, "w": 160, "h": 64 },
    "sourceSize": { "w": 160, "h": 64 },
    "duration": 120
   },
   {
    "filename": "Killing First Samurai 3.aseprite",
    "frame": { "x": 480, "y": 0, "w": 160, "h": 64 },
    "rotated": false,
    "trimmed": false,
    "spriteSourceSize": { "x": 0, "y": 0, "w": 160, "h": 64 },
    "sourceSize": { "w": 160, "h": 64 },
    "duration": 160
   },
   {
    "filename": "Killing First Samurai 4.aseprite",
    "frame": { "x": 640, "y": 0, "w": 160, "h": 64 },
    "rotated": false,
    "trimmed": false,
    "spriteSourceSize": { "x": 0, "y": 0, "w": 160, "h": 64 },
    "sourceSize": { "w": 160, "h": 64 },
    "duration": 40
   },
   {
    "filename": "Killing First Samurai 5.aseprite",
    "frame": { "x": 800, "y": 0, "w": 160, "h": 64 },
    "rotated": false,
    "trimmed": false,
    "spriteSourceSize": { "x": 0, "y": 0, "w": 160, "h": 64 },
    "sourceSize": { "w": 160, "h": 64 },
    "duration": 40
   },
   {
    "filename": "Killing First Samurai 6.aseprite",
    "frame": { "x": 960, "y": 0, "w": 160, "h": 64 },
    "rotated": false,
    "trimmed": false,
    "spriteSourceSize": { "x": 0, "y": 0, "w": 160, "h": 64 },
    "sourceSize": { "w": 160, "h": 64 },
    "duration": 40
   },
   {
    "filename": "Killing First Samurai 7.aseprite",
    "frame": { "x": 1120, "y": 0, "w": 160, "h": 64 },
    "rotated": false,
    "trimmed": false,
    "spriteSourceSize": { "x": 0, "y": 0, "w": 160, "h": 64 },
    "sourceSize": { "w": 160, "h": 64 },
    "duration": 40
   },
   {
    "filename": "Killing First Samurai 8.aseprite",
    "frame": { "x": 1280, "y": 0, "w": 160, "h": 64 },
    "rotated": false,
    "trimmed": false,
    "spriteSourceSize": { "x": 0, "y": 0, "w": 160, "h": 64 },
    "sourceSize": { "w": 160, "h": 64 },
    "duration": 60
   },
   {
    "filename": "Killing First Samurai 9.aseprite",
    "frame": { "x": 1440, "y": 0, "w": 160, "h": 64 },
    "rotated": false,
    "trimmed": false,
    "spriteSourceSize": { "x": 0, "y": 0, "w": 160, "h": 64 },
    "sourceSize": { "w": 160, "h": 64 },
    "duration": 60
   },
   {
    "filename": "Killing First Samurai 10.aseprite",
    "frame": { "x": 1600, "y": 0, "w": 160, "h": 64 },
    "rotated": false,
    "trimmed": false,
    "spriteSourceSize": { "x": 0, "y": 0, "w": 160, "h": 64 },
    "sourceSize": { "w": 160, "h": 64 },
    "duration": 60
   },
   {
    "filename": "Killing First Samurai 11.aseprite",
    "frame": { "x": 0, "y": 64, "w": 160, "h": 64 },
    "rotated": false,
    "trimmed": false,
    "spriteSourceSize": { "x": 0, "y": 0, "w": 160, "h": 64 },
    "sourceSize": { "w": 160, "h": 64 },
    "duration": 60
   },
   {
    "filename": "Killing First Samurai 12.aseprite",
    "frame": { "x": 160, "y": 64, "w": 160, "h": 64 },
    "rotated": false,
    "trimmed": false,
    "spriteSourceSize": { "x": 0, "y": 0, "w": 160, "h": 64 },
    "sourceSize": { "w": 160, "h": 64 },
    "duration": 60
   },
   {
    "filename": "Killing First Samurai 13.aseprite",
    "frame": { "x": 320, "y": 64, "w": 160, "h": 64 },
    "rotated": false,
    "trimmed": false,
    "spriteSourceSize": { "x": 0, "y": 0, "w": 160, "h": 64 },
    "sourceSize": { "w": 160, "h": 64 },
    "duration": 60
   },
   {
    "filename": "Killing First Samurai 14.aseprite",
    "frame": { "x": 480, "y": 64, "w": 160, "h": 64 },
    "rotated": false,
    "trimmed": false,
    "spriteSourceSize": { "x": 0, "y": 0, "w": 160, "h": 64 },
    "sourceSize": { "w": 160, "h": 64 },
    "duration": 60
   },
   {
    "filename": "Killing First Samurai 15.aseprite",
    "frame": { "x": 640, "y": 64, "w": 160, "h": 64 },
    "rotated": false,
    "trimmed": false,
    "spriteSourceSize": { "x": 0, "y": 0, "w": 160, "h": 64 },
    "sourceSize": { "w": 160, "h": 64 },
    "duration": 60
   },
   {
    "filename": "Killing First Samurai 16.aseprite",
    "frame": { "x": 800, "y": 64, "w": 160, "h": 64 },
    "rotated": false,
    "trimmed": false,
    "spriteSourceSize": { "x": 0, "y": 0, "w": 160, "h": 64 },
    "sourceSize": { "w": 160, "h": 64 },
    "duration": 60
   },
   {
    "filename": "Killing First Samurai 17.aseprite",
    "frame": { "x": 960, "y": 64, "w": 160, "h": 64 },
    "rotated": false,
    "trimmed": false,
    "spriteSourceSize": { "x": 0, "y": 0, "w": 160, "h": 64 },
    "sourceSize": { "w": 160, "h": 64 },
    "duration": 60
   },
   {
    "filename": "Killing First Samurai 18.aseprite",
    "frame": { "x": 1120, "y": 64, "w": 160, "h": 64 },
    "rotated": false,
    "trimmed": false,
    "spriteSourceSize": { "x": 0, "y": 0, "w": 160, "h": 64 },
    "sourceSize": { "w": 160, "h": 64 },
    "duration": 60
   },
   {
    "filename": "Killing First Samurai 19.aseprite",
    "frame": { "x": 1280, "y": 64, "w": 160, "h": 64 },
    "rotated": false,
    "trimmed": false,
    "spriteSourceSize": { "x": 0, "y": 0, "w": 160, "h": 64 },
    "sourceSize": { "w": 160, "h": 64 },
    "duration": 60
   },
   {
    "filename": "Killing First Samurai 20.aseprite",
    "frame": { "x": 1440, "y": 64, "w": 160, "h": 64 },
    "rotated": false,
    "trimmed": false,
    "spriteSourceSize": { "x": 0, "y": 0, "w": 160, "h": 64 },
    "sourceSize": { "w": 160, "h": 64 },
    "duration": 60
   },
   {
    "filename": "Killing First Samurai 21.aseprite",
    "frame": { "x": 1600, "y": 64, "w": 160, "h": 64 },
    "rotated": false,
    "trimmed": false,
    "spriteSourceSize": { "x": 0, "y": 0, "w": 160, "h": 64 },
    "sourceSize": { "w": 160, "h": 64 },
    "duration": 60
   },
   {
    "filename": "Killing First Samurai 22.aseprite",
    "frame": { "x": 0, "y": 128, "w": 160, "h": 64 },
    "rotated": false,
    "trimmed": false,
    "spriteSourceSize": { "x": 0, "y": 0, "w": 160, "h": 64 },
    "sourceSize": { "w": 160, "h": 64 },
    "duration": 60
   },
   {
    "filename": "Killing First Samurai 23.aseprite",
    "frame": { "x": 160, "y": 128, "w": 160, "h": 64 },
    "rotated": false,
    "trimmed": false,
    "spriteSourceSize": { "x": 0, "y": 0, "w": 160, "h": 64 },
    "sourceSize": { "w": 160, "h": 64 },
    "duration": 60
   },
   {
    "filename": "Killing First Samurai 24.aseprite",
    "frame": { "x": 320, "y": 128, "w": 160, "h": 64 },
    "rotated": false,
    "trimmed": false,
    "spriteSourceSize": { "x": 0, "y": 0, "w": 160, "h": 64 },
    "sourceSize": { "w": 160, "h": 64 },
    "duration": 40
   },
   {
    "filename": "Killing First Samurai 25.aseprite",
    "frame": { "x": 480, "y": 128, "w": 160, "h": 64 },
    "rotated": false,
    "trimmed": false,
    "spriteSourceSize": { "x": 0, "y": 0, "w": 160, "h": 64 },
    "sourceSize": { "w": 160, "h": 64 },
    "duration": 60
   },
   {
    "filename": "Killing First Samurai 26.aseprite",
    "frame": { "x": 640, "y": 128, "w": 160, "h": 64 },
    "rotated": false,
    "trimmed": false,
    "spriteSourceSize": { "x": 0, "y": 0, "w": 160, "h": 64 },
    "sourceSize": { "w": 160, "h": 64 },
    "duration": 60
   },
   {
    "filename": "Killing First Samurai 27.aseprite",
    "frame": { "x": 800, "y": 128, "w": 160, "h": 64 },
    "rotated": false,
    "trimmed": false,
    "spriteSourceSize": { "x": 0, "y": 0, "w": 160, "h": 64 },
    "sourceSize": { "w": 160, "h": 64 },
    "duration": 60
   },
   {
    "filename": "Killing First Samurai 28.aseprite",
    "frame": { "x": 960, "y": 128, "w": 160, "h": 64 },
    "rotated": false,
    "trimmed": false,
    "spriteSourceSize": { "x": 0, "y": 0, "w": 160, "h": 64 },
    "sourceSize": { "w": 160, "h": 64 },
    "duration": 60
   },
   {
    "filename": "Killing First Samurai 29.aseprite",
    "frame": { "x": 1120, "y": 128, "w": 160, "h": 64 },
    "rotated": false,
    "trimmed": false,
    "spriteSourceSize": { "x": 0, "y": 0, "w": 160, "h": 64 },
    "sourceSize": { "w": 160, "h": 64 },
    "duration": 60
   },
   {
    "filename": "Killing First Samurai 30.aseprite",
    "frame": { "x": 1280, "y": 128, "w": 160, "h": 64 },
    "rotated": false,
    "trimmed": false,
    "spriteSourceSize": { "x": 0, "y": 0, "w": 160, "h": 64 },
    "sourceSize": { "w": 160, "h": 64 },
    "duration": 60
   },
   {
    "filename": "Killing First Samurai 31.aseprite",
    "frame": { "x": 1440, "y": 128, "w": 160, "h": 64 },
    "rotated": false,
    "trimmed": false,
    "spriteSourceSize": { "x": 0, "y": 0, "w": 160, "h": 64 },
    "sourceSize": { "w": 160, "h": 64 },
    "duration": 60
   },
   {
    "filename": "Killing First Samurai 32.aseprite",
    "frame": { "x": 1600, "y": 128, "w": 160, "h": 64 },
    "rotated": false,
    "trimmed": false,
    "spriteSourceSize": { "x": 0, "y": 0, "w": 160, "h": 64 },
    "sourceSize": { "w": 160, "h": 64 },
    "duration": 60
   },
   {
    "filename": "Killing First Samurai 33.aseprite",
    "frame": { "x": 0, "y": 192, "w": 160, "h": 64 },
    "rotated": false,
    "trimmed": false,
    "spriteSourceSize": { "x": 0, "y": 0, "w": 160, "h": 64 },
    "sourceSize": { "w": 160, "h": 64 },
    "duration": 60
   },
   {
    "filename": "Killing First Samurai 34.aseprite",
    "frame": { "x": 160, "y": 192, "w": 160, "h": 64 },
    "rotated": false,
    "trimmed": false,
    "spriteSourceSize": { "x": 0, "y": 0, "w": 160, "h": 64 },
    "sourceSize": { "w": 160, "h": 64 },
    "duration": 60
   },
   {
    "filename": "Killing First Samurai 35.aseprite",
    "frame": { "x": 320, "y": 192, "w": 160, "h": 64 },
    "rotated": false,
    "trimmed": false,
    "spriteSourceSize": { "x": 0, "y": 0, "w": 160, "h": 64 },
    "sourceSize": { "w": 160, "h": 64 },
    "duration": 60
   },
   {
    "filename": "Killing First Samurai 36.aseprite",
    "frame": { "x": 480, "y": 192, "w": 160, "h": 64 },
    "rotated": false,
    "trimmed": false,
    "spriteSourceSize": { "x": 0, "y": 0, "w": 160, "h": 64 },
    "sourceSize": { "w": 160, "h": 64 },
    "duration": 60
   },
   {
    "filename": "Killing First Samurai 37.aseprite",
    "frame": { "x": 640, "y": 192, "w": 160, "h": 64 },
    "rotated": false,
    "trimmed": false,
    "spriteSourceSize": { "x": 0, "y": 0, "w": 160, "h": 64 },
    "sourceSize": { "w": 160, "h": 64 },
    "duration": 60
   },
   {
    "filename": "Killing First Samurai 38.aseprite",
    "frame": { "x": 800, "y": 192, "w": 160, "h": 64 },
    "rotated": false,
    "trimmed": false,
    "spriteSourceSize": { "x": 0, "y": 0, "w": 160, "h": 64 },
    "sourceSize": { "w": 160, "h": 64 },
    "duration": 60
   },
   {
    "filename": "Killing First Samurai 39.aseprite",
    "frame": { "x": 960, "y": 192, "w": 160, "h": 64 },
    "rotated": false,
    "trimmed": false,
    "spriteSourceSize": { "x": 0, "y": 0, "w": 160, "h": 64 },
    "sourceSize": { "w": 160, "h": 64 },
    "duration": 60
   },
   {
    "filename": "Killing First Samurai 40.aseprite",
    "frame": { "x": 1120, "y": 192, "w": 160, "h": 64 },
    "rotated": false,
    "trimmed": false,
    "spriteSourceSize": { "x": 0, "y": 0, "w": 160, "h": 64 },
    "sourceSize": { "w": 160, "h": 64 },
    "duration": 60
   },
   {
    "filename": "Killing First Samurai 41.aseprite",
    "frame": { "x": 1280, "y": 192, "w": 160, "h": 64 },
    "rotated": false,
    "trimmed": false,
    "spriteSourceSize": { "x": 0, "y": 0, "w": 160, "h": 64 },
    "sourceSize": { "w": 160, "h": 64 },
    "duration": 60
   },
   {
    "filename": "Killing First Samurai 42.aseprite",
    "frame": { "x": 1440, "y": 192, "w": 160, "h": 64 },
    "rotated": false,
    "trimmed": false,
    "spriteSourceSize": { "x": 0, "y": 0, "w": 160, "h": 64 },
    "sourceSize": { "w": 160, "h": 64 },
    "duration": 60
   },
   {
    "filename": "Killing First Samurai 43.aseprite",
    "frame": { "x": 1600, "y": 192, "w": 160, "h": 64 },
    "rotated": false,
    "trimmed": false,
    "spriteSourceSize": { "x": 0, "y": 0, "w": 160, "h": 64 },
    "sourceSize": { "w": 160, "h": 64 },
    "duration": 60
   },
   {
    "filename": "Killing First Samurai 44.aseprite",
    "frame": { "x": 0, "y": 256, "w": 160, "h": 64 },
    "rotated": false,
    "trimmed": false,
    "spriteSourceSize": { "x": 0, "y": 0, "w": 160, "h": 64 },
    "sourceSize": { "w": 160, "h": 64 },
    "duration": 60
   },
   {
    "filename": "Killing First Samurai 45.aseprite",
    "frame": { "x": 160, "y": 256, "w": 160, "h": 64 },
    "rotated": false,
    "trimmed": false,
    "spriteSourceSize": { "x": 0, "y": 0, "w": 160, "h": 64 },
    "sourceSize": { "w": 160, "h": 64 },
    "duration": 60
   },
   {
    "filename": "Killing First Samurai 46.aseprite",
    "frame": { "x": 320, "y": 256, "w": 160, "h": 64 },
    "rotated": false,
    "trimmed": false,
    "spriteSourceSize": { "x": 0, "y": 0, "w": 160, "h": 64 },
    "sourceSize": { "w": 160, "h": 64 },
    "duration": 60
   },
   {
    "filename": "Killing First Samurai 47.aseprite",
    "frame": { "x": 480, "y": 256, "w": 160, "h": 64 },
    "rotated": false,
    "trimmed": false,
    "spriteSourceSize": { "x": 0, "y": 0, "w": 160, "h": 64 },
    "sourceSize": { "w": 160, "h": 64 },
    "duration": 60
   },
   {
    "filename": "Killing First Samurai 48.aseprite",
    "frame": { "x": 640, "y": 256, "w": 160, "h": 64 },
    "rotated": false,
    "trimmed": false,
    "spriteSourceSize": { "x": 0, "y": 0, "w": 160, "h": 64 },
    "sourceSize": { "w": 160, "h": 64 },
    "duration": 60
   },
   {
    "filename": "Killing First Samurai 49.aseprite",
    "frame": { "x": 800, "y": 256, "w": 160, "h": 64 },
    "rotated": false,
    "trimmed": false,
    "spriteSourceSize": { "x": 0, "y": 0, "w": 160, "h": 64 },
    "sourceSize": { "w": 160, "h": 64 },
    "duration": 60
   },
   {
    "filename": "Killing First Samurai 50.aseprite",
    "frame": { "x": 960, "y": 256, "w": 160, "h": 64 },
    "rotated": false,
    "trimmed": false,
    "spriteSourceSize": { "x": 0, "y": 0, "w": 160, "h": 64 },
    "sourceSize": { "w": 160, "h": 64 },
    "duration": 60
   },
   {
    "filename": "Killing First Samurai 51.aseprite",
    "frame": { "x": 1120, "y": 256, "w": 160, "h": 64 },
    "rotated": false,
    "trimmed": false,
    "spriteSourceSize": { "x": 0, "y": 0, "w": 160, "h": 64 },
    "sourceSize": { "w": 160, "h": 64 },
    "duration": 60
   },
   {
    "filename": "Killing First Samurai 52.aseprite",
    "frame": { "x": 1280, "y": 256, "w": 160, "h": 64 },
    "rotated": false,
    "trimmed": false,
    "spriteSourceSize": { "x": 0, "y": 0, "w": 160, "h": 64 },
    "sourceSize": { "w": 160, "h": 64 },
    "duration": 60
   },
   {
    "filename": "Killing First Samurai 53.aseprite",
    "frame": { "x": 1440, "y": 256, "w": 160, "h": 64 },
    "rotated": false,
    "trimmed": false,
    "spriteSourceSize": { "x": 0, "y": 0, "w": 160, "h": 64 },
    "sourceSize": { "w": 160, "h": 64 },
    "duration": 60
   },
   {
    "filename": "Killing First Samurai 54.aseprite",
    "frame": { "x": 1600, "y": 256, "w": 160, "h": 64 },
    "rotated": false,
    "trimmed": false,
    "spriteSourceSize": { "x": 0, "y": 0, "w": 160, "h": 64 },
    "sourceSize": { "w": 160, "h": 64 },
    "duration": 60
   },
   {
    "filename": "Killing First Samurai 55.aseprite",
    "frame": { "x": 0, "y": 320, "w": 160, "h": 64 },
    "rotated": false,
    "trimmed": false,
    "spriteSourceSize": { "x": 0, "y": 0, "w": 160, "h": 64 },
    "sourceSize": { "w": 160, "h": 64 },
    "duration": 60
   },
   {
    "filename": "Killing First Samurai 56.aseprite",
    "frame": { "x": 160, "y": 320, "w": 160, "h": 64 },
    "rotated": false,
    "trimmed": false,
    "spriteSourceSize": { "x": 0, "y": 0, "w": 160, "h": 64 },
    "sourceSize": { "w": 160, "h": 64 },
    "duration": 160
   },
   {
    "filename": "Killing First Samurai 57.aseprite",
    "frame": { "x": 320, "y": 320, "w": 160, "h": 64 },
    "rotated": false,
    "trimmed": false,
    "spriteSourceSize": { "x": 0, "y": 0, "w": 160, "h": 64 },
    "sourceSize": { "w": 160, "h": 64 },
    "duration": 300
   },
   {
    "filename": "Killing First Samurai 58.aseprite",
    "frame": { "x": 480, "y": 320, "w": 160, "h": 64 },
    "rotated": false,
    "trimmed": false,
    "spriteSourceSize": { "x": 0, "y": 0, "w": 160, "h": 64 },
    "sourceSize": { "w": 160, "h": 64 },
    "duration": 160
   },
   {
    "filename": "Killing First Samurai 59.aseprite",
    "frame": { "x": 640, "y": 320, "w": 160, "h": 64 },
    "rotated": false,
    "trimmed": false,
    "spriteSourceSize": { "x": 0, "y": 0, "w": 160, "h": 64 },
    "sourceSize": { "w": 160, "h": 64 },
    "duration": 160
   },
   {
    "filename": "Killing First Samurai 60.aseprite",
    "frame": { "x": 640, "y": 320, "w": 160, "h": 64 },
    "rotated": false,
    "trimmed": false,
    "spriteSourceSize": { "x": 0, "y": 0, "w": 160, "h": 64 },
    "sourceSize": { "w": 160, "h": 64 },
    "duration": 300
   },
   {
    "filename": "Killing First Samurai 61.aseprite",
    "frame": { "x": 640, "y": 320, "w": 160, "h": 64 },
    "rotated": false,
    "trimmed": false,
    "spriteSourceSize": { "x": 0, "y": 0, "w": 160, "h": 64 },
    "sourceSize": { "w": 160, "h": 64 },
    "duration": 50
   },
   {
    "filename": "Killing First Samurai 62.aseprite",
    "frame": { "x": 800, "y": 320, "w": 160, "h": 64 },
    "rotated": false,
    "trimmed": false,
    "spriteSourceSize": { "x": 0, "y": 0, "w": 160, "h": 64 },
    "sourceSize": { "w": 160, "h": 64 },
    "duration": 50
   },
   {
    "filename": "Killing First Samurai 63.aseprite",
    "frame": { "x": 960, "y": 320, "w": 160, "h": 64 },
    "rotated": false,
    "trimmed": false,
    "spriteSourceSize": { "x": 0, "y": 0, "w": 160, "h": 64 },
    "sourceSize": { "w": 160, "h": 64 },
    "duration": 50
   },
   {
    "filename": "Killing First Samurai 64.aseprite",
    "frame": { "x": 1120, "y": 320, "w": 160, "h": 64 },
    "rotated": false,
    "trimmed": false,
    "spriteSourceSize": { "x": 0, "y": 0, "w": 160, "h": 64 },
    "sourceSize": { "w": 160, "h": 64 },
    "duration": 50
   },
   {
    "filename": "Killing First Samurai 65.aseprite",
    "frame": { "x": 1280, "y": 320, "w": 160, "h": 64 },
    "rotated": false,
    "trimmed": false,
    "spriteSourceSize": { "x": 0, "y": 0, "w": 160, "h": 64 },
    "sourceSize": { "w": 160, "h": 64 },
    "duration": 100
   },
   {
    "filename": "Killing First Samurai 66.aseprite",
    "frame": { "x": 1440, "y": 320, "w": 160, "h": 64 },
    "rotated": false,
    "trimmed": false,
    "spriteSourceSize": { "x": 0, "y": 0, "w": 160, "h": 64 },
    "sourceSize": { "w": 160, "h": 64 },
    "duration": 80
   },
   {
    "filename": "Killing First Samurai 67.aseprite",
    "frame": { "x": 1600, "y": 320, "w": 160, "h": 64 },
    "rotated": false,
    "trimmed": false,
    "spriteSourceSize": { "x": 0, "y": 0, "w": 160, "h": 64 },
    "sourceSize": { "w": 160, "h": 64 },
    "duration": 80
   },
   {
    "filename": "Killing First Samurai 68.aseprite",
    "frame": { "x": 1440, "y": 320, "w": 160, "h": 64 },
    "rotated": false,
    "trimmed": false,
    "spriteSourceSize": { "x": 0, "y": 0, "w": 160, "h": 64 },
    "sourceSize": { "w": 160, "h": 64 },
    "duration": 80
   },
   {
    "filename": "Killing First Samurai 69.aseprite",
    "frame": { "x": 0, "y": 384, "w": 160, "h": 64 },
    "rotated": false,
    "trimmed": false,
    "spriteSourceSize": { "x": 0, "y": 0, "w": 160, "h": 64 },
    "sourceSize": { "w": 160, "h": 64 },
    "duration": 100
   },
   {
    "filename": "Killing First Samurai 70.aseprite",
    "frame": { "x": 160, "y": 384, "w": 160, "h": 64 },
    "rotated": false,
    "trimmed": false,
    "spriteSourceSize": { "x": 0, "y": 0, "w": 160, "h": 64 },
    "sourceSize": { "w": 160, "h": 64 },
    "duration": 50
   },
   {
    "filename": "Killing First Samurai 71.aseprite",
    "frame": { "x": 320, "y": 384, "w": 160, "h": 64 },
    "rotated": false,
    "trimmed": false,
    "spriteSourceSize": { "x": 0, "y": 0, "w": 160, "h": 64 },
    "sourceSize": { "w": 160, "h": 64 },
    "duration": 50
   },
   {
    "filename": "Killing First Samurai 72.aseprite",
    "frame": { "x": 480, "y": 384, "w": 160, "h": 64 },
    "rotated": false,
    "trimmed": false,
    "spriteSourceSize": { "x": 0, "y": 0, "w": 160, "h": 64 },
    "sourceSize": { "w": 160, "h": 64 },
    "duration": 50
   },
   {
    "filename": "Killing First Samurai 73.aseprite",
    "frame": { "x": 640, "y": 320, "w": 160, "h": 64 },
    "rotated": false,
    "trimmed": false,
    "spriteSourceSize": { "x": 0, "y": 0, "w": 160, "h": 64 },
    "sourceSize": { "w": 160, "h": 64 },
    "duration": 50
   },
   {
    "filename": "Killing First Samurai 74.aseprite",
    "frame": { "x": 640, "y": 384, "w": 160, "h": 64 },
    "rotated": false,
    "trimmed": false,
    "spriteSourceSize": { "x": 0, "y": 0, "w": 160, "h": 64 },
    "sourceSize": { "w": 160, "h": 64 },
    "duration": 50
   },
   {
    "filename": "Killing First Samurai 75.aseprite",
    "frame": { "x": 800, "y": 384, "w": 160, "h": 64 },
    "rotated": false,
    "trimmed": false,
    "spriteSourceSize": { "x": 0, "y": 0, "w": 160, "h": 64 },
    "sourceSize": { "w": 160, "h": 64 },
    "duration": 50
   },
   {
    "filename": "Killing First Samurai 76.aseprite",
    "frame": { "x": 960, "y": 384, "w": 160, "h": 64 },
    "rotated": false,
    "trimmed": false,
    "spriteSourceSize": { "x": 0, "y": 0, "w": 160, "h": 64 },
    "sourceSize": { "w": 160, "h": 64 },
    "duration": 50
   },
   {
    "filename": "Killing First Samurai 77.aseprite",
    "frame": { "x": 1120, "y": 384, "w": 160, "h": 64 },
    "rotated": false,
    "trimmed": false,
    "spriteSourceSize": { "x": 0, "y": 0, "w": 160, "h": 64 },
    "sourceSize": { "w": 160, "h": 64 },
    "duration": 50
   },
   {
    "filename": "Killing First Samurai 78.aseprite",
    "frame": { "x": 1280, "y": 384, "w": 160, "h": 64 },
    "rotated": false,
    "trimmed": false,
    "spriteSourceSize": { "x": 0, "y": 0, "w": 160, "h": 64 },
    "sourceSize": { "w": 160, "h": 64 },
    "duration": 50
   },
   {
    "filename": "Killing First Samurai 79.aseprite",
    "frame": { "x": 1440, "y": 384, "w": 160, "h": 64 },
    "rotated": false,
    "trimmed": false,
    "spriteSourceSize": { "x": 0, "y": 0, "w": 160, "h": 64 },
    "sourceSize": { "w": 160, "h": 64 },
    "duration": 50
   },
   {
    "filename": "Killing First Samurai 80.aseprite",
    "frame": { "x": 1600, "y": 384, "w": 160, "h": 64 },
    "rotated": false,
    "trimmed": false,
    "spriteSourceSize": { "x": 0, "y": 0, "w": 160, "h": 64 },
    "sourceSize": { "w": 160, "h": 64 },
    "duration": 50
   },
   {
    "filename": "Killing First Samurai 81.aseprite",
    "frame": { "x": 0, "y": 448, "w": 160, "h": 64 },
    "rotated": false,
    "trimmed": false,
    "spriteSourceSize": { "x": 0, "y": 0, "w": 160, "h": 64 },
    "sourceSize": { "w": 160, "h": 64 },
    "duration": 50
   },
   {
    "filename": "Killing First Samurai 82.aseprite",
    "frame": { "x": 160, "y": 448, "w": 160, "h": 64 },
    "rotated": false,
    "trimmed": false,
    "spriteSourceSize": { "x": 0, "y": 0, "w": 160, "h": 64 },
    "sourceSize": { "w": 160, "h": 64 },
    "duration": 50
   },
   {
    "filename": "Killing First Samurai 83.aseprite",
    "frame": { "x": 160, "y": 448, "w": 160, "h": 64 },
    "rotated": false,
    "trimmed": false,
    "spriteSourceSize": { "x": 0, "y": 0, "w": 160, "h": 64 },
    "sourceSize": { "w": 160, "h": 64 },
    "duration": 50
   },
   {
    "filename": "Killing First Samurai 84.aseprite",
    "frame": { "x": 320, "y": 448, "w": 160, "h": 64 },
    "rotated": false,
    "trimmed": false,
    "spriteSourceSize": { "x": 0, "y": 0, "w": 160, "h": 64 },
    "sourceSize": { "w": 160, "h": 64 },
    "duration": 50
   },
   {
    "filename": "Killing First Samurai 85.aseprite",
    "frame": { "x": 480, "y": 448, "w": 160, "h": 64 },
    "rotated": false,
    "trimmed": false,
    "spriteSourceSize": { "x": 0, "y": 0, "w": 160, "h": 64 },
    "sourceSize": { "w": 160, "h": 64 },
    "duration": 50
   },
   {
    "filename": "Killing First Samurai 86.aseprite",
    "frame": { "x": 480, "y": 448, "w": 160, "h": 64 },
    "rotated": false,
    "trimmed": false,
    "spriteSourceSize": { "x": 0, "y": 0, "w": 160, "h": 64 },
    "sourceSize": { "w": 160, "h": 64 },
    "duration": 50
   },
   {
    "filename": "Killing First Samurai 87.aseprite",
    "frame": { "x": 640, "y": 448, "w": 160, "h": 64 },
    "rotated": false,
    "trimmed": false,
    "spriteSourceSize": { "x": 0, "y": 0, "w": 160, "h": 64 },
    "sourceSize": { "w": 160, "h": 64 },
    "duration": 50
   },
   {
    "filename": "Killing First Samurai 88.aseprite",
    "frame": { "x": 800, "y": 448, "w": 160, "h": 64 },
    "rotated": false,
    "trimmed": false,
    "spriteSourceSize": { "x": 0, "y": 0, "w": 160, "h": 64 },
    "sourceSize": { "w": 160, "h": 64 },
    "duration": 50
   },
   {
    "filename": "Killing First Samurai 89.aseprite",
    "frame": { "x": 800, "y": 448, "w": 160, "h": 64 },
    "rotated": false,
    "trimmed": false,
    "spriteSourceSize": { "x": 0, "y": 0, "w": 160, "h": 64 },
    "sourceSize": { "w": 160, "h": 64 },
    "duration": 50
   },
   {
    "filename": "Killing First Samurai 90.aseprite",
    "frame": { "x": 960, "y": 448, "w": 160, "h": 64 },
    "rotated": false,
    "trimmed": false,
    "spriteSourceSize": { "x": 0, "y": 0, "w": 160, "h": 64 },
    "sourceSize": { "w": 160, "h": 64 },
    "duration": 50
   },
   {
    "filename": "Killing First Samurai 91.aseprite",
    "frame": { "x": 1120, "y": 448, "w": 160, "h": 64 },
    "rotated": false,
    "trimmed": false,
    "spriteSourceSize": { "x": 0, "y": 0, "w": 160, "h": 64 },
    "sourceSize": { "w": 160, "h": 64 },
    "duration": 50
   },
   {
    "filename": "Killing First Samurai 92.aseprite",
    "frame": { "x": 1280, "y": 448, "w": 160, "h": 64 },
    "rotated": false,
    "trimmed": false,
    "spriteSourceSize": { "x": 0, "y": 0, "w": 160, "h": 64 },
    "sourceSize": { "w": 160, "h": 64 },
    "duration": 80
   },
   {
    "filename": "Killing First Samurai 93.aseprite",
    "frame": { "x": 1440, "y": 448, "w": 160, "h": 64 },
    "rotated": false,
    "trimmed": false,
    "spriteSourceSize": { "x": 0, "y": 0, "w": 160, "h": 64 },
    "sourceSize": { "w": 160, "h": 64 },
    "duration": 50
   },
   {
    "filename": "Killing First Samurai 94.aseprite",
    "frame": { "x": 1600, "y": 448, "w": 160, "h": 64 },
    "rotated": false,
    "trimmed": false,
    "spriteSourceSize": { "x": 0, "y": 0, "w": 160, "h": 64 },
    "sourceSize": { "w": 160, "h": 64 },
    "duration": 50
   },
   {
    "filename": "Killing First Samurai 95.aseprite",
    "frame": { "x": 0, "y": 512, "w": 160, "h": 64 },
    "rotated": false,
    "trimmed": false,
    "spriteSourceSize": { "x": 0, "y": 0, "w": 160, "h": 64 },
    "sourceSize": { "w": 160, "h": 64 },
    "duration": 50
   },
   {
    "filename": "Killing First Samurai 96.aseprite",
    "frame": { "x": 1600, "y": 448, "w": 160, "h": 64 },
    "rotated": false,
    "trimmed": false,
    "spriteSourceSize": { "x": 0, "y": 0, "w": 160, "h": 64 },
    "sourceSize": { "w": 160, "h": 64 },
    "duration": 50
   },
   {
    "filename": "Killing First Samurai 97.aseprite",
    "frame": { "x": 160, "y": 512, "w": 160, "h": 64 },
    "rotated": false,
    "trimmed": false,
    "spriteSourceSize": { "x": 0, "y": 0, "w": 160, "h": 64 },
    "sourceSize": { "w": 160, "h": 64 },
    "duration": 1000
   },
   {
    "filename": "Killing First Samurai 98.aseprite",
    "frame": { "x": 320, "y": 512, "w": 160, "h": 64 },
    "rotated": false,
    "trimmed": false,
    "spriteSourceSize": { "x": 0, "y": 0, "w": 160, "h": 64 },
    "sourceSize": { "w": 160, "h": 64 },
    "duration": 60
   },
   {
    "filename": "Killing First Samurai 99.aseprite",
    "frame": { "x": 480, "y": 512, "w": 160, "h": 64 },
    "rotated": false,
    "trimmed": false,
    "spriteSourceSize": { "x": 0, "y": 0, "w": 160, "h": 64 },
    "sourceSize": { "w": 160, "h": 64 },
    "duration": 60
   },
   {
    "filename": "Killing First Samurai 100.aseprite",
    "frame": { "x": 640, "y": 512, "w": 160, "h": 64 },
    "rotated": false,
    "trimmed": false,
    "spriteSourceSize": { "x": 0, "y": 0, "w": 160, "h": 64 },
    "sourceSize": { "w": 160, "h": 64 },
    "duration": 80
   },
   {
    "filename": "Killing First Samurai 101.aseprite",
    "frame": { "x": 800, "y": 512, "w": 160, "h": 64 },
    "rotated": false,
    "trimmed": false,
    "spriteSourceSize": { "x": 0, "y": 0, "w": 160, "h": 64 },
    "sourceSize": { "w": 160, "h": 64 },
    "duration": 90
   },
   {
    "filename": "Killing First Samurai 102.aseprite",
    "frame": { "x": 960, "y": 512, "w": 160, "h": 64 },
    "rotated": false,
    "trimmed": false,
    "spriteSourceSize": { "x": 0, "y": 0, "w": 160, "h": 64 },
    "sourceSize": { "w": 160, "h": 64 },
    "duration": 60
   },
   {
    "filename": "Killing First Samurai 103.aseprite",
    "frame": { "x": 1120, "y": 512, "w": 160, "h": 64 },
    "rotated": false,
    "trimmed": false,
    "spriteSourceSize": { "x": 0, "y": 0, "w": 160, "h": 64 },
    "sourceSize": { "w": 160, "h": 64 },
    "duration": 60
   },
   {
    "filename": "Killing First Samurai 104.aseprite",
    "frame": { "x": 1280, "y": 512, "w": 160, "h": 64 },
    "rotated": false,
    "trimmed": false,
    "spriteSourceSize": { "x": 0, "y": 0, "w": 160, "h": 64 },
    "sourceSize": { "w": 160, "h": 64 },
    "duration": 80
   },
   {
    "filename": "Killing First Samurai 105.aseprite",
    "frame": { "x": 1440, "y": 512, "w": 160, "h": 64 },
    "rotated": false,
    "trimmed": false,
    "spriteSourceSize": { "x": 0, "y": 0, "w": 160, "h": 64 },
    "sourceSize": { "w": 160, "h": 64 },
    "duration": 60
   },
   {
    "filename": "Killing First Samurai 106.aseprite",
    "frame": { "x": 1440, "y": 512, "w": 160, "h": 64 },
    "rotated": false,
    "trimmed": false,
    "spriteSourceSize": { "x": 0, "y": 0, "w": 160, "h": 64 },
    "sourceSize": { "w": 160, "h": 64 },
    "duration": 100
   },
   {
    "filename": "Killing First Samurai 107.aseprite",
    "frame": { "x": 1440, "y": 512, "w": 160, "h": 64 },
    "rotated": false,
    "trimmed": false,
    "spriteSourceSize": { "x": 0, "y": 0, "w": 160, "h": 64 },
    "sourceSize": { "w": 160, "h": 64 },
    "duration": 100
   },
   {
    "filename": "Killing First Samurai 108.aseprite",
    "frame": { "x": 1600, "y": 512, "w": 160, "h": 64 },
    "rotated": false,
    "trimmed": false,
    "spriteSourceSize": { "x": 0, "y": 0, "w": 160, "h": 64 },
    "sourceSize": { "w": 160, "h": 64 },
    "duration": 100
   },
   {
    "filename": "Killing First Samurai 109.aseprite",
    "frame": { "x": 0, "y": 576, "w": 160, "h": 64 },
    "rotated": false,
    "trimmed": false,
    "spriteSourceSize": { "x": 0, "y": 0, "w": 160, "h": 64 },
    "sourceSize": { "w": 160, "h": 64 },
    "duration": 100
   },
   {
    "filename": "Killing First Samurai 110.aseprite",
    "frame": { "x": 160, "y": 576, "w": 160, "h": 64 },
    "rotated": false,
    "trimmed": false,
    "spriteSourceSize": { "x": 0, "y": 0, "w": 160, "h": 64 },
    "sourceSize": { "w": 160, "h": 64 },
    "duration": 100
   },
   {
    "filename": "Killing First Samurai 111.aseprite",
    "frame": { "x": 320, "y": 576, "w": 160, "h": 64 },
    "rotated": false,
    "trimmed": false,
    "spriteSourceSize": { "x": 0, "y": 0, "w": 160, "h": 64 },
    "sourceSize": { "w": 160, "h": 64 },
    "duration": 100
   },
   {
    "filename": "Killing First Samurai 112.aseprite",
    "frame": { "x": 480, "y": 576, "w": 160, "h": 64 },
    "rotated": false,
    "trimmed": false,
    "spriteSourceSize": { "x": 0, "y": 0, "w": 160, "h": 64 },
    "sourceSize": { "w": 160, "h": 64 },
    "duration": 100
   },
   {
    "filename": "Killing First Samurai 113.aseprite",
    "frame": { "x": 640, "y": 576, "w": 160, "h": 64 },
    "rotated": false,
    "trimmed": false,
    "spriteSourceSize": { "x": 0, "y": 0, "w": 160, "h": 64 },
    "sourceSize": { "w": 160, "h": 64 },
    "duration": 100
   },
   {
    "filename": "Killing First Samurai 114.aseprite",
    "frame": { "x": 800, "y": 576, "w": 160, "h": 64 },
    "rotated": false,
    "trimmed": false,
    "spriteSourceSize": { "x": 0, "y": 0, "w": 160, "h": 64 },
    "sourceSize": { "w": 160, "h": 64 },
    "duration": 100
   },
   {
    "filename": "Killing First Samurai 115.aseprite",
    "frame": { "x": 960, "y": 576, "w": 160, "h": 64 },
    "rotated": false,
    "trimmed": false,
    "spriteSourceSize": { "x": 0, "y": 0, "w": 160, "h": 64 },
    "sourceSize": { "w": 160, "h": 64 },
    "duration": 100
   },
   {
    "filename": "Killing First Samurai 116.aseprite",
    "frame": { "x": 1120, "y": 576, "w": 160, "h": 64 },
    "rotated": false,
    "trimmed": false,
    "spriteSourceSize": { "x": 0, "y": 0, "w": 160, "h": 64 },
    "sourceSize": { "w": 160, "h": 64 },
    "duration": 100
   },
   {
    "filename": "Killing First Samurai 117.aseprite",
    "frame": { "x": 1280, "y": 576, "w": 160, "h": 64 },
    "rotated": false,
    "trimmed": false,
    "spriteSourceSize": { "x": 0, "y": 0, "w": 160, "h": 64 },
    "sourceSize": { "w": 160, "h": 64 },
    "duration": 100
   },
   {
    "filename": "Killing First Samurai 118.aseprite",
    "frame": { "x": 1440, "y": 576, "w": 160, "h": 64 },
    "rotated": false,
    "trimmed": false,
    "spriteSourceSize": { "x": 0, "y": 0, "w": 160, "h": 64 },
    "sourceSize": { "w": 160, "h": 64 },
    "duration": 100
   },
   {
    "filename": "Killing First Samurai 119.aseprite",
    "frame": { "x": 1440, "y": 576, "w": 160, "h": 64 },
    "rotated": false,
    "trimmed": false,
    "spriteSourceSize": { "x": 0, "y": 0, "w": 160, "h": 64 },
    "sourceSize": { "w": 160, "h": 64 },
    "duration": 2000
   },
   {
    "filename": "Killing First Samurai 120.aseprite",
    "frame": { "x": 1600, "y": 576, "w": 160, "h": 64 },
    "rotated": false,
    "trimmed": false,
    "spriteSourceSize": { "x": 0, "y": 0, "w": 160, "h": 64 },
    "sourceSize": { "w": 160, "h": 64 },
    "duration": 2000
   },
   {
    "filename": "Killing First Samurai 121.aseprite",
    "frame": { "x": 1600, "y": 576, "w": 160, "h": 64 },
    "rotated": false,
    "trimmed": false,
    "spriteSourceSize": { "x": 0, "y": 0, "w": 160, "h": 64 },
    "sourceSize": { "w": 160, "h": 64 },
    "duration": 2000
   }
 ],
 "meta": {
  "app": "http://www.aseprite.org/",
  "version": "1.2.17-x64",
  "image": "Cinematic_FirstSamuraiKill.png",
  "format": "RGBA8888",
  "size": { "w": 1760, "h": 640 },
  "scale": "1",
  "frameTags": [
   { "name": "Cinematic_0", "from": 0, "to": 121, "direction": "forward" }
  ]
 }
}
