%YAML 1.1
%TAG !u! tag:unity3d.com,2011:
--- !u!74 &7400000
AnimationClip:
  m_ObjectHideFlags: 0
  m_CorrespondingSourceObject: {fileID: 0}
  m_PrefabInstance: {fileID: 0}
  m_PrefabAsset: {fileID: 0}
  m_Name: Clip_Samurai-Recover_CloseAttack
  serializedVersion: 6
  m_Legacy: 0
  m_Compressed: 0
  m_UseHighQualityCurve: 1
  m_RotationCurves: []
  m_CompressedRotationCurves: []
  m_EulerCurves: []
  m_PositionCurves: []
  m_ScaleCurves: []
  m_FloatCurves: []
  m_PPtrCurves:
  - curve:
    - time: 0
      value: {fileID: 7200107209219819847, guid: a694429b8a0053a46963b386fb814c58,
        type: 3}
    - time: 0.04
      value: {fileID: -7612466223067057920, guid: a694429b8a0053a46963b386fb814c58,
        type: 3}
    - time: 0.08
      value: {fileID: -3558006869105266809, guid: a694429b8a0053a46963b386fb814c58,
        type: 3}
    - time: 0.12
      value: {fileID: 4598880174412574496, guid: a694429b8a0053a46963b386fb814c58,
        type: 3}
    - time: 0.16
      value: {fileID: 6273644195482972534, guid: a694429b8a0053a46963b386fb814c58,
        type: 3}
    - time: 0.19
      value: {fileID: 4598880174412574496, guid: a694429b8a0053a46963b386fb814c58,
        type: 3}
    attribute: m_Sprite
    path: Visual/Render
    classID: 212
    script: {fileID: 0}
  m_SampleRate: 60
  m_WrapMode: 0
  m_Bounds:
    m_Center: {x: 0, y: 0, z: 0}
    m_Extent: {x: 0, y: 0, z: 0}
  m_ClipBindingConstant:
    genericBindings:
    - serializedVersion: 2
      path: 3017528832
      attribute: 0
      script: {fileID: 0}
      typeID: 212
      customType: 23
      isPPtrCurve: 1
    pptrCurveMapping:
    - {fileID: 7200107209219819847, guid: a694429b8a0053a46963b386fb814c58, type: 3}
    - {fileID: -7612466223067057920, guid: a694429b8a0053a46963b386fb814c58, type: 3}
    - {fileID: -3558006869105266809, guid: a694429b8a0053a46963b386fb814c58, type: 3}
    - {fileID: 4598880174412574496, guid: a694429b8a0053a46963b386fb814c58, type: 3}
    - {fileID: 6273644195482972534, guid: a694429b8a0053a46963b386fb814c58, type: 3}
    - {fileID: 4598880174412574496, guid: a694429b8a0053a46963b386fb814c58, type: 3}
  m_AnimationClipSettings:
    serializedVersion: 2
    m_AdditiveReferencePoseClip: {fileID: 0}
    m_AdditiveReferencePoseTime: 0
    m_StartTime: 0
    m_StopTime: 0.20666666
    m_OrientationOffsetY: 0
    m_Level: 0
    m_CycleOffset: 0
    m_HasAdditiveReferencePose: 0
    m_LoopTime: 0
    m_LoopBlend: 0
    m_LoopBlendOrientation: 0
    m_LoopBlendPositionY: 0
    m_LoopBlendPositionXZ: 0
    m_KeepOriginalOrientation: 0
    m_KeepOriginalPositionY: 1
    m_KeepOriginalPositionXZ: 0
    m_HeightFromFeet: 0
    m_Mirror: 0
  m_EditorCurves: []
  m_EulerEditorCurves: []
  m_HasGenericRootTransform: 0
  m_HasMotionFloatCurves: 0
  m_Events: []
