%YAML 1.1
%TAG !u! tag:unity3d.com,2011:
--- !u!74 &7400000
AnimationClip:
  m_ObjectHideFlags: 0
  m_CorrespondingSourceObject: {fileID: 0}
  m_PrefabInstance: {fileID: 0}
  m_PrefabAsset: {fileID: 0}
  m_Name: Clip_Samurai-Prepare_CloseAttack
  serializedVersion: 6
  m_Legacy: 0
  m_Compressed: 0
  m_UseHighQualityCurve: 1
  m_RotationCurves: []
  m_CompressedRotationCurves: []
  m_EulerCurves: []
  m_PositionCurves: []
  m_ScaleCurves: []
  m_FloatCurves: []
  m_PPtrCurves:
  - curve:
    - time: 0
      value: {fileID: 9113708317679502719, guid: be8591913145da24e8d639d2297b396d,
        type: 3}
    - time: 0.03
      value: {fileID: -615754075698942074, guid: be8591913145da24e8d639d2297b396d,
        type: 3}
    - time: 0.065
      value: {fileID: 6420935336019630564, guid: be8591913145da24e8d639d2297b396d,
        type: 3}
    - time: 0.099999994
      value: {fileID: 5535930961410822522, guid: be8591913145da24e8d639d2297b396d,
        type: 3}
    - time: 0.13499999
      value: {fileID: -1977243829113747791, guid: be8591913145da24e8d639d2297b396d,
        type: 3}
    - time: 0.18499999
      value: {fileID: 4254858670955708810, guid: be8591913145da24e8d639d2297b396d,
        type: 3}
    - time: 0.23499998
      value: {fileID: -9064866114219189512, guid: be8591913145da24e8d639d2297b396d,
        type: 3}
    - time: 0.285
      value: {fileID: -7080290022942535424, guid: be8591913145da24e8d639d2297b396d,
        type: 3}
    - time: 0.385
      value: {fileID: -9064866114219189512, guid: be8591913145da24e8d639d2297b396d,
        type: 3}
    attribute: m_Sprite
    path: Visual/Render
    classID: 212
    script: {fileID: 0}
  m_SampleRate: 60
  m_WrapMode: 0
  m_Bounds:
    m_Center: {x: 0, y: 0, z: 0}
    m_Extent: {x: 0, y: 0, z: 0}
  m_ClipBindingConstant:
    genericBindings:
    - serializedVersion: 2
      path: 3017528832
      attribute: 0
      script: {fileID: 0}
      typeID: 212
      customType: 23
      isPPtrCurve: 1
    pptrCurveMapping:
    - {fileID: 9113708317679502719, guid: be8591913145da24e8d639d2297b396d, type: 3}
    - {fileID: -615754075698942074, guid: be8591913145da24e8d639d2297b396d, type: 3}
    - {fileID: 6420935336019630564, guid: be8591913145da24e8d639d2297b396d, type: 3}
    - {fileID: 5535930961410822522, guid: be8591913145da24e8d639d2297b396d, type: 3}
    - {fileID: -1977243829113747791, guid: be8591913145da24e8d639d2297b396d, type: 3}
    - {fileID: 4254858670955708810, guid: be8591913145da24e8d639d2297b396d, type: 3}
    - {fileID: -9064866114219189512, guid: be8591913145da24e8d639d2297b396d, type: 3}
    - {fileID: -7080290022942535424, guid: be8591913145da24e8d639d2297b396d, type: 3}
    - {fileID: -9064866114219189512, guid: be8591913145da24e8d639d2297b396d, type: 3}
  m_AnimationClipSettings:
    serializedVersion: 2
    m_AdditiveReferencePoseClip: {fileID: 0}
    m_AdditiveReferencePoseTime: 0
    m_StartTime: 0
    m_StopTime: 0.40166667
    m_OrientationOffsetY: 0
    m_Level: 0
    m_CycleOffset: 0
    m_HasAdditiveReferencePose: 0
    m_LoopTime: 0
    m_LoopBlend: 0
    m_LoopBlendOrientation: 0
    m_LoopBlendPositionY: 0
    m_LoopBlendPositionXZ: 0
    m_KeepOriginalOrientation: 0
    m_KeepOriginalPositionY: 1
    m_KeepOriginalPositionXZ: 0
    m_HeightFromFeet: 0
    m_Mirror: 0
  m_EditorCurves: []
  m_EulerEditorCurves: []
  m_HasGenericRootTransform: 0
  m_HasMotionFloatCurves: 0
  m_Events: []
