{ "frames": [
   {
    "filename": "Samurai #CloseAttack_Full 0.ase",
    "frame": { "x": 0, "y": 0, "w": 120, "h": 64 },
    "rotated": false,
    "trimmed": false,
    "spriteSourceSize": { "x": 0, "y": 0, "w": 120, "h": 64 },
    "sourceSize": { "w": 120, "h": 64 },
    "duration": 30
   },
   {
    "filename": "Samurai #CloseAttack_Full 1.ase",
    "frame": { "x": 120, "y": 0, "w": 120, "h": 64 },
    "rotated": false,
    "trimmed": false,
    "spriteSourceSize": { "x": 0, "y": 0, "w": 120, "h": 64 },
    "sourceSize": { "w": 120, "h": 64 },
    "duration": 35
   },
   {
    "filename": "Samurai #CloseAttack_Full 2.ase",
    "frame": { "x": 240, "y": 0, "w": 120, "h": 64 },
    "rotated": false,
    "trimmed": false,
    "spriteSourceSize": { "x": 0, "y": 0, "w": 120, "h": 64 },
    "sourceSize": { "w": 120, "h": 64 },
    "duration": 35
   },
   {
    "filename": "Samurai #CloseAttack_Full 3.ase",
    "frame": { "x": 360, "y": 0, "w": 120, "h": 64 },
    "rotated": false,
    "trimmed": false,
    "spriteSourceSize": { "x": 0, "y": 0, "w": 120, "h": 64 },
    "sourceSize": { "w": 120, "h": 64 },
    "duration": 35
   },
   {
    "filename": "Samurai #CloseAttack_Full 4.ase",
    "frame": { "x": 480, "y": 0, "w": 120, "h": 64 },
    "rotated": false,
    "trimmed": false,
    "spriteSourceSize": { "x": 0, "y": 0, "w": 120, "h": 64 },
    "sourceSize": { "w": 120, "h": 64 },
    "duration": 50
   },
   {
    "filename": "Samurai #CloseAttack_Full 5.ase",
    "frame": { "x": 0, "y": 64, "w": 120, "h": 64 },
    "rotated": false,
    "trimmed": false,
    "spriteSourceSize": { "x": 0, "y": 0, "w": 120, "h": 64 },
    "sourceSize": { "w": 120, "h": 64 },
    "duration": 50
   },
   {
    "filename": "Samurai #CloseAttack_Full 6.ase",
    "frame": { "x": 120, "y": 64, "w": 120, "h": 64 },
    "rotated": false,
    "trimmed": false,
    "spriteSourceSize": { "x": 0, "y": 0, "w": 120, "h": 64 },
    "sourceSize": { "w": 120, "h": 64 },
    "duration": 50
   },
   {
    "filename": "Samurai #CloseAttack_Full 7.ase",
    "frame": { "x": 120, "y": 64, "w": 120, "h": 64 },
    "rotated": false,
    "trimmed": false,
    "spriteSourceSize": { "x": 0, "y": 0, "w": 120, "h": 64 },
    "sourceSize": { "w": 120, "h": 64 },
    "duration": 100
   },
   {
    "filename": "Samurai #CloseAttack_Full 8.ase",
    "frame": { "x": 240, "y": 64, "w": 120, "h": 64 },
    "rotated": false,
    "trimmed": false,
    "spriteSourceSize": { "x": 0, "y": 0, "w": 120, "h": 64 },
    "sourceSize": { "w": 120, "h": 64 },
    "duration": 20
   },
   {
    "filename": "Samurai #CloseAttack_Full 9.ase",
    "frame": { "x": 360, "y": 64, "w": 120, "h": 64 },
    "rotated": false,
    "trimmed": false,
    "spriteSourceSize": { "x": 0, "y": 0, "w": 120, "h": 64 },
    "sourceSize": { "w": 120, "h": 64 },
    "duration": 20
   },
   {
    "filename": "Samurai #CloseAttack_Full 10.ase",
    "frame": { "x": 480, "y": 64, "w": 120, "h": 64 },
    "rotated": false,
    "trimmed": false,
    "spriteSourceSize": { "x": 0, "y": 0, "w": 120, "h": 64 },
    "sourceSize": { "w": 120, "h": 64 },
    "duration": 20
   },
   {
    "filename": "Samurai #CloseAttack_Full 11.ase",
    "frame": { "x": 0, "y": 128, "w": 120, "h": 64 },
    "rotated": false,
    "trimmed": false,
    "spriteSourceSize": { "x": 0, "y": 0, "w": 120, "h": 64 },
    "sourceSize": { "w": 120, "h": 64 },
    "duration": 20
   },
   {
    "filename": "Samurai #CloseAttack_Full 12.ase",
    "frame": { "x": 120, "y": 128, "w": 120, "h": 64 },
    "rotated": false,
    "trimmed": false,
    "spriteSourceSize": { "x": 0, "y": 0, "w": 120, "h": 64 },
    "sourceSize": { "w": 120, "h": 64 },
    "duration": 25
   },
   {
    "filename": "Samurai #CloseAttack_Full 13.ase",
    "frame": { "x": 240, "y": 128, "w": 120, "h": 64 },
    "rotated": false,
    "trimmed": false,
    "spriteSourceSize": { "x": 0, "y": 0, "w": 120, "h": 64 },
    "sourceSize": { "w": 120, "h": 64 },
    "duration": 25
   },
   {
    "filename": "Samurai #CloseAttack_Full 14.ase",
    "frame": { "x": 360, "y": 128, "w": 120, "h": 64 },
    "rotated": false,
    "trimmed": false,
    "spriteSourceSize": { "x": 0, "y": 0, "w": 120, "h": 64 },
    "sourceSize": { "w": 120, "h": 64 },
    "duration": 20
   },
   {
    "filename": "Samurai #CloseAttack_Full 15.ase",
    "frame": { "x": 480, "y": 128, "w": 120, "h": 64 },
    "rotated": false,
    "trimmed": false,
    "spriteSourceSize": { "x": 0, "y": 0, "w": 120, "h": 64 },
    "sourceSize": { "w": 120, "h": 64 },
    "duration": 15
   },
   {
    "filename": "Samurai #CloseAttack_Full 16.ase",
    "frame": { "x": 0, "y": 192, "w": 120, "h": 64 },
    "rotated": false,
    "trimmed": false,
    "spriteSourceSize": { "x": 0, "y": 0, "w": 120, "h": 64 },
    "sourceSize": { "w": 120, "h": 64 },
    "duration": 250
   },
   {
    "filename": "Samurai #CloseAttack_Full 17.ase",
    "frame": { "x": 120, "y": 192, "w": 120, "h": 64 },
    "rotated": false,
    "trimmed": false,
    "spriteSourceSize": { "x": 0, "y": 0, "w": 120, "h": 64 },
    "sourceSize": { "w": 120, "h": 64 },
    "duration": 40
   },
   {
    "filename": "Samurai #CloseAttack_Full 18.ase",
    "frame": { "x": 240, "y": 192, "w": 120, "h": 64 },
    "rotated": false,
    "trimmed": false,
    "spriteSourceSize": { "x": 0, "y": 0, "w": 120, "h": 64 },
    "sourceSize": { "w": 120, "h": 64 },
    "duration": 40
   },
   {
    "filename": "Samurai #CloseAttack_Full 19.ase",
    "frame": { "x": 360, "y": 192, "w": 120, "h": 64 },
    "rotated": false,
    "trimmed": false,
    "spriteSourceSize": { "x": 0, "y": 0, "w": 120, "h": 64 },
    "sourceSize": { "w": 120, "h": 64 },
    "duration": 40
   },
   {
    "filename": "Samurai #CloseAttack_Full 20.ase",
    "frame": { "x": 480, "y": 192, "w": 120, "h": 64 },
    "rotated": false,
    "trimmed": false,
    "spriteSourceSize": { "x": 0, "y": 0, "w": 120, "h": 64 },
    "sourceSize": { "w": 120, "h": 64 },
    "duration": 40
   },
   {
    "filename": "Samurai #CloseAttack_Full 21.ase",
    "frame": { "x": 0, "y": 0, "w": 120, "h": 64 },
    "rotated": false,
    "trimmed": false,
    "spriteSourceSize": { "x": 0, "y": 0, "w": 120, "h": 64 },
    "sourceSize": { "w": 120, "h": 64 },
    "duration": 30
   }
 ],
 "meta": {
  "app": "http://www.aseprite.org/",
  "version": "1.2.18-x64",
  "image": "Samurai-CloseAttack_Full.png",
  "format": "RGBA8888",
  "size": { "w": 600, "h": 256 },
  "scale": "1",
  "slices": [
  ]
 }
}
