{ "frames": [
   {
    "filename": "Samurai #DashAttack_Prepare_Alerted 0.ase",
    "frame": { "x": 0, "y": 0, "w": 120, "h": 64 },
    "rotated": false,
    "trimmed": false,
    "spriteSourceSize": { "x": 0, "y": 0, "w": 120, "h": 64 },
    "sourceSize": { "w": 120, "h": 64 },
    "duration": 60
   },
   {
    "filename": "Samurai #DashAttack_Prepare_Alerted 1.ase",
    "frame": { "x": 120, "y": 0, "w": 120, "h": 64 },
    "rotated": false,
    "trimmed": false,
    "spriteSourceSize": { "x": 0, "y": 0, "w": 120, "h": 64 },
    "sourceSize": { "w": 120, "h": 64 },
    "duration": 60
   },
   {
    "filename": "Samurai #DashAttack_Prepare_Alerted 2.ase",
    "frame": { "x": 240, "y": 0, "w": 120, "h": 64 },
    "rotated": false,
    "trimmed": false,
    "spriteSourceSize": { "x": 0, "y": 0, "w": 120, "h": 64 },
    "sourceSize": { "w": 120, "h": 64 },
    "duration": 60
   },
   {
    "filename": "Samurai #DashAttack_Prepare_Alerted 3.ase",
    "frame": { "x": 360, "y": 0, "w": 120, "h": 64 },
    "rotated": false,
    "trimmed": false,
    "spriteSourceSize": { "x": 0, "y": 0, "w": 120, "h": 64 },
    "sourceSize": { "w": 120, "h": 64 },
    "duration": 60
   },
   {
    "filename": "Samurai #DashAttack_Prepare_Alerted 4.ase",
    "frame": { "x": 0, "y": 64, "w": 120, "h": 64 },
    "rotated": false,
    "trimmed": false,
    "spriteSourceSize": { "x": 0, "y": 0, "w": 120, "h": 64 },
    "sourceSize": { "w": 120, "h": 64 },
    "duration": 60
   },
   {
    "filename": "Samurai #DashAttack_Prepare_Alerted 5.ase",
    "frame": { "x": 120, "y": 64, "w": 120, "h": 64 },
    "rotated": false,
    "trimmed": false,
    "spriteSourceSize": { "x": 0, "y": 0, "w": 120, "h": 64 },
    "sourceSize": { "w": 120, "h": 64 },
    "duration": 300
   },
   {
    "filename": "Samurai #DashAttack_Prepare_Alerted 6.ase",
    "frame": { "x": 240, "y": 64, "w": 120, "h": 64 },
    "rotated": false,
    "trimmed": false,
    "spriteSourceSize": { "x": 0, "y": 0, "w": 120, "h": 64 },
    "sourceSize": { "w": 120, "h": 64 },
    "duration": 45
   },
   {
    "filename": "Samurai #DashAttack_Prepare_Alerted 7.ase",
    "frame": { "x": 360, "y": 64, "w": 120, "h": 64 },
    "rotated": false,
    "trimmed": false,
    "spriteSourceSize": { "x": 0, "y": 0, "w": 120, "h": 64 },
    "sourceSize": { "w": 120, "h": 64 },
    "duration": 45
   },
   {
    "filename": "Samurai #DashAttack_Prepare_Alerted 8.ase",
    "frame": { "x": 0, "y": 128, "w": 120, "h": 64 },
    "rotated": false,
    "trimmed": false,
    "spriteSourceSize": { "x": 0, "y": 0, "w": 120, "h": 64 },
    "sourceSize": { "w": 120, "h": 64 },
    "duration": 45
   },
   {
    "filename": "Samurai #DashAttack_Prepare_Alerted 9.ase",
    "frame": { "x": 120, "y": 128, "w": 120, "h": 64 },
    "rotated": false,
    "trimmed": false,
    "spriteSourceSize": { "x": 0, "y": 0, "w": 120, "h": 64 },
    "sourceSize": { "w": 120, "h": 64 },
    "duration": 45
   },
   {
    "filename": "Samurai #DashAttack_Prepare_Alerted 10.ase",
    "frame": { "x": 120, "y": 128, "w": 120, "h": 64 },
    "rotated": false,
    "trimmed": false,
    "spriteSourceSize": { "x": 0, "y": 0, "w": 120, "h": 64 },
    "sourceSize": { "w": 120, "h": 64 },
    "duration": 45
   },
   {
    "filename": "Samurai #DashAttack_Prepare_Alerted 11.ase",
    "frame": { "x": 240, "y": 128, "w": 120, "h": 64 },
    "rotated": false,
    "trimmed": false,
    "spriteSourceSize": { "x": 0, "y": 0, "w": 120, "h": 64 },
    "sourceSize": { "w": 120, "h": 64 },
    "duration": 45
   },
   {
    "filename": "Samurai #DashAttack_Prepare_Alerted 12.ase",
    "frame": { "x": 120, "y": 128, "w": 120, "h": 64 },
    "rotated": false,
    "trimmed": false,
    "spriteSourceSize": { "x": 0, "y": 0, "w": 120, "h": 64 },
    "sourceSize": { "w": 120, "h": 64 },
    "duration": 45
   },
   {
    "filename": "Samurai #DashAttack_Prepare_Alerted 13.ase",
    "frame": { "x": 120, "y": 128, "w": 120, "h": 64 },
    "rotated": false,
    "trimmed": false,
    "spriteSourceSize": { "x": 0, "y": 0, "w": 120, "h": 64 },
    "sourceSize": { "w": 120, "h": 64 },
    "duration": 45
   },
   {
    "filename": "Samurai #DashAttack_Prepare_Alerted 14.ase",
    "frame": { "x": 0, "y": 128, "w": 120, "h": 64 },
    "rotated": false,
    "trimmed": false,
    "spriteSourceSize": { "x": 0, "y": 0, "w": 120, "h": 64 },
    "sourceSize": { "w": 120, "h": 64 },
    "duration": 35
   },
   {
    "filename": "Samurai #DashAttack_Prepare_Alerted 15.ase",
    "frame": { "x": 360, "y": 64, "w": 120, "h": 64 },
    "rotated": false,
    "trimmed": false,
    "spriteSourceSize": { "x": 0, "y": 0, "w": 120, "h": 64 },
    "sourceSize": { "w": 120, "h": 64 },
    "duration": 35
   },
   {
    "filename": "Samurai #DashAttack_Prepare_Alerted 16.ase",
    "frame": { "x": 360, "y": 128, "w": 120, "h": 64 },
    "rotated": false,
    "trimmed": false,
    "spriteSourceSize": { "x": 0, "y": 0, "w": 120, "h": 64 },
    "sourceSize": { "w": 120, "h": 64 },
    "duration": 35
   },
   {
    "filename": "Samurai #DashAttack_Prepare_Alerted 17.ase",
    "frame": { "x": 120, "y": 64, "w": 120, "h": 64 },
    "rotated": false,
    "trimmed": false,
    "spriteSourceSize": { "x": 0, "y": 0, "w": 120, "h": 64 },
    "sourceSize": { "w": 120, "h": 64 },
    "duration": 300
   }
 ],
 "meta": {
  "app": "http://www.aseprite.org/",
  "version": "1.2.18-x64",
  "image": "Samurai-DashAttack_Prepare_Alerted.png",
  "format": "RGBA8888",
  "size": { "w": 480, "h": 192 },
  "scale": "1",
  "slices": [
  ]
 }
}
